<svg xmlns="http://www.w3.org/2000/svg" id="Calque_2" viewBox="0 0 300 300" style="fill: #003a5d;">
  <path
    d="M259.72,13.15c-.94,21.9-1.24,43.84-2.99,65.67-2.22,27.67-10.03,53.7-27.89,75.69-10.99,13.53-23.66,25.23-40.66,30.96-5.43,1.83-11.05,3.07-16.97,4.69v59.27h29.41v37.43h-99.7v-37.2h27.8v-59.87c-3.3-.91-7.1-1.82-10.81-3-24.4-7.8-42.54-23.38-55.26-45.31-10.58-18.24-17.71-37.89-20.75-58.77-1.34-9.17-1.3-18.58-1.46-27.88-.24-13.89-.11-27.78-.13-41.68h10.42c1.88.17,3.77.52,5.65.49,5.07-.08,10.13-.32,15.19-.49,3.66,0,7.31,0,10.97,0,.97.14,1.93.41,2.9.41,43.13.02,86.26.02,129.4,0,1.07,0,2.14-.27,3.2-.41,13.9,0,27.79,0,41.69,0ZM216.28,59.23H82.06c.62,7.86.67,15.57,1.95,23.07,2.19,12.84,6.94,24.96,12.85,36.52,11.87,23.22,30.17,36.29,57.16,35.33,13.65-.49,25.49-4.92,35.19-14.74,6.96-7.05,12.04-15.33,16.2-24.24,6.23-13.36,8.45-27.67,9.91-42.15.45-4.51.64-9.05.96-13.79Z"></path>
</svg>