<svg xmlns="http://www.w3.org/2000/svg" id="Calque_1" viewBox="0 0 85.04 85.04">
<style type="text/css">
    .st0{fill:#213B58;}
</style>
  <defs></defs>
  <path class="st0"
    d="M76.68,18.87l-26.31,1.26c.18-.19.29-1,.44-1.13,2.76-.26,8.57-1.15,8.62-1.15l-1.8-9.99c-.24.01-6.02.33-8.88.66-2.16.25-4.19,1.49-6.49,4.04-.5-.51-1-.94-1.48-1.31-6.46-4.94-14.23-3.35-15.21-3.12l1.4,10.6h-.03c1.18-.25,4.88-.61,7.07.77l-25.64-.62v12.19h.99l.93,12.62-.93,33.66h11.57l17.1-.34h10.7l14.86.34h10.74v-11.57l.83-34.71h1.53v-12.19ZM36.89,31.06v10.41l-16.54,1.12,1.18-11.04,15.36-.49ZM20.36,66.45l.56-13.41,16.3-.93-.32,13.66-16.54.68ZM47.6,65.77l.8-13.66,15.18.93.58,13.41-16.56-.68ZM63.58,41.95l-15.98-.48-.85-11.1,16.83.69v10.89Z"></path>
</svg>