<svg xmlns="http://www.w3.org/2000/svg" id="Calque_1" viewBox="0 0 85.04 85.04"
>
  <style type="text/css">
    .st0{fill:#003A5B;}
</style>
  <defs></defs>
  <path class="st0"
    d="M77.09,23.37l-3.48-.04v-6.81h-11.13v6.68l-5.62-.06-.82-15.21-27.18.38-1.85,14.36-19.52-.42.48,54.84,69.58-.89-.46-52.84ZM38.69,18.33l7.45-.56-.14,4.91h-7.67l.36-4.35ZM18.48,66.61l-.67-33.4,48.51.44.26,32.47-48.11.49Z"></path>
  <path class="st0"
    d="M51.26,37.03l-4.42-1.98c-.4-.18-.84-.28-1.27-.31l-5.33-.29s-3.92.94-5.68,1.95c-1.76,1.02-3.74,2.1-5.05,3.83-1.3,1.73-2.3,5.91-2.3,5.91l-.32,6,.75,3.76,1.87,2.82,2.65,2.75,2.67,1.78,5.88,2.11,3.24.17,3.6-.65,2.93-.92,2.29-1.47,1.8-2.42c.27-.22,2.38-3.34,2.53-3.66l.97-3.21.18-5.8s-.85-3.79-1.87-5.55c-1.01-1.75-5.04-4.8-5.09-4.84ZM48.7,50.8c-.14.83-.88,2.33-.88,2.33l-1.5,1.62c-.12.13-.27.25-.44.32l-1.8.88s-2.06.49-2.89.35c-.83-.14-2.26-.87-2.26-.87l-1.8-1.59-.77-1.16c-.06-.13-.5-1.63-.5-1.77l-.28-1.08.2-1.19.33-1.3.82-1.26.91-.99,2.23-1.31,1.27-.38,1.57-.11,1.39.15,1.4.75,1.82,1.69s1.07,1.42,1.27,2.29c.21.87.03,1.79-.11,2.62Z"></path>
</svg>