<?xml version="1.0" encoding="utf-8"?>
<!-- Generator: Adobe Illustrator 23.0.3, SVG Export Plug-In . SVG Version: 6.00 Build 0)  -->
<svg version="1.1" id="Calque_1" xmlns="http://www.w3.org/2000/svg" xmlns:xlink="http://www.w3.org/1999/xlink" x="0px" y="0px"
	 viewBox="0 0 85.04 85.04" style="enable-background:new 0 0 85.04 85.04;" xml:space="preserve">
<style type="text/css">
	.st0{fill:#003A5D;}
</style>
<g>
	<polygon class="st0" points="73.39,60.12 68.35,47.67 41.98,59.72 17.15,47.94 11.65,58.29 22.74,63.92 27.58,66.3 11.95,73.44 
		16.61,84 28.05,79.14 42.65,72.7 67.23,84.76 73.18,74.52 57.55,67.11 	"/>
	<path class="st0" d="M60.09,22.82l0.01-0.01L45.03,5.18l-4.57-4.9L27.28,17.12l-6.82,8.45L36.1,43.86l5.6,5.94l15.49-19.79
		l4.49-5.49L60.09,22.82z M41.08,34.1l-7.47-8.46l3.89-4.87l3.96-4.7l8.07,8.63l-4.49,4.7L41.08,34.1z"/>
</g>
</svg>
