<?xml version="1.0" encoding="utf-8"?>
<!-- Generator: Adobe Illustrator 23.0.3, SVG Export Plug-In . SVG Version: 6.00 Build 0)  -->
<svg version="1.1" id="Calque_1" xmlns="http://www.w3.org/2000/svg" xmlns:xlink="http://www.w3.org/1999/xlink" x="0px" y="0px"
	 viewBox="0 0 85.04 85.04" style="enable-background:new 0 0 85.04 85.04;" xml:space="preserve">
<style type="text/css">
	.st0{fill:#003A5D;}
</style>
<polygon class="st0" points="83.92,38.45 80.16,24.77 59.49,29.57 71.6,12.36 59.63,4.74 49.86,18.81 48.16,2.17 35.64,0.12 
	37,14.3 37.31,24.4 20.74,9.45 10.08,16.33 20.6,25.93 30.6,36.33 1.12,43.8 6.44,55.52 28.43,49.88 13.79,71.88 25.6,77 
	38.69,57.2 40.26,81.59 53.51,84.92 52.42,58.34 68.17,73.65 80.23,67.22 57.76,44.36 "/>
</svg>
