<?xml version="1.0" encoding="utf-8"?>
<!-- Generator: Adobe Illustrator 23.0.3, SVG Export Plug-In . SVG Version: 6.00 Build 0)  -->
<svg version="1.1" id="Calque_1" xmlns="http://www.w3.org/2000/svg" xmlns:xlink="http://www.w3.org/1999/xlink" x="0px" y="0px"
	 viewBox="0 0 85.04 85.04" style="enable-background:new 0 0 85.04 85.04;" xml:space="preserve">
<style type="text/css">
	.st0{fill:#003A5D;}
</style>
<path class="st0" d="M76.3,50.69l-4.11-8.93l-11.84,6.92l-2.12,1.04L47.09,55l-0.02-10.73l15.17-7.92
	c0.03-0.01,12.48-7.56,12.67-7.4l-4.11-8.93l-11.84,6.92l-2.12,1.04l-9.79,4.63l-0.02-9.07l0-0.16l18.08-9.47
	c0.03-0.01-3.28-9.41-3.28-9.41l-2.12,1.04l-12.63,5.94l0.05-10.07l-9.82,0.22c0.1,0.04,0.08,4.18,0.02,8.75l-8.95-7.12
	c-0.02-0.03-7.26,6.82-7.26,6.82l1.81,1.52l14.2,12.22l-0.1,8l-7.68-6.11c-0.02-0.03-11.98-8.33-11.91-8.57l-6.49,7.38l11.13,8.01
	l1.81,1.52L36.85,45.2l-0.13,10.44l-10.18-8.13l-1.83-1.5l-9.93-9.46L8.74,44.3c0.22-0.11,10.6,10.1,10.63,10.11l17.14,14.82
	l0.04-0.04l-0.17,14.43l10.76-0.43L47.11,66.8l16.52-8.71C63.67,58.08,76.12,50.53,76.3,50.69z"/>
</svg>
