<?xml version="1.0" encoding="utf-8"?>
<!-- Generator: Adobe Illustrator 25.4.1, SVG Export Plug-In . SVG Version: 6.00 Build 0)  -->
<!DOCTYPE svg PUBLIC "-//W3C//DTD SVG 1.1//EN" "http://www.w3.org/Graphics/SVG/1.1/DTD/svg11.dtd" [
	<!ENTITY ns_extend "http://ns.adobe.com/Extensibility/1.0/">
	<!ENTITY ns_ai "http://ns.adobe.com/AdobeIllustrator/10.0/">
	<!ENTITY ns_graphs "http://ns.adobe.com/Graphs/1.0/">
	<!ENTITY ns_vars "http://ns.adobe.com/Variables/1.0/">
	<!ENTITY ns_imrep "http://ns.adobe.com/ImageReplacement/1.0/">
	<!ENTITY ns_sfw "http://ns.adobe.com/SaveForWeb/1.0/">
	<!ENTITY ns_custom "http://ns.adobe.com/GenericCustomNamespace/1.0/">
	<!ENTITY ns_adobe_xpath "http://ns.adobe.com/XPath/1.0/">
]>
<svg version="1.1" id="Calque_1" xmlns:x="&ns_extend;" xmlns:i="&ns_ai;" xmlns:graph="&ns_graphs;"
	 xmlns="http://www.w3.org/2000/svg" xmlns:xlink="http://www.w3.org/1999/xlink" x="0px" y="0px" viewBox="0 0 85.04 85.04"
	 style="enable-background:new 0 0 85.04 85.04;" xml:space="preserve">
<style type="text/css">
	.st0{fill:#223B5A;}
	.st1{fill:#FFFFFF;}
</style>
<switch>
	<foreignObject requiredExtensions="&ns_ai;" x="0" y="0" width="1" height="1">
		<i:aipgfRef  xlink:href="#adobe_illustrator_pgf">
		</i:aipgfRef>
	</foreignObject>
	<g i:extraneous="self">
		<path class="st0" d="M70.4,68.15c-0.55,0.62-1.12,1.23-1.71,1.82c-3.53,3.53-7.64,6.3-12.21,8.23c-4.74,2-9.77,3.02-14.95,3.02
			s-10.22-1.02-14.95-3.02c-4.57-1.93-8.68-4.71-12.21-8.23c-3.53-3.53-6.3-7.64-8.23-12.21c-2-4.74-3.02-9.77-3.02-14.95
			s1.02-10.22,3.02-14.95c1.88-4.44,4.54-8.43,7.91-11.89L13.8,15.1c-3.59,3.6-6.42,7.78-8.39,12.45
			c-2.04,4.83-3.08,9.97-3.08,15.26s1.04,10.42,3.08,15.26c1.97,4.67,4.8,8.86,8.4,12.46c3.6,3.6,7.79,6.43,12.46,8.4
			C31.1,80.96,36.23,82,41.52,82s10.42-1.04,15.26-3.08c4.67-1.97,8.86-4.8,12.46-8.4c0.63-0.63,1.24-1.28,1.82-1.94L70.4,68.15z"/>
		<g>
			<g>
				<path class="st0" d="M17.38,16.07l-1.25-4.92l0.53-0.42l4.48,2.37l-0.69,0.54l-1.17-0.61l-1.54,1.21l0.33,1.27L17.38,16.07z
					 M17.02,11.74l0.43,1.83l1.23-0.97L17.02,11.74z"/>
				<path class="st0" d="M21.6,12.84l-2.39-3.98l1.84-1.11c0.2-0.12,0.41-0.19,0.62-0.22c0.21-0.02,0.42-0.01,0.61,0.04
					c0.2,0.05,0.38,0.13,0.54,0.25c0.16,0.12,0.29,0.25,0.39,0.42c0.1,0.17,0.17,0.35,0.2,0.55c0.03,0.2,0.02,0.39-0.02,0.58
					c-0.04,0.19-0.12,0.37-0.24,0.55s-0.28,0.32-0.48,0.44l-1.17,0.7l0.81,1.36L21.6,12.84z M21.12,10.43l1.13-0.68
					c0.2-0.12,0.32-0.28,0.36-0.47c0.04-0.2,0-0.4-0.12-0.61c-0.06-0.1-0.14-0.19-0.23-0.25c-0.09-0.06-0.18-0.1-0.28-0.12
					c-0.1-0.02-0.2-0.02-0.3,0c-0.1,0.02-0.2,0.06-0.29,0.11L20.3,9.06L21.12,10.43z"/>
				<path class="st0" d="M25.4,10.63l-1.88-4.24l1.96-0.87c0.21-0.1,0.43-0.14,0.64-0.14c0.21,0,0.42,0.04,0.6,0.12
					c0.19,0.08,0.36,0.18,0.5,0.31c0.14,0.13,0.26,0.29,0.33,0.46c0.08,0.18,0.12,0.37,0.13,0.57s-0.02,0.39-0.09,0.58
					c-0.07,0.19-0.17,0.36-0.31,0.51c-0.14,0.16-0.31,0.28-0.53,0.38l-1.25,0.55l0.64,1.44L25.4,10.63z M25.22,8.19l1.2-0.53
					c0.21-0.09,0.35-0.24,0.42-0.43s0.05-0.4-0.04-0.62c-0.05-0.11-0.11-0.2-0.19-0.27c-0.08-0.07-0.17-0.12-0.26-0.16
					c-0.09-0.03-0.19-0.05-0.3-0.04c-0.1,0.01-0.2,0.03-0.3,0.07l-1.16,0.52L25.22,8.19z"/>
				<path class="st0" d="M29.42,8.91l-1.33-4.45l2.14-0.64c0.22-0.07,0.44-0.09,0.65-0.06c0.21,0.03,0.4,0.09,0.58,0.19
					c0.18,0.1,0.33,0.22,0.46,0.37c0.13,0.15,0.22,0.32,0.27,0.5c0.04,0.14,0.06,0.29,0.06,0.44c0,0.15-0.03,0.29-0.08,0.43
					c-0.05,0.14-0.12,0.27-0.21,0.39c-0.09,0.12-0.2,0.23-0.33,0.32l1.67,1.33l-0.91,0.27l-1.52-1.2l-1.11,0.33l0.45,1.51
					L29.42,8.91z M29.55,6.46l1.33-0.4C31.1,6,31.25,5.87,31.34,5.68c0.09-0.19,0.11-0.39,0.04-0.61c-0.03-0.11-0.08-0.2-0.15-0.28
					c-0.07-0.08-0.15-0.15-0.24-0.19c-0.09-0.04-0.19-0.07-0.3-0.09c-0.11-0.01-0.21,0-0.31,0.03l-1.29,0.39L29.55,6.46z"/>
				<path class="st0" d="M37.26,6.34l0.12,0.73l-3.47,0.58l-0.76-4.58l3.41-0.57l0.12,0.73l-2.59,0.43l0.2,1.19l2.24-0.37l0.11,0.67
					l-2.24,0.38l0.21,1.27L37.26,6.34z"/>
				<path class="st0" d="M38.81,3.86l0.1,3.09l-0.83,0.03l-0.15-4.64l0.64-0.02l3,3.07l-0.1-3.16l0.84-0.03l0.15,4.64l-0.69,0.02
					L38.81,3.86z"/>
				<path class="st0" d="M47.62,3.41l-1.68-0.17l-0.4,3.89l-0.83-0.09l0.4-3.89l-1.69-0.17l0.07-0.73l4.2,0.43L47.62,3.41z"/>
				<path class="st0" d="M47.89,7.47l0.88-4.56l0.81,0.16L48.7,7.62L47.89,7.47z"/>
				<path class="st0" d="M53.62,5.32c-0.04-0.06-0.1-0.13-0.17-0.21c-0.07-0.08-0.16-0.16-0.26-0.24c-0.1-0.08-0.21-0.15-0.34-0.21
					c-0.13-0.07-0.26-0.12-0.4-0.16c-0.31-0.09-0.55-0.11-0.73-0.05c-0.18,0.06-0.29,0.17-0.34,0.34c-0.03,0.1-0.03,0.18,0,0.26
					c0.03,0.08,0.09,0.15,0.17,0.23c0.08,0.08,0.19,0.16,0.33,0.24c0.14,0.08,0.3,0.17,0.48,0.27c0.22,0.13,0.42,0.25,0.6,0.37
					c0.17,0.12,0.32,0.25,0.42,0.39C53.5,6.69,53.57,6.84,53.61,7c0.04,0.16,0.02,0.34-0.04,0.55c-0.07,0.24-0.17,0.42-0.31,0.56
					s-0.31,0.24-0.5,0.3c-0.19,0.06-0.4,0.08-0.63,0.07c-0.23-0.01-0.46-0.05-0.7-0.12c-0.37-0.11-0.71-0.26-1.03-0.46
					c-0.31-0.2-0.58-0.43-0.8-0.7l0.56-0.59c0.05,0.08,0.12,0.17,0.21,0.27c0.09,0.1,0.2,0.2,0.33,0.29
					c0.13,0.09,0.27,0.18,0.43,0.27c0.16,0.08,0.33,0.15,0.52,0.21c0.29,0.08,0.52,0.1,0.7,0.06c0.18-0.04,0.29-0.15,0.34-0.32
					c0.03-0.1,0.02-0.2-0.02-0.28s-0.11-0.17-0.2-0.26c-0.1-0.09-0.22-0.17-0.37-0.26c-0.15-0.09-0.32-0.19-0.51-0.29
					c-0.22-0.13-0.41-0.25-0.56-0.37c-0.16-0.12-0.28-0.24-0.37-0.37c-0.09-0.13-0.15-0.27-0.17-0.41s-0.01-0.31,0.04-0.48
					c0.06-0.22,0.16-0.4,0.3-0.54s0.3-0.25,0.5-0.32s0.4-0.1,0.63-0.1c0.23,0,0.47,0.04,0.71,0.11c0.33,0.1,0.62,0.23,0.87,0.41
					c0.25,0.18,0.45,0.37,0.62,0.57L53.62,5.32z"/>
				<path class="st0" d="M57.96,7.02c-0.03-0.07-0.08-0.15-0.14-0.23c-0.06-0.09-0.14-0.18-0.23-0.26
					c-0.09-0.09-0.19-0.17-0.31-0.25c-0.12-0.08-0.24-0.15-0.38-0.2c-0.3-0.13-0.54-0.17-0.72-0.13c-0.18,0.04-0.31,0.14-0.38,0.3
					c-0.04,0.09-0.05,0.18-0.03,0.26c0.02,0.08,0.07,0.16,0.14,0.25c0.07,0.08,0.17,0.18,0.3,0.27s0.27,0.21,0.45,0.33
					c0.21,0.15,0.39,0.3,0.55,0.44c0.16,0.14,0.28,0.28,0.37,0.43c0.09,0.15,0.14,0.31,0.16,0.47c0.02,0.16-0.02,0.34-0.1,0.54
					c-0.1,0.23-0.22,0.4-0.38,0.52c-0.16,0.12-0.33,0.2-0.53,0.23s-0.41,0.03-0.63-0.01c-0.22-0.04-0.45-0.11-0.68-0.21
					c-0.36-0.15-0.68-0.34-0.96-0.58c-0.29-0.24-0.53-0.5-0.71-0.79l0.63-0.52c0.04,0.09,0.09,0.19,0.17,0.3
					c0.08,0.11,0.18,0.22,0.29,0.33c0.11,0.11,0.25,0.21,0.39,0.32c0.15,0.1,0.31,0.19,0.49,0.27c0.27,0.11,0.5,0.16,0.68,0.14
					c0.18-0.02,0.31-0.11,0.38-0.28c0.04-0.1,0.05-0.19,0.02-0.28c-0.03-0.09-0.09-0.18-0.17-0.28c-0.09-0.1-0.2-0.2-0.33-0.3
					c-0.14-0.11-0.29-0.22-0.47-0.35c-0.2-0.15-0.38-0.29-0.52-0.43s-0.25-0.27-0.32-0.41s-0.11-0.28-0.12-0.43
					c0-0.15,0.03-0.31,0.1-0.47c0.09-0.21,0.21-0.38,0.37-0.5s0.33-0.21,0.53-0.26c0.2-0.05,0.41-0.06,0.64-0.03
					c0.23,0.03,0.46,0.09,0.69,0.19c0.32,0.13,0.59,0.3,0.82,0.51c0.23,0.2,0.41,0.42,0.54,0.64L57.96,7.02z"/>
				<path class="st0" d="M57.2,10.44l4.1-2.99l0.59,0.34l-0.54,5.05l-0.76-0.44l0.14-1.31l-1.7-0.98l-1.06,0.78L57.2,10.44z
					 M61.09,8.5l-1.54,1.07l1.36,0.78L61.09,8.5z"/>
				<path class="st0" d="M64.69,14.71c-0.56,0.05-1.06-0.09-1.48-0.42c-0.26-0.2-0.47-0.44-0.62-0.72
					c-0.15-0.28-0.24-0.57-0.27-0.87c-0.04-0.3-0.01-0.61,0.06-0.91c0.08-0.3,0.21-0.58,0.39-0.82c0.19-0.25,0.42-0.45,0.69-0.6
					c0.27-0.15,0.55-0.25,0.85-0.29c0.3-0.04,0.6-0.02,0.91,0.06c0.3,0.08,0.59,0.22,0.87,0.43c0.38,0.29,0.64,0.6,0.78,0.95
					c0.15,0.35,0.19,0.69,0.14,1.03l-0.79-0.01c0.05-0.27,0.01-0.53-0.1-0.77c-0.11-0.24-0.28-0.45-0.51-0.62
					c-0.18-0.14-0.37-0.23-0.58-0.27c-0.2-0.04-0.4-0.04-0.59-0.01c-0.19,0.04-0.38,0.11-0.55,0.22c-0.18,0.11-0.33,0.25-0.46,0.42
					c-0.14,0.18-0.23,0.37-0.28,0.57s-0.07,0.41-0.05,0.61s0.09,0.39,0.19,0.57c0.1,0.18,0.24,0.34,0.43,0.48
					c0.39,0.3,0.89,0.4,1.48,0.31l0.24-0.31l-0.85-0.64l0.37-0.49l1.4,1.07l-1.44,1.88l-0.56-0.43L64.69,14.71z"/>
				<path class="st0" d="M68.52,18.06L68,18.59l-2.5-2.48l3.26-3.3l2.46,2.43l-0.52,0.52l-1.87-1.85l-0.85,0.86l1.62,1.6l-0.48,0.48
					l-1.62-1.6l-0.91,0.92L68.52,18.06z"/>
				<path class="st0" d="M69.81,20.75l3.79-2.67l1.24,1.76c0.13,0.19,0.22,0.39,0.26,0.6c0.04,0.21,0.04,0.42,0,0.62
					s-0.11,0.38-0.21,0.55c-0.1,0.17-0.23,0.31-0.39,0.42c-0.16,0.11-0.34,0.19-0.53,0.24c-0.19,0.04-0.39,0.05-0.58,0.02
					c-0.2-0.03-0.38-0.1-0.56-0.2s-0.34-0.25-0.47-0.44l-0.78-1.11l-1.29,0.91L69.81,20.75z M72.17,20.1l0.76,1.07
					c0.13,0.19,0.3,0.29,0.5,0.32c0.2,0.03,0.4-0.03,0.6-0.16c0.1-0.07,0.18-0.15,0.23-0.24c0.05-0.09,0.09-0.19,0.11-0.29
					c0.01-0.1,0.01-0.2-0.02-0.3c-0.03-0.1-0.07-0.19-0.13-0.28l-0.73-1.04L72.17,20.1z"/>
				<path class="st0" d="M71.89,23.66l5.07-0.38l0.32,0.6l-3.12,4l-0.42-0.77l0.81-1.04l-0.93-1.72l-1.31,0.11L71.89,23.66z
					 M76.21,24.06l-1.87,0.1l0.75,1.38L76.21,24.06z"/>
				<path class="st0" d="M74.32,28.33l4.34-1.65l0.79,2.09c0.08,0.22,0.12,0.43,0.1,0.65c-0.01,0.21-0.06,0.41-0.15,0.59
					c-0.08,0.18-0.2,0.34-0.34,0.48c-0.14,0.14-0.3,0.24-0.48,0.31c-0.14,0.05-0.29,0.08-0.44,0.09c-0.15,0.01-0.3-0.01-0.44-0.05
					c-0.14-0.04-0.28-0.1-0.41-0.18c-0.13-0.08-0.24-0.18-0.34-0.3l-1.2,1.76l-0.34-0.89l1.08-1.6l-0.41-1.09l-1.48,0.56
					L74.32,28.33z M76.77,28.28l0.49,1.3c0.08,0.21,0.22,0.35,0.41,0.43c0.2,0.08,0.4,0.08,0.61,0c0.1-0.04,0.19-0.1,0.27-0.17
					c0.08-0.07,0.13-0.16,0.17-0.25s0.06-0.2,0.06-0.3s-0.01-0.21-0.05-0.31l-0.48-1.26L76.77,28.28z"/>
				<path class="st0" d="M76.42,34.74l4.56-0.85l0.15,0.81l-3.84,0.71l0.46,2.48l-0.72,0.13L76.42,34.74z"/>
				<path class="st0" d="M81.09,37.81l1,0.06l-0.03-0.29l1.03-0.12l0.1,0.9l-1.04,0.12l-1-0.16L81.09,37.81z"/>
				<path class="st0" d="M77.19,39.21l4.7,1.92l0.02,0.68L77.34,44l-0.03-0.88l1.19-0.57l-0.06-1.96l-1.22-0.49L77.19,39.21z
					 M80.89,41.5l-1.72-0.74l0.05,1.57L80.89,41.5z"/>
				<path class="st0" d="M79.67,44.23c0.28,0.03,0.55,0.11,0.81,0.24c0.26,0.13,0.49,0.32,0.69,0.55c0.2,0.23,0.35,0.5,0.46,0.82
					c0.11,0.32,0.14,0.66,0.11,1.05c-0.04,0.46-0.17,0.84-0.39,1.15c-0.22,0.31-0.48,0.53-0.8,0.67l-0.38-0.69
					c0.14-0.05,0.26-0.13,0.36-0.22s0.18-0.19,0.25-0.3c0.06-0.11,0.11-0.22,0.15-0.35s0.06-0.24,0.07-0.36
					c0.03-0.26,0-0.49-0.08-0.7c-0.08-0.2-0.18-0.38-0.32-0.52c-0.14-0.14-0.3-0.26-0.48-0.34s-0.37-0.14-0.56-0.15
					c-0.21-0.02-0.42,0-0.62,0.06s-0.38,0.15-0.55,0.28c-0.16,0.13-0.3,0.28-0.41,0.47c-0.11,0.18-0.17,0.39-0.19,0.62
					c-0.01,0.12-0.01,0.25,0.01,0.38s0.05,0.26,0.09,0.38c0.05,0.12,0.11,0.24,0.2,0.35c0.08,0.11,0.19,0.2,0.31,0.28l-0.47,0.65
					c-0.16-0.1-0.31-0.23-0.42-0.39c-0.12-0.16-0.22-0.33-0.29-0.53c-0.08-0.19-0.13-0.39-0.15-0.61c-0.03-0.21-0.03-0.42-0.01-0.62
					c0.03-0.35,0.13-0.66,0.3-0.94s0.37-0.51,0.62-0.71c0.25-0.19,0.52-0.33,0.81-0.42C79.08,44.23,79.38,44.2,79.67,44.23z"/>
				<path class="st0" d="M79.74,53.59l0.37-1.65l-3.81-0.86l0.18-0.82l3.81,0.86l0.37-1.66l0.72,0.16l-0.93,4.12L79.74,53.59z"/>
				<path class="st0" d="M75.68,53.37l4.42,1.43l-0.25,0.79l-4.42-1.43L75.68,53.37z"/>
				<path class="st0" d="M74.24,57.12c0.15-0.33,0.34-0.61,0.58-0.82c0.24-0.22,0.51-0.38,0.79-0.48s0.58-0.15,0.89-0.15
					c0.31,0.01,0.6,0.07,0.87,0.19c0.28,0.12,0.53,0.3,0.73,0.52c0.21,0.23,0.37,0.48,0.48,0.77c0.11,0.29,0.17,0.59,0.17,0.91
					c0,0.32-0.07,0.64-0.21,0.97c-0.15,0.33-0.34,0.61-0.58,0.82c-0.24,0.22-0.51,0.38-0.8,0.48c-0.29,0.11-0.58,0.15-0.89,0.14
					c-0.31-0.01-0.59-0.07-0.86-0.19c-0.28-0.12-0.53-0.3-0.73-0.52c-0.21-0.22-0.37-0.48-0.48-0.76c-0.11-0.29-0.17-0.59-0.16-0.91
					S74.1,57.44,74.24,57.12z M77.02,56.62c-0.19-0.08-0.39-0.13-0.59-0.14c-0.21-0.01-0.4,0.02-0.6,0.08s-0.37,0.17-0.53,0.31
					c-0.16,0.14-0.29,0.33-0.39,0.55c-0.1,0.22-0.14,0.44-0.14,0.66s0.05,0.42,0.14,0.6c0.08,0.18,0.2,0.35,0.35,0.49
					c0.15,0.14,0.31,0.25,0.5,0.33c0.19,0.08,0.39,0.13,0.59,0.14c0.21,0.01,0.4-0.02,0.59-0.09s0.36-0.17,0.52-0.31
					c0.16-0.14,0.29-0.32,0.38-0.54c0.1-0.23,0.15-0.45,0.14-0.67c-0.01-0.22-0.05-0.42-0.14-0.6c-0.08-0.18-0.2-0.35-0.35-0.49
					S77.2,56.7,77.02,56.62z"/>
				<path class="st0" d="M75.15,62.27l-2.62-1.65l0.44-0.7l3.93,2.47l-0.34,0.54l-4.22,0.77l2.68,1.68l-0.45,0.71l-3.93-2.47
					l0.37-0.58L75.15,62.27z"/>
			</g>
		</g>
		<g>
			<path class="st0" d="M55.76,35.91h-3.62v-7.46h3.62c1.71,0,3.11,1.39,3.11,3.11v1.24C58.86,34.52,57.47,35.91,55.76,35.91z
				 M54.77,33.28h0.98c0.26,0,0.47-0.21,0.47-0.47v-1.24c0-0.26-0.21-0.47-0.47-0.47h-0.98V33.28z"/>
			<path class="st0" d="M45.36,24.09H37.9v-3.62c0-1.71,1.39-3.11,3.11-3.11h1.24c1.71,0,3.11,1.39,3.11,3.11V24.09z M40.54,21.45
				h2.18v-0.98c0-0.26-0.21-0.47-0.47-0.47h-1.24c-0.26,0-0.47,0.21-0.47,0.47V21.45z"/>
			<path class="st0" d="M31.16,35.91h-3.62c-1.71,0-3.11-1.39-3.11-3.11v-1.24c0-1.71,1.39-3.11,3.11-3.11h3.62V35.91z M27.53,31.1
				c-0.26,0-0.47,0.21-0.47,0.47v1.24c0,0.26,0.21,0.47,0.47,0.47h0.98V31.1H27.53z"/>
			<path class="st0" d="M52.66,24.15H30.6c-0.73,0-1.32-0.59-1.32-1.32c0-0.73,0.59-1.32,1.32-1.32h22.05
				c0.73,0,1.32,0.59,1.32,1.32C53.98,23.56,53.39,24.15,52.66,24.15z"/>
			<g>
				<path class="st0" d="M52.15,53.7v0.23c0,0.02,0,0.03,0,0.05l0.04-0.03L52.15,53.7z"/>
				<g>
					<polygon class="st0" points="44.72,60.39 46.66,57.75 40.71,57.75 38.77,60.39 					"/>
					<path class="st0" d="M51.92,25.59H31.35c-1.58,0-2.87,1.29-2.87,2.87v9h2.64v-9c0-0.13,0.1-0.23,0.23-0.23h20.57
						c0.13,0,0.23,0.1,0.23,0.23V45.3l2.15,1.68l0.49-0.72V28.46C54.79,26.88,53.5,25.59,51.92,25.59z"/>
				</g>
			</g>
		</g>
		<g>
			<g>
				<g>
					<path class="st0" d="M30.1,62.08c-2.01,0-4.9-1.31-5.74-1.71c-1.66-0.79-3.31-2.9-4.22-4.47c-0.29-0.5-0.56-1-0.82-1.51
						l0.06-0.03c-0.52-0.81-1.09-3.42-1.09-3.45c-0.03-0.69-0.02-1.38-0.01-2.07l0-0.24c0.02-1.19,0.26-2.42,0.77-3.98
						c0.29-0.89,0.84-1.7,1.73-2.56c0.8-0.77,1.71-1.46,2.7-2.05c0.67-0.4,1.38-0.74,2.11-1.03c0.15-0.06,0.3-0.12,0.46-0.19
						c0.6-0.25,1.27-0.54,1.95-0.55c0.23,0,0.46-0.02,0.69-0.03c0.3-0.02,0.6-0.04,0.9-0.04c0.12,0,0.24,0,0.36,0.01
						c0.62,0.04,1.28,0.23,1.91,0.41c0.28,0.08,0.55,0.16,0.81,0.22c1.35,0.32,2.63,0.93,3.82,1.82c1.55,1.17,2.43,2.38,3.28,3.84
						c0.75,1.3,2.01,3.94,2.06,7.14c0.02,1.39-0.36,2.74-0.77,3.99c-0.3,0.89-0.84,1.7-1.73,2.55c-0.8,0.77-1.71,1.46-2.7,2.05
						c-0.68,0.4-1.39,0.75-2.11,1.03c-0.79,0.31-1.6,0.62-2.24,0.72c-0.72,0.11-1.67,0.13-2.17,0.13H30.1z M29.52,41.61
						c-1.02,0-1.95,0.2-2.75,0.58c-0.61,0.29-1.77,1.14-2.34,1.62c-2.05,1.73-2.66,5.61-1.42,9.01c0.57,1.56,2.39,5.2,6.89,5.2
						l0.33,0c1.29-0.01,3.96-0.02,5.22-1.2c0.92-0.86,2.51-3.78,2.6-4.16c0.09-1.56-0.25-4.12-1.51-6.56
						c-0.23-0.44-0.55-0.85-0.9-1.29c-0.26-0.33-0.52-0.65-0.73-0.99c-0.43-0.68-0.91-0.92-1.57-1.25
						c-0.23-0.12-0.47-0.24-0.73-0.39c-0.08-0.04-0.17-0.08-0.29-0.12C31.38,41.76,30.41,41.61,29.52,41.61z"/>
					<path class="st1" d="M29.61,38.55c0.11,0,0.23,0,0.34,0.01c0.85,0.05,1.82,0.42,2.66,0.61c1.45,0.34,2.66,0.99,3.68,1.76
						c1.46,1.1,2.3,2.21,3.18,3.73c0.28,0.49,1.96,3.36,2.01,6.95c0.02,1.33-0.34,2.62-0.75,3.87c-0.31,0.94-0.92,1.72-1.63,2.4
						c-0.8,0.77-1.69,1.43-2.64,2c-0.66,0.39-1.35,0.73-2.06,1c-0.71,0.28-1.53,0.6-2.16,0.7c-0.63,0.09-1.48,0.12-2.12,0.12
						c-0.01,0-0.01,0-0.02,0c-1.81,0-4.43-1.12-5.58-1.67c-1.59-0.76-3.18-2.8-4.06-4.32c-0.28-0.49-0.55-0.99-0.81-1.49
						c0,0-0.96-2.56-0.99-3.33c-0.03-0.76-0.01-1.53,0-2.29c0.02-1.33,0.34-2.62,0.75-3.87c0.31-0.94,0.92-1.72,1.63-2.4
						c0.8-0.77,1.69-1.43,2.64-2c0.66-0.39,1.35-0.73,2.06-1c0.71-0.28,1.51-0.69,2.28-0.71C28.55,38.62,29.08,38.55,29.61,38.55
						 M29.9,58.39c0.03,0,0.06,0,0.08,0c1.26-0.01,4.27,0.06,5.72-1.3c0.97-0.91,2.69-4.03,2.71-4.38c0.08-1.38-0.14-4.05-1.55-6.78
						c-0.43-0.82-1.15-1.53-1.65-2.31c-0.65-1.02-1.43-1.18-2.42-1.77c-0.11-0.07-0.24-0.12-0.37-0.16
						c-0.46-0.14-1.58-0.46-2.91-0.46c-0.92,0-1.94,0.15-2.92,0.62c-0.67,0.32-1.86,1.2-2.42,1.67
						C19.9,47.14,21.93,58.39,29.9,58.39 M29.61,37.8c-0.31,0-0.62,0.02-0.92,0.04c-0.23,0.01-0.45,0.03-0.68,0.03
						c-0.75,0.02-1.46,0.31-2.09,0.58c-0.15,0.06-0.3,0.13-0.45,0.18c-0.75,0.29-1.48,0.65-2.17,1.05c-1.02,0.6-1.95,1.31-2.77,2.1
						c-0.93,0.9-1.51,1.76-1.83,2.71c-0.53,1.6-0.77,2.86-0.79,4.09l0,0.23c-0.01,0.68-0.02,1.39,0.01,2.1
						c0.01,0.25,0.08,0.75,0.55,2.16c0.26,0.77,0.4,1.22,0.53,1.48l0,0c0.28,0.54,0.55,1.04,0.83,1.53
						c0.98,1.69,2.65,3.79,4.39,4.62c1.1,0.52,3.87,1.74,5.9,1.74c0.53,0,1.5-0.02,2.25-0.13c0.68-0.1,1.51-0.42,2.24-0.71
						l0.08-0.03c0.75-0.29,1.48-0.65,2.17-1.05c1.02-0.6,1.95-1.31,2.77-2.1c0.93-0.9,1.51-1.76,1.83-2.71
						c0.42-1.28,0.81-2.67,0.79-4.11c-0.05-3.29-1.34-5.99-2.11-7.31c-0.88-1.51-1.78-2.75-3.38-3.96
						c-1.22-0.92-2.55-1.56-3.96-1.89c-0.25-0.06-0.52-0.14-0.79-0.21c-0.65-0.19-1.33-0.38-1.99-0.42
						C29.86,37.81,29.74,37.8,29.61,37.8L29.61,37.8z M29.9,57.64c-4.26,0-5.99-3.46-6.53-4.95c-1.19-3.26-0.63-6.96,1.31-8.6
						c0.55-0.47,1.68-1.29,2.26-1.57c0.75-0.36,1.63-0.55,2.59-0.55c0.86,0,1.79,0.15,2.68,0.43c0.09,0.03,0.16,0.06,0.21,0.09
						c0.26,0.15,0.51,0.28,0.75,0.4c0.63,0.32,1.05,0.53,1.42,1.12c0.23,0.36,0.5,0.7,0.76,1.03c0.33,0.42,0.65,0.81,0.86,1.23
						c1.21,2.34,1.55,4.78,1.47,6.32c-0.19,0.54-1.67,3.19-2.48,3.95c-1.15,1.08-3.73,1.09-4.97,1.1l-0.25,0L29.9,57.64L29.9,57.64z
						"/>
				</g>
			</g>
		</g>
		<polygon class="st0" points="32.42,52.29 32.68,48.39 29.29,46.66 26.93,49.48 28.87,52.97 		"/>
		<polygon class="st0" points="36.31,43.52 34.65,40.06 31.13,40.62 30.62,44.42 33.82,46.21 		"/>
		<polygon class="st0" points="26.67,55.16 25.01,51.7 21.5,52.26 20.99,56.06 24.19,57.85 		"/>
		<polygon class="st0" points="35.32,58.43 33.4,54.94 29.48,55.43 28.98,59.23 32.59,61.09 		"/>
		<polygon class="st0" points="40.65,51.91 38.98,48.46 35.47,49.02 34.96,52.82 38.16,54.61 		"/>
		<polygon class="st0" points="27.31,44.61 25.65,41.16 22.13,41.72 21.62,45.52 24.83,47.31 		"/>
		<g>
			<g>
				<path class="st0" d="M38.95,69.65l9.14-12.46l-3.89-2.15l6.57-9.75l3.7,2.88l2.08-2.94l2.61,1.87l-2.15,3.04l0.64,0.5l6.65,0.77
					l-0.52,6.71l-2.25,4.19l-5.92,4.84l-1.26-5.05l-3.42-3.35l-8.76,13.19L38.95,69.65z M52.59,56.46l4.3,4.2l0.38,1.51l2.05-1.67
					L61,57.33l0.26-3.4l-4.73-0.55l-1.16-0.91l-2.81,3.97L52.59,56.46z M49.73,54.87l3.1-4.38l-1.41-1.1l-3.15,4.67L49.73,54.87z"/>
				<path class="st1" d="M56.61,45.59l2.2,1.58l-2.15,3.03l0.89,0.69l6.48,0.75l-0.49,6.42l-2.23,4.15l-5.56,4.52l-1.18-4.74
					l-3.5-3.43l-0.23-0.13l-8.75,13.17l-2.8-2.01l9.15-12.48l-3.9-2.16l6.27-9.3l3.69,2.88L56.61,45.59 M49.81,55.2l3.37-4.76
					l-1.81-1.41l-3.46,5.12L49.81,55.2 M57.12,62.62l2.35-1.91l1.77-3.3l0.28-3.7l-4.9-0.57l-1.32-1.03l-3.12,4.41l0.28,0.15
					l4.19,4.11L57.12,62.62 M56.49,44.89L56.2,45.3l-1.78,2.52l-3.28-2.56l-0.42-0.33l-0.3,0.44l-6.27,9.3l-0.31,0.45l0.48,0.26
					l3.4,1.88L38.9,69.3l-0.3,0.41L39.01,70l2.8,2.01l0.42,0.3l0.29-0.43l8.45-12.73l3.15,3.09l1.15,4.6l0.19,0.76l0.61-0.5
					l5.56-4.52l0.08-0.06l0.05-0.09l2.23-4.15l0.05-0.09l0.01-0.11l0.49-6.42l0.04-0.48l-0.48-0.06l-6.34-0.74l-0.4-0.31l1.87-2.64
					l0.29-0.41l-0.4-0.29l-2.2-1.58L56.49,44.89L56.49,44.89z M48.63,53.98l2.85-4.23l1.01,0.79l-2.84,4.01L48.63,53.98L48.63,53.98
					z M52.9,56.39l2.53-3.57l0.9,0.7l0.11,0.09l0.14,0.02L61,54.15l-0.24,3.11l-1.68,3.12l-1.67,1.35l-0.27-1.07l-0.03-0.14
					l-0.1-0.1L52.9,56.39L52.9,56.39z"/>
			</g>
		</g>
	</g>
</switch>
</svg>
