<?xml version="1.0" encoding="utf-8"?>
<!-- Generator: Adobe Illustrator 23.0.3, SVG Export Plug-In . SVG Version: 6.00 Build 0)  -->
<svg version="1.1" id="Calque_1" xmlns="http://www.w3.org/2000/svg" xmlns:xlink="http://www.w3.org/1999/xlink" x="0px" y="0px"
	 viewBox="0 0 85.04 85.04" style="enable-background:new 0 0 85.04 85.04;" xml:space="preserve">
<style type="text/css">
	.st0{fill:#003A5D;}
</style>
<path class="st0" d="M61.22,18.6l-3.95-2.95l-6.61,10.14L63.4,36.76l-20.29,0.19c-0.05-2.66-0.08-4.4-0.08-4.4L43.08,19l-11.91,0.04
	l-0.05,14.88l0.03,3.13l-9.21,0.09c-0.05-2.76-0.08-4.59-0.08-4.59L21.9,19L9.85,19.04L9.79,33.91l0.03,3.32l-9.33,0.06L0.28,50.03
	l9.51-0.13L9.36,64.92l13.23,0.35l-0.08-1.04c-0.06-0.74-0.2-7.46-0.34-14.53l8.95-0.18l-0.44,15.4l11.25,0.35l-0.08-1.04
	c-0.06-0.75-0.21-7.71-0.35-14.91L64.6,48.9L51.9,60.01l7.88,9.38l24.98-26.12L61.22,18.6z"/>
</svg>
