<?xml version="1.0" encoding="utf-8"?>
<!-- Generator: Adobe Illustrator 23.0.3, SVG Export Plug-In . SVG Version: 6.00 Build 0)  -->
<svg version="1.1" id="Calque_1" xmlns="http://www.w3.org/2000/svg" xmlns:xlink="http://www.w3.org/1999/xlink" x="0px" y="0px"
	 viewBox="0 0 85.04 85.04" style="enable-background:new 0 0 85.04 85.04;" xml:space="preserve">
<style type="text/css">
	.st0{fill:#0072AB;}
</style>
<g>
	<path class="st0" d="M82.2,44.09c-3.86-7.81-8.18-13.36-14.18-17.75l5.76-12L63.14,8.78c-1.63,3.18-4.05,9-5.22,11.87
		c-0.04-0.02-0.08-0.04-0.12-0.05c-0.64-0.28-1.23-0.53-1.76-0.73c-2.64-1.02-4.03-1.32-6.74-2.12c-0.69-0.2-1.35-0.36-1.99-0.5
		l0.05-12.42L35.37,4.37c-0.11,3.54,0.2,9.74,0.37,12.87c-1.3,0.2-2.58,0.47-4.25,0.86c-1.12,0.26-2.23,0.59-3.32,0.95l-6-12.18
		L11.23,11.8c1.58,3.45,4.98,9.44,6.38,11.9c-3.91,2.01-8.58,7.2-11.14,10.73c-2.55,3.34-6.14,12.64-6.12,12.69
		c-0.02,0.05,1.6,4.37,2.49,6.17c5.75,11.64,12.5,18.28,24.39,23.5c0.64,0.28,5.79,2.05,8.51,2.85c3.28,0.96,5.95,1.16,9.34,0.95
		c3.38-0.22,5.17-0.53,8.47-1.29c4.79-1.11,9.29-3.34,13.72-5.53c3.94-1.94,8.71-7.24,11.3-10.82c2.55-3.34,6.16-12.8,6.18-12.86
		C84.69,50.03,83.09,45.9,82.2,44.09z M68.18,55.86c-2.86,5.02-5.61,7.38-10.97,9.52c-2.78,1.11-6.44,1.92-10.49,2.99
		c-5.49,0.83-10.01,0.07-15.17-1.86c-3.49-1.44-5.82-3.36-8.79-6.33c-3.28-3.99-6.25-7.36-9.07-12.7c0.94-1.94,2.59-4.93,3.17-5.94
		c2.86-5.02,5.61-7.38,10.97-9.52c2.78-1.11,6.44-1.92,10.49-2.99c5.49-0.83,10.01-0.07,15.17,1.86c3.49,1.44,5.82,3.36,8.79,6.33
		c3.28,3.99,6.25,7.36,9.07,12.7C70.41,51.85,68.76,54.84,68.18,55.86z"/>
	<path class="st0" d="M42.86,36.6L29.63,49.17l14.08,13.12c2.62-2.74,8.32-8.79,11.74-13C52.96,46.61,47.05,40.33,42.86,36.6z"/>
</g>
</svg>
