<?xml version="1.0" encoding="utf-8"?>
<!-- Generator: Adobe Illustrator 25.2.1, SVG Export Plug-In . SVG Version: 6.00 Build 0)  -->
<svg version="1.1" id="Calque_1" xmlns="http://www.w3.org/2000/svg" xmlns:xlink="http://www.w3.org/1999/xlink" x="0px" y="0px"
	 viewBox="0 0 85 85" style="enable-background:new 0 0 85 85;" xml:space="preserve">
<style type="text/css">
	.st0{fill:#84BB99;}
	.st1{fill:#137156;}
	.st2{fill:#6F73A7;}
	.st3{fill:#D9861C;}
	.st4{fill:#0072A8;}
	.st5{fill:#B8361C;}
	.st6{fill:#FFFFFF;}
	.st7{fill:#0C3C5C;}
	.st8{fill:none;stroke:#D9861C;stroke-width:7;stroke-linecap:round;stroke-miterlimit:10;}
	.st9{fill:none;stroke:#0C3C5C;stroke-width:2;stroke-linecap:round;stroke-miterlimit:10;}
</style>
<g>
	<g>
		<path class="st2" d="M9.8,35.8c0.1,0.3,0.1,0.7,0.2,1c0.2,1,0.8,2.5,1.5,3.2c0.6,0.5,1.8,1.6,2.9,2c0.4,0.1,0.9,0.3,1.2,0.3
			c0.4,0.1,0.9,0,1.3,0c0.5,0,0.9-0.1,1.3-0.2c0.6-0.1,1.3-0.4,1.9-0.7c0.5-0.3,1-0.6,1.4-1.1c0.5-0.6,0.9-1.3,1.1-2.1
			c0.6-2.1,0.2-4,0.1-4.3c-0.2-1-0.5-1.8-1.1-2.7c-0.4-0.6-1-1.2-1.8-1.7c-0.4-0.3-0.9-0.6-1.4-0.8c-0.4-0.1-0.7-0.2-1.1-0.3
			c-0.4-0.1-1,0-1.4,0c-0.5,0-0.9,0.1-1.3,0.2c-0.6,0.1-1.3,0.4-1.9,0.7c-0.5,0.3-1,0.6-1.4,1.1c-0.5,0.6-0.9,1.3-1.1,2.1
			c-0.1,0.4-0.3,0.9-0.4,1.3C9.8,34.2,9.8,35.8,9.8,35.8z"/>
	</g>
</g>
<g>
	<g>
		<path class="st2" d="M26.8,42.6h50.9v-7.9v-4.9l-52.6-1.4"/>
	</g>
</g>
<g>
	<g>
		<polygon class="st2" points="14.6,44.3 7.8,44.3 7.8,15.6 1.6,16.6 1.6,70.2 9.3,71 8.9,56.4 73.8,55.4 72.3,70.2 81.1,70.2 
			81.1,44.3 		"/>
	</g>
</g>
</svg>
