<?xml version="1.0" encoding="utf-8"?>
<!-- Generator: Adobe Illustrator 24.3.0, SVG Export Plug-In . SVG Version: 6.00 Build 0)  -->
<!DOCTYPE svg PUBLIC "-//W3C//DTD SVG 1.1//EN" "http://www.w3.org/Graphics/SVG/1.1/DTD/svg11.dtd" [
	<!ENTITY ns_extend "http://ns.adobe.com/Extensibility/1.0/">
	<!ENTITY ns_ai "http://ns.adobe.com/AdobeIllustrator/10.0/">
	<!ENTITY ns_graphs "http://ns.adobe.com/Graphs/1.0/">
	<!ENTITY ns_vars "http://ns.adobe.com/Variables/1.0/">
	<!ENTITY ns_imrep "http://ns.adobe.com/ImageReplacement/1.0/">
	<!ENTITY ns_sfw "http://ns.adobe.com/SaveForWeb/1.0/">
	<!ENTITY ns_custom "http://ns.adobe.com/GenericCustomNamespace/1.0/">
	<!ENTITY ns_adobe_xpath "http://ns.adobe.com/XPath/1.0/">
]>
<svg version="1.1" id="Calque_1" xmlns:x="&ns_extend;" xmlns:i="&ns_ai;" xmlns:graph="&ns_graphs;"
	 xmlns="http://www.w3.org/2000/svg" xmlns:xlink="http://www.w3.org/1999/xlink" x="0px" y="0px" viewBox="0 0 85.04 85.04"
	 style="enable-background:new 0 0 85.04 85.04;" xml:space="preserve">
<style type="text/css">
	.st0{fill:none;stroke:#0C3C5C;stroke-width:7;stroke-miterlimit:10;}
	.st1{fill:none;stroke:#0C3C5C;stroke-width:5;stroke-miterlimit:10;}
	.st2{fill:#0C3C5C;}
	.st3{fill:none;stroke:#0C3C5C;stroke-width:3;stroke-miterlimit:10;}
	.st4{fill:none;stroke:#0C3C5C;stroke-width:6;stroke-miterlimit:10;}
	.st5{fill:none;stroke:#0C3C5C;stroke-width:4;stroke-miterlimit:10;}
	.st6{fill:#263D5B;}
	.st7{fill:none;stroke:#0C3C5C;stroke-width:9;stroke-miterlimit:10;}
	.st8{fill:none;stroke:#0C3C5C;stroke-width:2;stroke-miterlimit:10;}
	.st9{fill:#0C3C5C;stroke:#0C3C5C;stroke-width:2;stroke-miterlimit:10;}
	.st10{fill:none;stroke:#0C3C5C;stroke-miterlimit:10;}
	.st11{fill:none;stroke:#0C3C5C;stroke-width:1.5;stroke-miterlimit:10;}
	.st12{fill:none;stroke:#0C3C5C;stroke-width:0.75;stroke-miterlimit:10;}
	.st13{fill:none;stroke:#0C3C5C;stroke-width:3;stroke-miterlimit:10;stroke-dasharray:2,3;}
	.st14{fill:none;stroke:#0C3C5C;stroke-width:0.5;stroke-miterlimit:10;}
	.st15{fill:none;stroke:#0C3C5C;stroke-width:0.25;stroke-miterlimit:10;}
	.st16{fill:none;stroke:#0C3C5C;stroke-width:8;stroke-miterlimit:10;}
	.st17{fill:#FFFFFF;stroke:#0C3C5C;stroke-width:0;stroke-miterlimit:10;}
	.st18{fill:none;stroke:#0C3C5C;stroke-width:2.5;stroke-miterlimit:10;}
	.st19{fill:#253C59;}
</style>
<switch>
	<foreignObject requiredExtensions="&ns_ai;" x="0" y="0" width="1" height="1">
		<i:aipgfRef  xlink:href="#adobe_illustrator_pgf">
		</i:aipgfRef>
	</foreignObject>
	<g i:extraneous="self">
		<g>
			<path class="st2" d="M33.05,71.58c0,0-4.3,0.72-9.5-6.99S11.53,46.12,21.39,38.4c1.43-0.54,15.96-5.74,15.96,5.2
				s-5.56,7.35,0,15.96S35.25,71.94,33.05,71.58z"/>
			<path class="st2" d="M52.4,55.8c0,0,4.4,0.72,9.72-6.99s12.28-18.47,2.2-26.18C62.85,22.09,48,16.89,48,27.83s5.68,7.35,0,15.96
				S50.15,56.16,52.4,55.8z"/>
			<path class="st2" d="M35.28,28.7c0,0-4.13,0.39-3.12,4.66c1.02,4.27,4.17,2.56,4.73,2.07C37.46,34.93,40.01,29.51,35.28,28.7z"/>
			<path class="st2" d="M27.7,29.39c0,0-2.98,0.92-1.58,3.91c1.4,2.99,3.46,1.24,3.8,0.79C30.25,33.64,31.3,29.26,27.7,29.39z"/>
			<path class="st2" d="M21.98,31.28c0,0-2.56,1.4-0.71,3.87s3.4,0.48,3.62,0.01C25.12,34.69,25.25,30.48,21.98,31.28z"/>
			<path class="st2" d="M17.25,34.13c0,0-2.29,1.46-0.43,3.64s3.19,0.25,3.37-0.21C20.37,37.12,20.24,33.19,17.25,34.13z"/>
			<path class="st2" d="M14.02,38.82c0,0-1.63,1.67,0.37,3.13c1.99,1.46,2.71-0.43,2.77-0.84C17.22,40.69,16.33,37.44,14.02,38.82z"
				/>
			<path class="st2" d="M50.15,13.44c0,0,4.03,0.39,3.04,4.66c-0.99,4.27-4.06,2.56-4.61,2.07C48.03,19.67,45.54,14.24,50.15,13.44z
				"/>
			<path class="st2" d="M57.54,14.13c0,0,2.91,0.92,1.54,3.91s-3.37,1.24-3.7,0.79C55.05,18.38,54.03,13.99,57.54,14.13z"/>
			<path class="st2" d="M63.11,16.02c0,0,2.49,1.4,0.69,3.87s-3.31,0.48-3.53,0.01S59.93,15.22,63.11,16.02z"/>
			<path class="st2" d="M67.73,18.87c0,0,2.24,1.46,0.42,3.64s-3.11,0.25-3.29-0.21C64.68,21.86,64.81,17.93,67.73,18.87z"/>
			<path class="st2" d="M70.88,23.56c0,0,1.59,1.67-0.36,3.13c-1.94,1.46-2.65-0.43-2.7-0.84C67.76,25.43,68.62,22.18,70.88,23.56z"
				/>
		</g>
	</g>
</switch>
</svg>
