<?xml version="1.0" encoding="utf-8"?>
<!-- Generator: Adobe Illustrator 24.3.0, SVG Export Plug-In . SVG Version: 6.00 Build 0)  -->
<!DOCTYPE svg PUBLIC "-//W3C//DTD SVG 1.1//EN" "http://www.w3.org/Graphics/SVG/1.1/DTD/svg11.dtd" [
	<!ENTITY ns_extend "http://ns.adobe.com/Extensibility/1.0/">
	<!ENTITY ns_ai "http://ns.adobe.com/AdobeIllustrator/10.0/">
	<!ENTITY ns_graphs "http://ns.adobe.com/Graphs/1.0/">
	<!ENTITY ns_vars "http://ns.adobe.com/Variables/1.0/">
	<!ENTITY ns_imrep "http://ns.adobe.com/ImageReplacement/1.0/">
	<!ENTITY ns_sfw "http://ns.adobe.com/SaveForWeb/1.0/">
	<!ENTITY ns_custom "http://ns.adobe.com/GenericCustomNamespace/1.0/">
	<!ENTITY ns_adobe_xpath "http://ns.adobe.com/XPath/1.0/">
]>
<svg version="1.1" id="Calque_1" xmlns:x="&ns_extend;" xmlns:i="&ns_ai;" xmlns:graph="&ns_graphs;"
	 xmlns="http://www.w3.org/2000/svg" xmlns:xlink="http://www.w3.org/1999/xlink" x="0px" y="0px" viewBox="0 0 85.04 85.04"
	 style="enable-background:new 0 0 85.04 85.04;" xml:space="preserve">
<style type="text/css">
	.st0{fill:none;stroke:#0C3C5C;stroke-width:7;stroke-miterlimit:10;}
	.st1{fill:none;stroke:#0C3C5C;stroke-width:5;stroke-miterlimit:10;}
	.st2{fill:#0C3C5C;}
	.st3{fill:none;stroke:#0C3C5C;stroke-width:3;stroke-miterlimit:10;}
	.st4{fill:none;stroke:#0C3C5C;stroke-width:6;stroke-miterlimit:10;}
	.st5{fill:none;stroke:#0C3C5C;stroke-width:4;stroke-miterlimit:10;}
	.st6{fill:#263D5B;}
	.st7{fill:none;stroke:#0C3C5C;stroke-width:9;stroke-miterlimit:10;}
	.st8{fill:none;stroke:#0C3C5C;stroke-width:2;stroke-miterlimit:10;}
	.st9{fill:#0C3C5C;stroke:#0C3C5C;stroke-width:2;stroke-miterlimit:10;}
	.st10{fill:none;stroke:#0C3C5C;stroke-miterlimit:10;}
	.st11{fill:none;stroke:#0C3C5C;stroke-width:1.5;stroke-miterlimit:10;}
	.st12{fill:none;stroke:#0C3C5C;stroke-width:0.75;stroke-miterlimit:10;}
	.st13{fill:none;stroke:#0C3C5C;stroke-width:3;stroke-miterlimit:10;stroke-dasharray:2,3;}
	.st14{fill:none;stroke:#0C3C5C;stroke-width:0.5;stroke-miterlimit:10;}
	.st15{fill:none;stroke:#0C3C5C;stroke-width:0.25;stroke-miterlimit:10;}
	.st16{fill:none;stroke:#0C3C5C;stroke-width:8;stroke-miterlimit:10;}
	.st17{fill:#FFFFFF;stroke:#0C3C5C;stroke-width:0;stroke-miterlimit:10;}
	.st18{fill:none;stroke:#0C3C5C;stroke-width:2.5;stroke-miterlimit:10;}
	.st19{fill:#253C59;}
</style>
<switch>
	<foreignObject requiredExtensions="&ns_ai;" x="0" y="0" width="1" height="1">
		<i:aipgfRef  xlink:href="#adobe_illustrator_pgf">
		</i:aipgfRef>
	</foreignObject>
	<g i:extraneous="self">
		<path class="st2" d="M33.18,24.12l0.45,4.14c0,0,2.14-2,9.29-0.4c7.14,1.6,12.68,1.17,20.12,13.7c0.44,1.17,4.81,12.39,1.17,20.12
			c6.12-0.87,6.12-0.87,6.12-0.87s4.66-18.22-8.16-30.32s-25.06-7.74-27.39-7.01S36.78,22.72,33.18,24.12z"/>
		<path class="st2" d="M17.78,37.36l4.54,3.2c0,0-7.71,13.85,1.18,25.95s20.51,9.77,23.45,9.04c2.94-0.73,8.33-2.62,10.96-4.81
			c0.29,0,2.92,3.35,5.39,2.62c-1.46,1.6-12.48,8.98-22.45,8.6c-10.25-0.39-19.39-8.02-22.3-11.95S9.95,54.13,17.78,37.36z"/>
		<path class="st8" d="M23.48,18.1l2.89,4.98c0.5,0.87,1.64,1.12,2.46,0.55l0,0c0.71-0.49,0.92-1.44,0.49-2.19l-4.38-7.64
			c-0.13-0.23-0.4-0.33-0.65-0.25l-3.45,1.17c-0.73,0.25-1.22,0.94-1.22,1.71v6.82c0,0.14-0.05,0.27-0.14,0.37L17.1,26.2
			c-0.03,0.03-0.06,0.07-0.08,0.11l-3.38,6.31c-0.41,0.77-0.13,1.73,0.65,2.15l0.12,0.07c0.79,0.43,1.78,0.13,2.21-0.66l2.95-5.44
			c0.03-0.05,0.06-0.09,0.1-0.13l3.99-3.95c0.1-0.1,0.16-0.24,0.16-0.39v-1.52"/>
		<path class="st8" d="M22.96,28.15l3.36,6.56c0.26,0.5,0.87,0.71,1.37,0.46l1.41-0.68c0.53-0.26,0.74-0.91,0.46-1.43l-3.69-6.81"/>
		<path class="st8" d="M18.05,16.87l-4.32,4.07c-0.44,0.41-0.4,1.12,0.09,1.48l0.85,0.63c0.47,0.35,1.12,0.34,1.58-0.03l1.8-1.45"/>
		<path class="st8" d="M20.68,5.85c0,0-2.54,0.41-2.88,2.97s2.07,3.55,3.29,3.42s3.22-1.36,3.14-3.19S22.41,5.83,20.68,5.85z"/>
		<path class="st2" d="M42.91,27.13c0,0-2.49-1.1-1.97,2.9s1.14,4-0.07,5.54c-1.21,1.54-3.11,1.28-1.39,2.82
			c1.72,1.54,4.57,4.62,7.25,4.88c2.68,0.26,5.05-0.61,5.66-2.1s7.89-1.59,8.74,0c0.86,1.59,1.89-0.34,1.89-0.34
			s-0.44-4.55-0.99-5.68c-0.56-1.13-5.29-7.34-8.04-6.67C51.23,29.15,42.91,27.13,42.91,27.13z"/>
		<path class="st2" d="M21,62.14c0,0,2.85,0.09,4.33,1.12c1.49,1.03,2.57,1.8,3.57,3.34s-3.96,1.8,2.24,2.57s1.84-2.05,9.54-1.8
			s9.14,0.01,9.96,1.93s1.5,7.06,1.25,8.85c-0.25,1.8-5.54,0-9.15,0s-12.91-1.54-15.19-3.34s-5.74-4.62-6.07-5.91S21,62.14,21,62.14
			z"/>
		<path class="st2" d="M21,40.92c0,0,4.52-0.61,6.07,0.98c1.55,1.59,5.08,3.38,5.5,4.67s-0.11,2.82,0.66,4.36
			c0.78,1.54,1.96-0.77,3.81-1.8c1.85-1.03,5.9-2.31,5.93,2.31c0.03,4.62,0.28,11.23-1.51,10.23c-1.8-0.99-6.7-0.21-10.02-2.01
			s-4.31-5.91-6.51-5.4s-3.53,5.41-5.18,5.4c-1.65-0.01-3.77-0.01-3.74-1.29C16.03,57.1,21,40.92,21,40.92z"/>
		<path class="st2" d="M65.11,68.25l0.8-0.71l0.26,0.29c0,0,0.12,0.99-0.84,0.67C65.11,68.25,65.11,68.25,65.11,68.25z"/>
		<path class="st2" d="M65.23,67.82c-0.15,0.14-0.39,0.14-0.55,0c-0.45-0.41-1.3-1.2-1.35-1.27c-0.06-0.09-0.22-1.22,0.91-1.08
			c0.11,0.01,0.22,0.07,0.29,0.16l1.03,1.39c0.12,0.17,0.1,0.4-0.05,0.54L65.23,67.82z"/>
		<path class="st2" d="M61.18,67.85l0.73-0.78l0.29,0.27c0,0,0.22,0.97-0.77,0.74C61.18,67.85,61.18,67.85,61.18,67.85z"/>
		<path class="st2" d="M61.26,67.41c-0.14,0.16-0.38,0.18-0.54,0.05c-0.49-0.37-1.41-1.07-1.47-1.13c-0.07-0.09-0.33-1.19,0.8-1.16
			c0.11,0,0.22,0.05,0.3,0.13l1.16,1.28c0.14,0.15,0.14,0.39,0,0.54L61.26,67.41z"/>
		<path class="st2" d="M58.92,60.93l1.29-1.1l0.4,0.47c0,0,0.17,1.57-1.35,1.03C58.92,60.93,58.92,60.93,58.92,60.93z"/>
		<path class="st2" d="M59.11,60.25c-0.25,0.22-0.62,0.22-0.86-0.01c-0.7-0.67-2.03-1.93-2.1-2.05c-0.1-0.15-0.31-1.93,1.46-1.68
			c0.18,0.03,0.34,0.12,0.45,0.27L59.65,59c0.19,0.27,0.15,0.63-0.1,0.85L59.11,60.25z"/>
		<path class="st2" d="M52.9,60.83l1.02-1.35l0.49,0.37c0,0,0.5,1.49-1.1,1.3C52.9,60.83,52.9,60.83,52.9,60.83z"/>
		<path class="st2" d="M52.95,60.13c-0.2,0.27-0.56,0.35-0.85,0.17c-0.83-0.5-2.4-1.45-2.5-1.54c-0.13-0.12-0.72-1.82,1.07-1.96
			c0.18-0.01,0.36,0.04,0.5,0.16l2.04,1.83c0.24,0.22,0.28,0.59,0.09,0.85L52.95,60.13z"/>
		<path class="st2" d="M51.99,50.78l1.29-1.1l0.4,0.47c0,0,0.17,1.57-1.35,1.03C51.99,50.78,51.99,50.78,51.99,50.78z"/>
		<path class="st2" d="M52.19,50.1c-0.25,0.22-0.62,0.22-0.86-0.01c-0.7-0.67-2.03-1.93-2.1-2.05c-0.1-0.15-0.31-1.93,1.46-1.68
			c0.18,0.03,0.34,0.12,0.45,0.27l1.59,2.23c0.19,0.27,0.15,0.63-0.1,0.85L52.19,50.1z"/>
		<path class="st2" d="M45.97,50.68L47,49.33l0.49,0.37c0,0,0.5,1.49-1.1,1.3C45.97,50.68,45.97,50.68,45.97,50.68z"/>
		<path class="st2" d="M46.02,49.98c-0.2,0.27-0.56,0.35-0.85,0.17c-0.83-0.5-2.4-1.45-2.5-1.54c-0.13-0.12-0.72-1.82,1.07-1.96
			c0.18-0.01,0.36,0.04,0.5,0.16l2.04,1.83c0.24,0.22,0.28,0.59,0.09,0.85L46.02,49.98z"/>
		<path class="st2" d="M37.6,43.13l1.39-0.97l0.36,0.51c0,0,0.02,1.57-1.44,0.9C37.6,43.13,37.6,43.13,37.6,43.13z"/>
		<path class="st2" d="M37.86,42.47c-0.27,0.2-0.64,0.16-0.86-0.09c-0.63-0.73-1.84-2.11-1.9-2.24c-0.09-0.16-0.13-1.95,1.62-1.54
			c0.18,0.04,0.33,0.15,0.42,0.31l1.38,2.37c0.17,0.28,0.09,0.65-0.18,0.84L37.86,42.47z"/>
		<path class="st2" d="M31.61,42.47l1.15-1.25l0.46,0.42c0,0,0.36,1.53-1.21,1.19C31.61,42.47,31.61,42.47,31.61,42.47z"/>
		<path class="st2" d="M31.73,41.78c-0.22,0.25-0.59,0.29-0.86,0.09c-0.78-0.57-2.25-1.67-2.34-1.77c-0.12-0.14-0.55-1.88,1.25-1.85
			c0.18,0,0.36,0.08,0.48,0.21l1.86,2.01c0.22,0.24,0.23,0.61,0.01,0.86L31.73,41.78z"/>
	</g>
</switch>
</svg>
