<?xml version="1.0" encoding="utf-8"?>
<!-- Generator: Adobe Illustrator 23.0.3, SVG Export Plug-In . SVG Version: 6.00 Build 0)  -->
<svg version="1.1" id="Calque_1" xmlns="http://www.w3.org/2000/svg" xmlns:xlink="http://www.w3.org/1999/xlink" x="0px" y="0px"
	 viewBox="0 0 85.04 85.04" style="enable-background:new 0 0 85.04 85.04;" xml:space="preserve">
<style type="text/css">
	.st0{fill:#F18700;}
</style>
<g>
	<path class="st0" d="M68.08,16.73c0.16,2.79,0.03,7.1-0.04,8.93c-2.7,0.28-6.85,0.4-8.74,0.44l-0.34-9.6L68.08,16.73z"/>
	<path class="st0" d="M68.08,61.96c0.16,2.79,0.03,7.1-0.04,8.93c-2.7,0.28-6.85,0.4-8.74,0.44l-0.34-9.6L68.08,61.96z"/>
	<path class="st0" d="M24.18,61.96c0.16,2.79,0.03,7.1-0.04,8.93c-2.7,0.28-6.85,0.4-8.74,0.44l-0.34-9.6L24.18,61.96z"/>
	<path class="st0" d="M24.18,16.73c0.16,2.79,0.03,7.1-0.04,8.93c-2.7,0.28-6.85,0.4-8.74,0.44l-0.34-9.6L24.18,16.73z"/>
	<polygon class="st0" points="49.63,36.01 48.64,4.33 35.61,3.87 35.43,35.34 35.18,35.33 4.37,35.8 3.9,48.83 35.92,49.56 
		35.91,49.9 36.37,80.71 49.43,81.17 49.61,49.7 49.86,49.7 80.67,49.24 81.14,36.18 	"/>
</g>
</svg>
