<?xml version="1.0" encoding="utf-8"?>
<!-- Generator: Adobe Illustrator 25.4.1, SVG Export Plug-In . SVG Version: 6.00 Build 0)  -->
<!DOCTYPE svg PUBLIC "-//W3C//DTD SVG 1.1//EN" "http://www.w3.org/Graphics/SVG/1.1/DTD/svg11.dtd" [
	<!ENTITY ns_extend "http://ns.adobe.com/Extensibility/1.0/">
	<!ENTITY ns_ai "http://ns.adobe.com/AdobeIllustrator/10.0/">
	<!ENTITY ns_graphs "http://ns.adobe.com/Graphs/1.0/">
	<!ENTITY ns_vars "http://ns.adobe.com/Variables/1.0/">
	<!ENTITY ns_imrep "http://ns.adobe.com/ImageReplacement/1.0/">
	<!ENTITY ns_sfw "http://ns.adobe.com/SaveForWeb/1.0/">
	<!ENTITY ns_custom "http://ns.adobe.com/GenericCustomNamespace/1.0/">
	<!ENTITY ns_adobe_xpath "http://ns.adobe.com/XPath/1.0/">
]>
<svg version="1.1" id="Calque_1" xmlns:x="&ns_extend;" xmlns:i="&ns_ai;" xmlns:graph="&ns_graphs;"
	 xmlns="http://www.w3.org/2000/svg" xmlns:xlink="http://www.w3.org/1999/xlink" x="0px" y="0px" viewBox="0 0 85.04 85.04"
	 style="enable-background:new 0 0 85.04 85.04;" xml:space="preserve">
<style type="text/css">
	.st0{fill:#203A58;}
	.st1{fill:none;}
</style>
<switch>
	<foreignObject requiredExtensions="&ns_ai;" x="0" y="0" width="1" height="1">
		<i:aipgfRef  xlink:href="#adobe_illustrator_pgf">
		</i:aipgfRef>
	</foreignObject>
	<g i:extraneous="self">
		<g>
			<g>
				<path class="st0" d="M50.74,20.09l0.98,1.8l1.86,4.08l5.11-2.45l0,0c0.47-0.22,1.3-0.78,2.06-1.31
					c0.09-0.06,0.18-0.12,0.26-0.18c0.17-0.12,0.33-0.23,0.48-0.34c0.08-0.06,0.16-0.12,0.23-0.17c0.33-0.24,0.56-0.42,0.61-0.45
					c0.35-0.28,0.58-0.5,0.77-0.73c0.02-0.03,0.05-0.06,0.07-0.09c0.05-0.06,0.09-0.12,0.13-0.18c0.11-0.16,0.22-0.33,0.35-0.54
					l0.07-0.1l0.07-0.1c1.21-1.91,1.49-3.96,1.55-5.01c0.05-0.99,0.03-1.88-0.25-2.89c-0.06-0.21-0.12-0.43-0.21-0.65
					c-0.13-0.37-0.29-0.72-0.47-1.05c-0.12-0.22-0.25-0.44-0.39-0.64c-0.21-0.31-0.44-0.59-0.69-0.86
					c-0.04-0.04-0.07-0.08-0.11-0.12c-0.1-0.11-0.19-0.21-0.29-0.33c-0.3-0.35-0.62-0.72-0.97-0.98c-0.12-0.09-0.25-0.17-0.37-0.25
					c-0.13-0.08-0.26-0.15-0.38-0.22c-0.14-0.08-0.29-0.16-0.42-0.25c-0.3-0.19-0.67-0.29-1.02-0.36c-0.12-0.02-0.23-0.05-0.35-0.07
					c-0.04-0.01-0.08-0.02-0.12-0.02c-0.04-0.01-0.08-0.02-0.12-0.02c-0.42-0.08-0.8-0.15-1.19-0.19c-0.11-0.01-0.22-0.02-0.34-0.03
					c-0.03,0-0.06,0-0.09-0.01c-0.09-0.01-0.18-0.01-0.27-0.01c-0.02,0-0.05,0-0.07,0c-0.11,0-0.21,0-0.32,0
					c-0.14,0-0.29,0-0.43,0.01c-0.03,0-0.06,0-0.09,0.01c-0.11,0.01-0.23,0.01-0.34,0.02c-0.05,0-0.09,0.01-0.14,0.01
					c-0.1,0.01-0.2,0.02-0.3,0.03c-0.04,0.01-0.09,0.01-0.13,0.02c-0.14,0.02-0.28,0.04-0.42,0.07c-0.11,0.02-0.21,0.04-0.31,0.06
					c-0.3,0.07-0.57,0.16-0.82,0.26C53.55,5.96,53.26,6.13,53,6.34c-0.91,0.72-1.53,1.36-2,2.05l-0.09,0.14
					c-0.24,0.35-0.48,0.71-0.71,1.07c-0.03,0.05-0.07,0.1-0.1,0.16c-0.07,0.12-0.15,0.32-0.23,0.56c-0.01,0.03-0.02,0.06-0.03,0.09
					c-0.02,0.06-0.04,0.12-0.06,0.19c-0.01,0.03-0.02,0.06-0.03,0.1c-0.02,0.06-0.04,0.13-0.06,0.2c-0.01,0.03-0.02,0.07-0.03,0.1
					c-0.05,0.2-0.1,0.39-0.15,0.57c-0.01,0.03-0.01,0.06-0.02,0.09c-0.07,0.28-0.12,0.49-0.13,0.55l0,0.03
					c-0.05,0.42-0.08,0.82-0.1,1.21l-0.01,0.1c-0.02,0.3-0.03,0.62-0.04,0.95c0,0.41,0.02,0.85,0.09,1.34
					c0.03,0.19,0.07,0.39,0.11,0.6c0.12,0.52,0.3,1.09,0.58,1.72l0,0c0,0,0,0,0,0.01L50.74,20.09z M53.25,17.5
					c-0.07-0.17-0.13-0.33-0.19-0.5c-0.07-0.2-0.13-0.41-0.19-0.61c-0.18-0.67-0.28-1.35-0.29-2.01c0-0.07,0-0.15,0-0.22
					c0-0.29,0.02-0.58,0.05-0.86c0.02-0.14,0.04-0.28,0.06-0.42c0.06-0.35,0.15-0.69,0.26-1.01c0.05-0.13,0.09-0.26,0.15-0.39
					c0.11-0.25,0.23-0.5,0.37-0.73c0.33-0.55,0.72-1.02,1.17-1.38c0.13-0.1,0.26-0.2,0.4-0.28c0.14-0.09,0.28-0.16,0.42-0.23
					c0.07-0.03,0.14-0.07,0.22-0.09c0.09-0.04,0.18-0.07,0.27-0.1c0.21-0.06,0.42-0.11,0.63-0.14c0,0,0,0,0,0
					c0.03,0,0.07-0.01,0.11-0.01c0.01,0,0.03,0,0.04,0c0.03,0,0.06-0.01,0.1-0.01c0.01,0,0.03,0,0.04,0c0.05,0,0.09-0.01,0.14-0.01
					c0,0,0.01,0,0.01,0c0.04,0,0.09-0.01,0.14-0.01c0.01,0,0.03,0,0.04,0c0.04,0,0.08,0,0.12-0.01c0.01,0,0.03,0,0.04,0
					c0.05,0,0.1,0,0.15-0.01c0.01,0,0.02,0,0.02,0c0.04,0,0.09,0,0.13,0c0.02,0,0.03,0,0.05,0c0.04,0,0.08,0,0.11,0
					c0.01,0,0.02,0,0.03,0c0,0,0.01,0,0.01,0c0.05,0,0.09,0,0.14,0c0.01,0,0.02,0,0.02,0c0.04,0,0.07,0,0.11,0c0.01,0,0.03,0,0.04,0
					c0.03,0,0.06,0,0.08,0.01c0.01,0,0.02,0,0.03,0c0.04,0,0.07,0.01,0.1,0.01c0.13,0.02,0.25,0.04,0.37,0.07
					c0.08,0.02,0.16,0.04,0.24,0.06c0.72,0.2,1.3,0.56,1.74,0.95c0.07,0.07,0.15,0.13,0.21,0.2c0.04,0.05,0.09,0.09,0.13,0.14
					c0.2,0.22,0.35,0.44,0.44,0.62c0.08,0.17,0.16,0.34,0.22,0.51c0.1,0.26,0.18,0.51,0.25,0.75c0.05,0.16,0.08,0.32,0.12,0.48
					c0.07,0.31,0.11,0.6,0.13,0.87c0.03,0.33,0.03,0.62,0,0.86c-0.01,0.13-0.03,0.26-0.05,0.39c-0.06,0.48-0.14,0.93-0.24,1.33
					c-0.01,0.04-0.02,0.08-0.03,0.12c-0.04,0.19-0.09,0.36-0.14,0.53c-0.11,0.37-0.23,0.69-0.34,0.96
					c-0.06,0.14-0.12,0.26-0.18,0.37c-0.03,0.06-0.06,0.11-0.09,0.16c-0.06,0.1-0.11,0.18-0.17,0.25l-0.03,0.04
					c-0.03,0.05-0.08,0.11-0.16,0.2c-0.03,0.04-0.06,0.07-0.1,0.12c-0.05,0.06-0.11,0.12-0.18,0.19c-0.1,0.11-0.23,0.23-0.38,0.36
					c-0.31,0.27-0.72,0.59-1.27,0.95l-1.31,0.62l-2.37,1.13l-0.83-1.65L53.25,17.5z"/>
				<g>
					<path class="st0" d="M55.67,14.6c0.29,0.6,0.62,1.29,0.96,1.75l0.03,0.04l0.04-0.02c0.36-0.19,1.09-0.69,1.79-1.17
						c0.39-0.27,0.76-0.52,1.04-0.7l0.04-0.03l-1.51-2.58l-2.88,1.78l0.03,0.05C55.35,13.92,55.5,14.23,55.67,14.6z"/>
				</g>
			</g>
			<g>
				<polygon class="st1" points="68.51,42.62 68.15,37.9 66.14,35.53 65.89,36.64 67.49,41.11 				"/>
				<polygon class="st1" points="22.38,40.01 22.35,39.98 22.12,40.91 22.51,48.76 25.28,54.68 25.44,50.86 25.92,49.25 
					27.39,47.84 29.03,45.39 28.48,43.52 25.26,41.11 				"/>
				<path class="st0" d="M72.2,49.45l-1.21-15.84l-3.76-7.53l-4.83-2.7l-3.07,1.47l-5.11,2.45l-1.36,0.65l-0.62-1.37l-1.84-4.03
					l-0.95-1.75l-0.05-0.09l-0.04-0.1l-0.72-1.92c-0.2-0.45-0.35-0.88-0.47-1.28l-0.65-0.26l-7.29-0.23l-7.85,2.84l-8.93,8.7
					l-2.61,4.45l-1.89,7.69l0.45,8.94l3.48,7.44l3.98-0.63l0.65-0.1l0.59,0.29l3.9,1.89l3.15-1.29l0.31-0.12l0.33-0.03l5.7-0.44
					l0.97-0.07l0.69,0.69l0.06,0.06l1.1-1.42l-0.28-6.15l-3.21-2.02L38,46.6l-1.93-1.36l-4.55-0.27l-0.91-2l-0.09-2.65L25.99,39
					l1.31-1.99l3.85,0.02l1.2,2.13l1.24-0.5L33.43,36l3.56-5.39l3.75-2.72l-0.46-2.85l-4.38,0.11l-0.89-1.61l1.16-1.61l4.2,1.18
					l4.81-1.78v-1.08l1.69,0.05l1.06,0.42l-0.18,0.14l0.11,2.53l0.57,2.6l1.35,0.59l0.52-0.39l0.69-2.09l0.39,2.84l-0.92,0.33
					l-1.07-0.07l-0.25,1.41l-1.17,0.99l-0.52,0.84l-0.52,0.82l0.95,0.13l1.02,1.39l-1.26,1.01l0.25,2.12l0.96,0.53l2.21-0.85
					l0.54-2.49l2.29-1.74l1.7,0.87l1.87,1.19l0.97-0.92l-1.01-1.25l1.26-0.67l1.49,0.22l-0.09,1.37l0.91,0.42l1.44-0.55l1.34-1.1
					l0.31,3.21l-8.7-0.16l-7.73,4.06l-0.71,7.04l4.37,5.14l4.86-0.45l2.29,0.79l0.32,1.07l-0.4,2.19l0.81,2.08l-0.4,2.52l0.06,1.41
					l0.76,2.24l-4.44,3.08l0.93,3.2l10.73-7.43L72.2,49.45z M28.48,43.52l0.54,1.87l-1.64,2.45l-1.48,1.4l-0.47,1.62l-0.17,3.81
					l-2.76-5.91l-0.39-7.86l0.23-0.93l0.03,0.03l2.88,1.1L28.48,43.52z M66.14,35.53l2.01,2.37l0.36,4.72l-1.02-1.51l-1.6-4.47
					L66.14,35.53z"/>
				<polygon class="st0" points="45.28,26.87 45.05,28.28 45.67,28.28 46.23,27.62 45.96,26.38 				"/>
				<polygon class="st0" points="34.74,41.11 33.05,42.09 33.49,42.71 35.54,42.32 36.9,43.52 37.45,43.52 37.02,42.23 				"/>
				<polygon class="st0" points="48.63,28.37 47.54,26.14 46.76,25.93 46.44,28.75 47.36,29.16 				"/>
			</g>
			<path class="st0" d="M54.6,73.31l-6.39-1.33l0.28-6.37l-1.12-1.14l5.29-0.42l-0.24-3.15l-7.96,0.63l-2.84-2.87l-5.7,0.44
				l-4.02,1.64l-4.74-2.3l-9.11,1.44l-1.27,4.01l-5.5-0.46l-0.25,3.15l4.77,0.39l-0.17,0.55l0.24,2.4l-5.28,0.44l0.25,3.15L17.03,73
				l2,5.05l6.07,1.19l6.13-1.15l1.46-2.44l4.48,2.33l5.6,0.44l4.05-3.49l7.22,1.49L54.6,73.31z M41.5,68.02l2.71-2.3l1.14,1.15
				l-0.18,4.06L41.5,68.02z M36.64,62.21l3.83-0.29l1.55,1.56L39,66.03l-3.99-3.16L36.64,62.21z M20.41,62.7l6.29-0.99L28,62.34
				l-5.04,2.06l-3-0.25L20.41,62.7z M18.93,69.37l-0.15-1.51l0.2-0.63l4.45,0.37l8.26-3.37l4.88,3.87l-4.67,3.96l-9.36-2.69
				l-3.49,0.29L18.93,69.37z M25.12,76.02l-3.86-0.75l-1.01-2.54l1.97-0.16l7.42,2.13l-0.32,0.53L25.12,76.02z M41.75,75.17
				l-3.72-0.29l-2.86-1.49l3.9-3.31l4.47,3.55L41.75,75.17z"/>
		</g>
	</g>
</switch>
</svg>
