<svg xmlns="http://www.w3.org/2000/svg" id="Calque_1" viewBox="0 0 85.04 85.04">
<style type="text/css">
    .st0{fill:#213B58;}
</style>
  <defs></defs>
  <polygon class="st0"
    points="23.5 55.8 19.35 61.11 29.5 63.99 39.02 52.68 39.75 77.35 48.81 77.56 49.08 67.79 48.79 52.98 57.87 63.34 65.6 58.49 42.76 32.9 23.5 55.8"></polygon>
  <polygon class="st0"
    points="38.5 28.61 43.31 23.16 57.39 39.8 66.02 33.47 42.52 7.48 22.62 31.18 19.02 35.28 27.21 41.9 38.5 28.61"></polygon>
</svg>