<?xml version="1.0" encoding="utf-8"?>
<!-- Generator: Adobe Illustrator 25.4.1, SVG Export Plug-In . SVG Version: 6.00 Build 0)  -->
<!DOCTYPE svg PUBLIC "-//W3C//DTD SVG 1.1//EN" "http://www.w3.org/Graphics/SVG/1.1/DTD/svg11.dtd" [
	<!ENTITY ns_extend "http://ns.adobe.com/Extensibility/1.0/">
	<!ENTITY ns_ai "http://ns.adobe.com/AdobeIllustrator/10.0/">
	<!ENTITY ns_graphs "http://ns.adobe.com/Graphs/1.0/">
	<!ENTITY ns_vars "http://ns.adobe.com/Variables/1.0/">
	<!ENTITY ns_imrep "http://ns.adobe.com/ImageReplacement/1.0/">
	<!ENTITY ns_sfw "http://ns.adobe.com/SaveForWeb/1.0/">
	<!ENTITY ns_custom "http://ns.adobe.com/GenericCustomNamespace/1.0/">
	<!ENTITY ns_adobe_xpath "http://ns.adobe.com/XPath/1.0/">
]>
<svg version="1.1" id="Calque_1" xmlns:x="&ns_extend;" xmlns:i="&ns_ai;" xmlns:graph="&ns_graphs;"
	 xmlns="http://www.w3.org/2000/svg" xmlns:xlink="http://www.w3.org/1999/xlink" x="0px" y="0px" viewBox="0 0 85.04 85.04"
	 style="enable-background:new 0 0 85.04 85.04;" xml:space="preserve">
<style type="text/css">
	.st0{fill:#223A59;}
	.st1{fill:#FFFFFF;}
	.st2{fill:#223B5A;}
</style>
<switch>
	<foreignObject requiredExtensions="&ns_ai;" x="0" y="0" width="1" height="1">
		<i:aipgfRef  xlink:href="#adobe_illustrator_pgf">
		</i:aipgfRef>
	</foreignObject>
	<g i:extraneous="self">
		<g>
			<g>
				<path class="st0" d="M57.03,79.5c-0.66,0-1.31-0.09-1.94-0.25l-0.64-0.17c-0.54-0.14-1.07-0.28-1.6-0.44
					c-1.16-0.36-2.11-0.71-3.02-1.2c-0.83-0.46-1.66-0.94-2.47-1.43c-0.68-0.41-1.35-0.84-2.02-1.29c-0.7-0.46-1.58-1.12-2.23-2.05
					c-0.05-0.07-0.12-0.14-0.18-0.21L42.52,72l6.53-4.69l0.45,0.57c0.16,0.2,0.31,0.4,0.47,0.59c0.46,0.54,0.99,1.04,1.58,1.48
					c0.61,0.45,1.2,0.79,1.82,1.06c0.75,0.32,1.49,0.54,2.25,0.65c0.35,0.05,0.71,0.08,1.07,0.08c0.31,0,0.63-0.02,0.94-0.06
					c0.48-0.06,0.92-0.16,1.31-0.3L53.13,66l4.97-5.88c0,0,1.32,1.17,1.63,1.44l1.2,1.1c0.61,0.56,2.6,2.33,2.6,2.33
					c0.46,0.41,0.91,0.81,1.37,1.22c0.47,0.43,2.36,2.16,2.83,2.59c0.37,0.33,0.74,0.66,1.11,0.99l0.58,0.51
					c0.15,0.13,0.5,0.44,0.31,1c-0.09,0.27-0.17,0.56-0.24,0.84c-0.09,0.35-0.18,0.7-0.31,1.04c-0.57,1.56-1.56,2.7-2.93,3.39
					c-0.23,0.11-0.45,0.23-0.68,0.35c-0.43,0.22-0.85,0.45-1.29,0.65c-0.75,0.34-1.45,0.63-2.12,0.87
					c-0.72,0.25-1.41,0.46-2.07,0.61c-0.65,0.15-1.52,0.33-2.38,0.41C57.49,79.48,57.26,79.5,57.03,79.5z"/>
				<path class="st1" d="M58.14,60.65c0.46,0.4,0.9,0.79,1.34,1.19c0.4,0.36,0.8,0.73,1.2,1.1c0.62,0.56,1.23,1.11,1.85,1.66
					c0.71,0.63,1.42,1.26,2.12,1.89c0.95,0.86,1.89,1.73,2.83,2.59c0.56,0.51,1.13,1,1.7,1.5c0.18,0.16,0.3,0.31,0.21,0.6
					c-0.21,0.62-0.32,1.26-0.54,1.87c-0.51,1.4-1.39,2.51-2.75,3.19c-0.65,0.33-1.29,0.69-1.96,0.99c-0.68,0.31-1.38,0.6-2.09,0.86
					c-0.66,0.24-1.34,0.44-2.03,0.6c-0.77,0.17-1.55,0.33-2.33,0.4c-0.22,0.02-0.44,0.03-0.66,0.03c-0.62,0-1.24-0.08-1.84-0.24
					c-0.74-0.2-1.49-0.38-2.23-0.61c-1.01-0.32-2.02-0.66-2.96-1.17c-0.83-0.45-1.65-0.93-2.46-1.42c-0.68-0.41-1.34-0.84-2-1.28
					c-0.81-0.54-1.57-1.14-2.13-1.95c-0.09-0.13-0.21-0.24-0.34-0.39c1.97-1.42,3.94-2.83,5.9-4.24c0.25,0.31,0.47,0.61,0.71,0.89
					c0.49,0.58,1.04,1.09,1.65,1.54c0.59,0.43,1.22,0.81,1.9,1.1c0.75,0.33,1.53,0.56,2.35,0.68c0.38,0.06,0.75,0.08,1.12,0.08
					c0.33,0,0.66-0.02,0.99-0.06c0.67-0.09,1.33-0.25,1.94-0.55c-1.98-1.84-3.96-3.67-5.97-5.53
					C55.16,64.18,56.65,62.42,58.14,60.65 M58.07,59.58l-0.5,0.59l-1.35,1.59l-3.15,3.72l-0.46,0.55l0.53,0.49l5.06,4.68
					c-0.19,0.04-0.4,0.08-0.61,0.11c-0.3,0.04-0.6,0.06-0.89,0.06c-0.34,0-0.68-0.03-1.01-0.08c-0.73-0.11-1.44-0.31-2.16-0.62
					c-0.59-0.26-1.17-0.59-1.75-1.02c-0.57-0.42-1.08-0.9-1.52-1.42c-0.16-0.19-0.31-0.38-0.46-0.58l-0.23-0.29l-0.44-0.56
					l-0.58,0.42l-3.33,2.39l-2.58,1.85l-0.68,0.49l0.56,0.62c0.05,0.05,0.09,0.1,0.14,0.15c0.05,0.06,0.11,0.11,0.15,0.17
					c0.69,0.98,1.61,1.66,2.33,2.14c0.75,0.5,1.41,0.92,2.03,1.3c0.94,0.57,1.73,1.02,2.48,1.44c0.94,0.51,1.91,0.86,3.09,1.23
					c0.54,0.17,1.08,0.31,1.61,0.45c0.22,0.06,0.43,0.11,0.65,0.17c0.66,0.18,1.34,0.27,2.04,0.27c0.24,0,0.49-0.01,0.73-0.03
					c0.88-0.08,1.72-0.25,2.43-0.41c0.68-0.15,1.37-0.36,2.11-0.62c0.68-0.24,1.39-0.53,2.15-0.88c0.45-0.2,0.88-0.43,1.3-0.65
					c0.23-0.12,0.45-0.24,0.68-0.35c1.46-0.73,2.5-1.94,3.11-3.6c0.13-0.36,0.23-0.73,0.32-1.08c0.07-0.27,0.14-0.55,0.23-0.81
					c0.18-0.53,0.04-1-0.42-1.4l-0.57-0.5c-0.37-0.33-0.75-0.66-1.12-0.99c-0.48-0.43-0.95-0.87-1.42-1.3
					c-0.47-0.43-0.94-0.87-1.41-1.29c-0.45-0.41-0.91-0.82-1.37-1.22l-0.76-0.67c-0.62-0.55-1.23-1.1-1.85-1.66
					c-0.19-0.17-0.38-0.35-0.57-0.52c-0.21-0.19-0.42-0.39-0.63-0.58c-0.31-0.28-0.62-0.55-0.93-0.83l-0.41-0.36L58.07,59.58
					L58.07,59.58z"/>
			</g>
			<g>
				<path class="st0" d="M55.07,58.12l3.34-20.33l1.95,0.43l4.56,1.03c0.08,0,0.12,0.01,0.17,0.02c0.33,0.07,0.5,0.33,0.44,0.66
					l-0.1,0.53c-0.14,0.75-0.28,1.49-0.41,2.24c-0.08,0.46-0.47,2.73-0.47,2.73c-0.07,0.39-0.41,2.25-0.41,2.25L63.7,50.2
					l-0.35,1.92l-0.15,0.89c-0.06,0.38-0.13,0.76-0.2,1.14c-0.08,0.46-0.44,2.32-0.52,2.8c-0.09,0.5-0.18,1.01-0.26,1.53l-0.19,1.13
					L55.07,58.12z"/>
				<path class="st1" d="M58.72,38.25c0.55,0.12,1.06,0.23,1.56,0.34c0.71,0.16,1.42,0.32,2.13,0.48c0.81,0.18,1.62,0.37,2.43,0.55
					c0.06,0.01,0.12,0.01,0.17,0.02c0.12,0.03,0.18,0.09,0.15,0.22c-0.17,0.93-0.34,1.85-0.51,2.78c-0.16,0.91-0.31,1.82-0.47,2.73
					c-0.13,0.75-0.28,1.5-0.41,2.25c-0.15,0.84-0.29,1.67-0.44,2.51c-0.11,0.64-0.24,1.28-0.35,1.92c-0.12,0.67-0.23,1.35-0.35,2.03
					c-0.17,0.93-0.36,1.86-0.53,2.8c-0.13,0.74-0.25,1.48-0.39,2.28c-2.07-0.44-4.11-0.88-6.22-1.33
					C56.58,51.27,57.64,44.77,58.72,38.25 M58.1,37.35l-0.13,0.78l-1.27,7.72l-1.95,11.86l-0.12,0.71l0.7,0.15l6.22,1.33l0.76,0.16
					l0.13-0.77l0.12-0.74c0.09-0.53,0.17-1.03,0.27-1.54c0.09-0.48,0.18-0.95,0.27-1.43c0.09-0.46,0.17-0.91,0.26-1.37
					c0.07-0.38,0.13-0.77,0.2-1.15c0.05-0.29,0.1-0.59,0.15-0.88c0.06-0.32,0.12-0.65,0.18-0.97c0.06-0.32,0.12-0.63,0.17-0.95
					c0.07-0.39,0.14-0.78,0.21-1.18c0.08-0.44,0.15-0.89,0.23-1.33c0.06-0.36,0.13-0.71,0.2-1.07c0.07-0.39,0.15-0.79,0.22-1.18
					c0.08-0.45,0.16-0.9,0.23-1.34c0.08-0.46,0.16-0.92,0.24-1.38c0.14-0.76,0.28-1.52,0.42-2.29l0.09-0.49
					c0.1-0.52-0.21-0.98-0.73-1.09c-0.06-0.01-0.13-0.02-0.2-0.02l-1.18-0.27l-1.22-0.28c-0.71-0.16-1.42-0.32-2.13-0.48l-1.06-0.23
					l-0.51-0.11L58.1,37.35L58.1,37.35z"/>
			</g>
			<g>
				<path class="st0" d="M65.92,42.73c2.02,0.46,3.96,0.91,5.93,1.36c-1.07,5.84-2.15,11.67-3.22,17.5
					c-0.32,0.04-3.56-0.63-5.68-1.21C63.94,54.5,64.93,48.63,65.92,42.73z"/>
			</g>
			<g>
				<path class="st0" d="M53.58,57.09c-0.55-0.1-1.08-0.21-1.61-0.31c-0.64-0.13-1.29-0.27-1.93-0.42
					c-0.61-0.14-1.21-0.28-1.82-0.43c-0.25-0.06-0.45-0.37-0.41-0.63c0.1-0.69,0.22-1.38,0.33-2.06l0.96-5.86l0.14-0.9
					c0.08-0.54,0.17-1.08,0.26-1.62c0.1-0.6,0.22-1.19,0.33-1.79l0.19-0.97c0.04-0.2,0.07-0.39,0.09-0.59
					c0.05-0.38,0.3-0.51,0.53-0.51c0.06,0,0.12,0.01,0.18,0.02c0.61,0.14,1.22,0.28,1.83,0.41l1.31,0.29l2.4,0.55
					c0.15,0.03,0.29,0.06,0.44,0.09l0.58,0.12l-2.77,14.8L53.58,57.09z"/>
				<path class="st1" d="M50.65,41.38c0.03,0,0.06,0,0.1,0.01c1.05,0.24,2.1,0.47,3.15,0.7c0.8,0.18,1.6,0.37,2.4,0.55
					c0.22,0.05,0.44,0.09,0.67,0.14c-0.88,4.68-1.75,9.36-2.63,14.06c-0.8-0.15-1.54-0.29-2.29-0.44c-0.64-0.13-1.28-0.27-1.92-0.42
					c-0.6-0.14-1.21-0.28-1.81-0.43c-0.06-0.02-0.15-0.14-0.14-0.21c0.14-0.95,0.3-1.89,0.46-2.83c0.14-0.89,0.29-1.78,0.43-2.67
					c0.13-0.81,0.27-1.61,0.4-2.42c0.14-0.84,0.26-1.68,0.4-2.51c0.16-0.92,0.35-1.83,0.52-2.75c0.04-0.2,0.07-0.41,0.1-0.61
					C50.51,41.43,50.55,41.38,50.65,41.38 M50.65,40.63c-0.4,0-0.83,0.26-0.9,0.84c-0.02,0.19-0.05,0.38-0.09,0.57L49.48,43
					c-0.12,0.6-0.23,1.19-0.34,1.79c-0.09,0.54-0.18,1.07-0.26,1.61c-0.05,0.3-0.09,0.61-0.14,0.91c-0.07,0.43-0.14,0.86-0.21,1.3
					l-0.19,1.12l-0.22,1.39L47.9,52.4l-0.12,0.76c-0.11,0.69-0.23,1.39-0.33,2.08c-0.07,0.45,0.26,0.94,0.69,1.05
					c0.61,0.16,1.22,0.3,1.83,0.44c0.64,0.15,1.29,0.29,1.94,0.42c0.52,0.11,1.04,0.21,1.57,0.31l0.72,0.14l0.74,0.14l0.14-0.74
					l0.31-1.64l2.33-12.42l0.14-0.72l-0.72-0.15l-0.22-0.04c-0.15-0.03-0.29-0.06-0.44-0.09l-1-0.23c-0.47-0.11-0.93-0.22-1.4-0.32
					c-0.45-0.1-0.89-0.2-1.34-0.3c-0.6-0.13-1.2-0.27-1.8-0.4C50.82,40.64,50.74,40.63,50.65,40.63L50.65,40.63z"/>
			</g>
			<g>
				<path class="st0" d="M53.86,60.98c-0.27,0.37-0.53,0.73-0.8,1.09c-0.36,0.47-0.72,0.94-1.08,1.4c-0.5,0.63-1,1.25-1.5,1.87
					c-0.2,0.25-0.4,0.49-0.62,0.72c-0.04,0.04-0.17,0.07-0.21,0.04c-0.81-0.5-1.62-1.01-2.43-1.52c-0.7-0.44-1.42-0.87-2.11-1.34
					c-0.51-0.35-0.99-0.74-1.49-1.13c0.39-0.58,0.77-1.15,1.16-1.71c0.66-0.98,1.33-1.95,1.99-2.93c0.22-0.33,0.45-0.65,0.67-0.99
					c0.07-0.11,0.12-0.11,0.22-0.04c0.58,0.43,1.16,0.85,1.73,1.27c0.74,0.54,1.49,1.09,2.23,1.63
					C52.36,59.88,53.1,60.43,53.86,60.98z"/>
			</g>
		</g>
		<g>
			<path class="st0" d="M38.99,19.44c-0.06,1.9,0.01,3.78-0.21,5.66c1.9,0.01,3.79,0.02,5.7,0.04c0.03-1.17,0.07-2.34,0.1-3.52
				c1.2,0.03,2.38,0.05,3.57,0.08c0.01,0.23,0.04,0.45,0.04,0.68c0.01,0.88,0.01,1.75,0.01,2.63c0,0.28,0,0.55-0.01,0.83
				c-0.01,1.65-0.01,3.3-0.02,4.95c0,0.69,0,1.37,0,2.08c-1.29-0.07-2.59-0.14-3.89-0.21c0-0.17,0-0.34,0-0.51
				c0.01-0.53,0.03-1.06,0.05-1.59c0.01-0.38,0.02-0.77,0.04-1.15c0-0.08-0.02-0.11-0.1-0.11c-0.78-0.01-1.56-0.02-2.35-0.03
				c-1.08-0.01-2.15-0.05-3.22-0.15c-0.06-0.01-0.13-0.01-0.21-0.01c-0.04,1.95-0.07,3.88-0.11,5.85c1.83,0.06,3.62,0.13,5.44,0.19
				c-0.02,1.19-0.05,2.38-0.08,3.59c-4.43,0.03-8.84-0.06-13.27-0.04c0.07-1.4,0.14-2.79,0.21-4.21c1.37,0.04,2.73,0.09,4.07,0.13
				c0-1.91,0-3.85,0-5.81c-0.13,0-0.25,0-0.37,0c-0.98-0.02-1.95-0.04-2.93-0.05c-0.7-0.01-1.41-0.03-2.11-0.04
				c-0.06,0-0.13,0-0.19,0.01c-0.21,0.01-0.21,0.01-0.21,0.22c-0.03,0.95-0.05,1.9-0.08,2.85c-0.01,0.36-0.02,0.71-0.03,1.08
				c-1.19-0.02-2.37-0.05-3.57-0.07c-0.01-0.09-0.02-0.18-0.02-0.28c-0.07-0.9-0.03-1.81-0.03-2.71c0-0.28,0-0.55,0.01-0.83
				c0.01-1.27,0.01-2.55,0.02-3.82c0-0.81,0-1.63,0-2.44c0-0.36,0-0.71,0-1.08c1.3,0.07,2.59,0.14,3.9,0.21
				c-0.03,1.09-0.06,2.17-0.09,3.23c1.92,0,3.82,0,5.75,0c0.01-1.98,0.03-3.96,0.04-5.94c-1.49-0.05-2.97-0.1-4.46-0.15
				c0.03-1.19,0.05-2.38,0.08-3.59c0.15,0,0.3,0,0.44,0c0.93,0,1.86-0.01,2.78-0.01c0.31,0,0.62,0.01,0.93,0.01
				c0.73,0,1.46,0,2.19,0c1.71,0.01,3.43,0.01,5.14,0.02c0.55,0,1.1,0,1.66,0c0.04,0,0.07,0,0.12,0c-0.07,1.4-0.14,2.79-0.21,4.19
				C41.98,19.59,40.48,19.61,38.99,19.44z"/>
		</g>
		<path class="st2" d="M14.46,72.8V9.4h44.48v27.07l3.74,0.84v-29c0-1.46-1.19-2.65-2.65-2.65H13.36c-1.46,0-2.65,1.19-2.65,2.65
			V73.9c0,1.46,1.19,2.65,2.65,2.65h31.85l-3.85-3.74H14.46z"/>
	</g>
</switch>
</svg>
