<?xml version="1.0" encoding="utf-8"?>
<!-- Generator: Adobe Illustrator 25.2.1, SVG Export Plug-In . SVG Version: 6.00 Build 0)  -->
<svg version="1.1" id="Calque_1" xmlns="http://www.w3.org/2000/svg" xmlns:xlink="http://www.w3.org/1999/xlink" x="0px" y="0px"
	 viewBox="0 0 85 85" style="enable-background:new 0 0 85 85;" xml:space="preserve">
<style type="text/css">
	.st0{fill:#84BB99;}
	.st1{fill:#137156;}
	.st2{fill:#6F73A7;}
	.st3{fill:#D9861C;}
	.st4{fill:#0072A8;}
	.st5{fill:#B8361C;}
	.st6{fill:#FFFFFF;}
	.st7{fill:#0C3C5C;}
	.st8{fill:none;stroke:#D9861C;stroke-width:7;stroke-linecap:round;stroke-miterlimit:10;}
	.st9{fill:none;stroke:#0C3C5C;stroke-width:2;stroke-linecap:round;stroke-miterlimit:10;}
</style>
<g>
	<path class="st1" d="M71.6,49.6L56,66.1v-4.6l-3.3-3.3l-3.3,3.3V74c0,0,0,0,0,0v3.3h3.3h12.5l3.3-3.3l-3.3-3.3h-4.6l17.4-17.1"/>
	<path class="st1" d="M27.3,77.3l0.4-19.8l19.2,0.2l1-20h14.2l5.1,0l-0.8-17.3h15.1l1.4-8.7H58.8l0,3.3v15l-20,1.2l0.2,3.3l0.5,16.1
		l-19.5-0.3l0,3.6V70H3.9l-0.7,7.3H27.3z"/>
</g>
</svg>
