<svg xmlns="http://www.w3.org/2000/svg" id="Calque_1" data-name="Calque 1" viewBox="0 0 85.04 85.04">
  <style type="text/css">
    .st0{fill:#003A5B;}
</style>
  <defs></defs>
  <title>SIGNES_AG_fleche_graphique_bas</title>
  <polygon class="st0"
    points="73.36 52.06 70.75 57.85 60.31 28.06 50.98 7.43 23.11 29.49 14.7 0.13 0.01 3.48 10.29 41.63 14.68 60.43 35.6 40.26 44.55 32.83 57.41 63.68 52.05 61.97 45.5 73.31 74.01 84.91 85.05 56.16 73.36 52.06"></polygon>
</svg>