<?xml version="1.0" encoding="UTF-8" standalone="no"?>
<svg
   xmlns:i="&amp;ns_ai;"
   xmlns:dc="http://purl.org/dc/elements/1.1/"
   xmlns:cc="http://creativecommons.org/ns#"
   xmlns:rdf="http://www.w3.org/1999/02/22-rdf-syntax-ns#"
   xmlns:svg="http://www.w3.org/2000/svg"
   xmlns="http://www.w3.org/2000/svg"
   xmlns:sodipodi="http://sodipodi.sourceforge.net/DTD/sodipodi-0.dtd"
   xmlns:inkscape="http://www.inkscape.org/namespaces/inkscape"
   version="1.1"
   id="Calque_1"
   x="0px"
   y="0px"
   viewBox="0 0 85.04 85.04"
   style="enable-background:new 0 0 85.04 85.04;"
   xml:space="preserve"
   sodipodi:docname="SIGNES_JAMBVILLE_abeille 3.svg"
   inkscape:version="1.0.2-2 (e86c870879, 2021-01-15)"><metadata
   id="metadata254"><rdf:RDF><cc:Work
       rdf:about=""><dc:format>image/svg+xml</dc:format><dc:type
         rdf:resource="http://purl.org/dc/dcmitype/StillImage" /><dc:title></dc:title></cc:Work></rdf:RDF></metadata><defs
   id="defs252" /><sodipodi:namedview
   pagecolor="#ffffff"
   bordercolor="#666666"
   borderopacity="1"
   objecttolerance="10"
   gridtolerance="10"
   guidetolerance="10"
   inkscape:pageopacity="0"
   inkscape:pageshadow="2"
   inkscape:window-width="768"
   inkscape:window-height="480"
   id="namedview250"
   showgrid="false"
   inkscape:zoom="11.853245"
   inkscape:cx="42.52"
   inkscape:cy="42.52"
   inkscape:window-x="284"
   inkscape:window-y="300"
   inkscape:window-maximized="0"
   inkscape:current-layer="Calque_1" />
<style
   type="text/css"
   id="style233">
	.st0{fill:#D63313;}
	.st1{fill:#6F74AA;}
	.st2{fill:#003A5D;}
	.st3{fill:#F18800;}
	.st4{fill:#D63414;}
	.st5{fill:#D63817;}
	.st6{fill:#F18A01;}
	.st7{fill:#F28A02;}
	.st8{fill:#F28A03;}
	.st9{fill:#F28A05;}
	.st10{fill:#65BC98;}
	.st11{fill:#6E74AA;}
	.st12{fill:#F18700;}
</style>
<switch
   id="switch247">
	<foreignObject
   requiredExtensions="http://ns.adobe.com/AdobeIllustrator/10.0/"
   x="0"
   y="0"
   width="1"
   height="1">
		
	</foreignObject>
	<g
   i:extraneous="self"
   id="g245">
		<path
   class="st2"
   d="M41.14,25.2c0-0.02,0.01-0.03,0.01-0.04l-0.04,0.01c-2.88-3.83-6.43-6.84-11.05-8.28    c0.23-2.14,0.8-4.82,2.17-6.19l-3.04-3.26c0,0-3.91,2.29-4.93,8.49c-0.76-0.05-1.47-0.02-2.18,0.08c0.22-2.16,0.79-4.89,2.18-6.28    l-3.04-3.26c0,0-5.15,3.01-5.17,11.49c-1.55,0.78-3.01,1.78-4.43,2.77c-1.56,1.09-3.25,3.6-4.13,5.24    c-0.72,1.28-1.22,2.86-1.58,4.49l-0.03,1.19l0.1,1.29l0.26,0.96l0.43,0.85l0.48,0.81c0.9,1.19,1.89,2.26,2.95,3.04    c1.45,1.12,3.99,2.66,5.84,2.98c2.08,0.35,4.19,0.72,6.31,0.6c1.46-0.08,2.24-0.16,3.68-0.47c1.44-0.31,2.54-0.7,3.82-1.46    c1.06-0.63,1.61-0.91,2.61-1.62c0.2-0.14,0.42-0.31,0.66-0.49c4.42-3.43,6.88-7.6,8.11-12.84l0.05-0.01    C41.16,25.23,41.15,25.22,41.14,25.2z M23.63,36.76c-2.14-4.52-2.89-11.28-0.8-14.51c0.16-0.25,0.49-0.66,0.85-1.1    c0.29-0.02,0.57-0.04,0.86-0.05c-0.03,0.05-0.05,0.09-0.07,0.14c-0.88,1.68-1.51,3.45-1.51,5.32c0,2.48,0.19,4.96,0.96,7.32    c0.37,1.13,0.53,1.74,0.87,2.68C24.43,36.64,24.05,36.7,23.63,36.76C23.63,36.76,23.63,36.76,23.63,36.76z M13.76,34.64    c-0.01-0.01-0.02-0.03-0.04-0.04l-1.1-1.17l-0.43-1.33l-0.27-1.25l0.11-1.61c0.14-0.57,0.26-1.08,0.34-1.29    c0.93-2.34,1.45-2.93,3.68-4.26c0.71-0.42,1.61-0.78,2.58-1.16c-0.73,1.51-1.23,3.1-1.23,4.76c0,2.48,0.19,4.96,0.96,7.32    c0.32,0.97,0.48,1.56,0.74,2.3c-0.1-0.01-0.21,0-0.31-0.01C16.24,36.69,15.53,36.37,13.76,34.64z M28.69,35.01    c-1.94-4.45-2.33-10.39-0.31-13.5c0.02-0.03,0.03-0.06,0.05-0.1c0.43,0.1,0.83,0.22,1.2,0.37c-0.18,0.31-0.36,0.66-0.54,1.11    c-0.54,1.36-1.12,3.81-0.97,5.25c0.2,1.91,0.54,3.8,1.31,5.56c0.09,0.21,0.19,0.43,0.28,0.64c-0.02,0.02-0.05,0.04-0.07,0.06    C29.31,34.62,29,34.82,28.69,35.01z M33.43,30.44c-0.19,0.31-0.42,0.61-0.65,0.91c-0.8-2.64-0.92-5.44,0.01-7.24    c0.02-0.04,0.05-0.09,0.07-0.14l2.26,2.62L33.43,30.44z"
   id="path235" />
		<path
   class="st2"
   d="M73.46,49.81c1.45,3.66,3.16,9.46,3.87,11.93c-3.48,1.56-8.96,3.54-11.47,4.43l-4.33-11.74L73.46,49.81z"
   id="path237" />
		<path
   class="st2"
   d="M62.95,32.28c3.9,0.53,9.8,1.87,12.3,2.45c-0.34,3.79-1.29,9.55-1.74,12.17l-12.36-1.96L62.95,32.28z"
   id="path239" />
		<path
   class="st2"
   d="M44.46,24.98c3.51-1.77,9.14-4,11.54-4.93c1.86,3.32,4.33,8.61,5.44,11.03l-11.3,5.36L44.46,24.98z"
   id="path241" />
		<path
   class="st2"
   d="M64.15,68.77c0.67,3.88,1.16,9.91,1.35,12.47c-3.72,0.81-9.5,1.63-12.14,1.99l-1.84-12.38L64.15,68.77z"
   id="path243" />
	</g>
</switch>

</svg>
