<?xml version="1.0" encoding="utf-8"?>
<!-- Generator: Adobe Illustrator 23.0.3, SVG Export Plug-In . SVG Version: 6.00 Build 0)  -->
<svg version="1.1" id="Calque_1" xmlns="http://www.w3.org/2000/svg" xmlns:xlink="http://www.w3.org/1999/xlink" x="0px" y="0px"
	 viewBox="0 0 85.04 85.04" style="enable-background:new 0 0 85.04 85.04;" xml:space="preserve">
<style type="text/css">
	.st0{fill:#003A5D;}
</style>
<g>
	<g>
		<path class="st0" d="M75.52,52.91c-4.05-0.13-27.21,0.54-29.85,0.7c-0.32,3.64-0.36,9.24-0.36,11.79l29.74-0.2L75.52,52.91z"/>
		<path class="st0" d="M75.25,67.69c-4.05-0.13-29.79,0.36-32.44,0.52c-0.32,3.64-0.37,8.21-0.37,10.76l32.33-0.02L75.25,67.69z"/>
		<path class="st0" d="M75.89,38.81c-4.05-0.13-24.21,0.27-26.85,0.43c-0.32,3.64-0.36,9.24-0.36,11.79L74.4,51.1L75.89,38.81z"/>
		<path class="st0" d="M67.32,24.6c-4.05-0.13-17.68,0.29-20.33,0.44c-0.32,3.64-0.36,9.24-0.36,11.79l20.22,0.06L67.32,24.6z"/>
	</g>
	<path class="st0" d="M23.72,5.99l0.06,23.34c-1.17,0.66-2.45,1.17-3.56,1.94c-1.5,1.03-2.89,2.86-4.21,4.19
		c-2.29,2.3-3.66,5.11-4.91,7.75C8.28,49.16,8.46,60.94,12,68.76c1.31,2.9,3.26,5.28,5.28,7.53c1.52,1.7,3.41,2.71,5.4,3.42
		c2.23,0.8,4.51,1.28,6.81,1.46c1.58,0.13,3.19,0.11,4.75-0.06c0.73-0.08,1.44-0.25,2.14-0.48L33.6,67.6
		c-0.05,0-4.91-0.67-7.85-3.65c-1.96-1.99-2.51-8.56-2.49-9.23c0.04-1.14,0.28-2.33,0.34-3.47c0.08-1.49,0.72-2.1,1.34-3.29
		c0.07-0.14,0.19-0.24,0.26-0.37c4.13-7.65,13.49-7.9,13.49-7.9L39,3.77L23.72,5.99z"/>
</g>
</svg>
