<svg xmlns="http://www.w3.org/2000/svg" id="Calque_1" data-name="Calque 1" viewBox="0 0 85.04 85.04">
  <style type="text/css">
    .st0{fill:#003A5B;}
</style>
  <defs></defs>
  <title>SIGNES_AG_malette</title>
  <g id="sac-santé">
    <path class="st0"
      d="M62.47,18.92l.41-18L21.69.07l-.83,18.85L0,18.41.59,85,85,83.89l-.56-64.13ZM35,13.64,49.75,13l-.16,6h-15Zm36.68,58-58.38.59-.81-40.53,58.88.53Z"></path>
  </g>
</svg>