<svg xmlns="http://www.w3.org/2000/svg" id="Calque_1" data-name="Calque 1" viewBox="0 0 85.04 85.04"
>
  <defs></defs>
  <style type="text/css">
    .st0{fill:#003A5B;}
</style>
  <title>SIGNES_AG_engrenage</title>
  <path class="st0"
    d="M75.46,54.77c3.16.72,6.66,1.38,8.71,1.65.82-3.16.47-10.59.87-12.84l-7.9-.29A17.39,17.39,0,0,0,77,37.34c-.38-1.36-.67-2.78-1-4.15l7.5-5.85-5.92-9.72c-2.66,1.57-5.2,2.4-7.07,3.75-2-3.46-2.67-3.64-5.37-5.78L69.15,8.9l-12-6.08c-1.65,2.89-3.18,5.06-4.08,7,.07.05-.47.11-.4.16a14,14,0,0,0-3.18-1,19.83,19.83,0,0,0-6.4-1.1c0-3.37-1-5.11-1.12-7.22C38.87.46,31.57.53,29.38.58l.09,8.24c-.92.21-.59.45-1.52.74-3.51,1.11-5.34,2.5-8.29,4.69A84.59,84.59,0,0,0,13,8.73c-2.23,2.29-7.91,7.32-9.34,9l7.58,7A33.24,33.24,0,0,0,9,32.32c-.15.68-.28.11-.4.81-3.19-.28-6.31-.34-8.26-.36C-.14,36,.15,44.16,0,46.43l7.85.18c0,.39.06-.49.11-.15a52.22,52.22,0,0,0,1.56,6.42c.18.6-.22,0,.05.58-2.61,2-4.81,4.37-6.32,5.72,1.68,2.76,6.42,8.67,7.73,10.5l5.61-4.49A26.75,26.75,0,0,0,19.31,68a19,19,0,0,0,4.5,3.53c-1.48,3-3.25,5.36-4,7.25,2.68,1.68,8.85,4.57,10.8,5.58l4.28-8.14c.56.15-.16-.33.36-.21,1.65.38,3.3.71,5,1a15,15,0,0,0,2.31.13,68.56,68.56,0,0,0,1.14,7.42c3.13,0,10.42-1.07,12.6-1.27l-.79-7.63c1-.33.65-.66,1.61-1A24.15,24.15,0,0,0,63.84,71c2.27,2.41,5.27,5,6.85,6.44,2.33-2.18,6.93-7.67,8.43-9.32L73,61.78c.14-.27-.35.09-.22-.19A38.49,38.49,0,0,0,75.46,54.77ZM66,44.32A44.46,44.46,0,0,1,63.71,52C61.1,58.62,53.34,63,45.13,63.78l2.75-15.85c-2.38,1-4.59,2-5.78,2.36l-.18.05-2.08-.88L36.17,45.3c-.09.77-.17,1.56-.25,2.34-.11,1.1-1.42,8.49-2.49,14.56a19.38,19.38,0,0,1-11.53-13c-1-3.31-3.53-11.13-1.27-16.08a19.37,19.37,0,0,1,2-3.15L36.17,45.3c.27-2.53.55-4.84.82-6l0-.19,1.17-.36,6.08-2.23c-.31-.32-.64-.63-1-1-1-.94-8-9-12.2-13.76a35.17,35.17,0,0,1,16.52-1c2.4.43,4.74,1.74,7.09,2.4,3.07.86,4.1,2.76,6.35,4.88a5,5,0,0,1,.67.83c.16.24.37.56.6.94L44.28,36.49a33.71,33.71,0,0,1,4.59,5.73l-1,5.71,2-.9c1.15-.51,10.16-3.78,16.2-6A17.07,17.07,0,0,1,66,44.32Z"></path>
</svg>