<?xml version="1.0" encoding="utf-8"?>
<!-- Generator: Adobe Illustrator 24.3.0, SVG Export Plug-In . SVG Version: 6.00 Build 0)  -->
<!DOCTYPE svg PUBLIC "-//W3C//DTD SVG 1.1//EN" "http://www.w3.org/Graphics/SVG/1.1/DTD/svg11.dtd" [
	<!ENTITY ns_extend "http://ns.adobe.com/Extensibility/1.0/">
	<!ENTITY ns_ai "http://ns.adobe.com/AdobeIllustrator/10.0/">
	<!ENTITY ns_graphs "http://ns.adobe.com/Graphs/1.0/">
	<!ENTITY ns_vars "http://ns.adobe.com/Variables/1.0/">
	<!ENTITY ns_imrep "http://ns.adobe.com/ImageReplacement/1.0/">
	<!ENTITY ns_sfw "http://ns.adobe.com/SaveForWeb/1.0/">
	<!ENTITY ns_custom "http://ns.adobe.com/GenericCustomNamespace/1.0/">
	<!ENTITY ns_adobe_xpath "http://ns.adobe.com/XPath/1.0/">
]>
<svg version="1.1" id="Calque_1" xmlns:x="&ns_extend;" xmlns:i="&ns_ai;" xmlns:graph="&ns_graphs;"
	 xmlns="http://www.w3.org/2000/svg" xmlns:xlink="http://www.w3.org/1999/xlink" x="0px" y="0px" viewBox="0 0 85.04 85.04"
	 style="enable-background:new 0 0 85.04 85.04;" xml:space="preserve">
<style type="text/css">
	.st0{fill:none;stroke:#0C3C5C;stroke-width:7;stroke-miterlimit:10;}
	.st1{fill:none;stroke:#0C3C5C;stroke-width:5;stroke-miterlimit:10;}
	.st2{fill:#0C3C5C;}
	.st3{fill:none;stroke:#0C3C5C;stroke-width:3;stroke-miterlimit:10;}
	.st4{fill:none;stroke:#0C3C5C;stroke-width:6;stroke-miterlimit:10;}
	.st5{fill:none;stroke:#0C3C5C;stroke-width:4;stroke-miterlimit:10;}
	.st6{fill:#263D5B;}
	.st7{fill:none;stroke:#0C3C5C;stroke-width:9;stroke-miterlimit:10;}
	.st8{fill:none;stroke:#0C3C5C;stroke-width:2;stroke-miterlimit:10;}
	.st9{fill:#0C3C5C;stroke:#0C3C5C;stroke-width:2;stroke-miterlimit:10;}
	.st10{fill:none;stroke:#0C3C5C;stroke-miterlimit:10;}
	.st11{fill:none;stroke:#0C3C5C;stroke-width:1.5;stroke-miterlimit:10;}
	.st12{fill:none;stroke:#0C3C5C;stroke-width:0.75;stroke-miterlimit:10;}
	.st13{fill:none;stroke:#0C3C5C;stroke-width:3;stroke-miterlimit:10;stroke-dasharray:2,3;}
	.st14{fill:none;stroke:#0C3C5C;stroke-width:0.5;stroke-miterlimit:10;}
	.st15{fill:none;stroke:#0C3C5C;stroke-width:0.25;stroke-miterlimit:10;}
	.st16{fill:none;stroke:#0C3C5C;stroke-width:8;stroke-miterlimit:10;}
	.st17{fill:#FFFFFF;stroke:#0C3C5C;stroke-width:0;stroke-miterlimit:10;}
	.st18{fill:none;stroke:#0C3C5C;stroke-width:2.5;stroke-miterlimit:10;}
	.st19{fill:#253C59;}
</style>
<switch>
	<foreignObject requiredExtensions="&ns_ai;" x="0" y="0" width="1" height="1">
		<i:aipgfRef  xlink:href="#adobe_illustrator_pgf">
		</i:aipgfRef>
	</foreignObject>
	<g i:extraneous="self">
		<path class="st1" d="M28.31,20.8V10.12c0,0,5.19-9.46,14.34-9.46S55.47,8.6,55.47,8.6v12.2"/>
		<path class="st2" d="M32.89,20.8v-9.31c0,0,3.97-5.8,9-5.8s9.15,5.03,9.15,5.03V20.8H32.89z"/>
		<polygon class="st2" points="26.48,50.24 34.41,20.8 40.67,20.8 		"/>
		<polygon class="st2" points="24.35,23.39 32.13,23.39 25.57,51.16 22.52,26.75 		"/>
		<path class="st2" d="M27.32,77.09l14.57-0.92l14.8,0.46v3.36c0,0-1.53,3.51-7.02,4.12s-14.56,0-14.56,0s-6.8-0.15-7.79-5.19
			C27.32,77.09,27.32,77.09,27.32,77.09z"/>
		<g>
			<polygon class="st2" points="60.22,42.77 60.72,37.73 42.96,37.73 42.96,36.82 60.82,36.82 61.56,29.37 46.18,29.37 47.53,32.39 
				36.55,42.77 			"/>
			<polygon class="st2" points="58.46,60.28 26.15,60.28 26.75,67.49 57.74,67.49 			"/>
			<polygon class="st2" points="58.55,59.38 59.42,50.69 28.16,50.69 25.57,53.14 26.08,59.38 			"/>
			<polygon class="st2" points="29.11,49.79 59.51,49.79 60.13,43.67 35.71,43.67 35.71,43.56 			"/>
			<polygon class="st2" points="26.82,68.39 27.4,75.41 41.97,74.91 56.94,75.41 57.65,68.39 			"/>
		</g>
		<polygon class="st2" points="42.5,23.39 45.19,28.12 61.56,28.12 61.56,25.07 59.42,22.73 		"/>
	</g>
</switch>
</svg>
