<?xml version="1.0" encoding="utf-8"?>
<!-- Generator: Adobe Illustrator 23.0.3, SVG Export Plug-In . SVG Version: 6.00 Build 0)  -->
<svg version="1.1" id="Calque_1" xmlns="http://www.w3.org/2000/svg" xmlns:xlink="http://www.w3.org/1999/xlink" x="0px" y="0px"
	 viewBox="0 0 85.04 85.04" style="enable-background:new 0 0 85.04 85.04;" xml:space="preserve">
<style type="text/css">
	.st0{fill:#007254;}
</style>
<path class="st0" d="M65.17,1.96L57.96,2L42.24,1.93L21.52,2.16L1.45,1.97l1.1,40.43l0.09,4.27l0.37,0l1.17-0.04l8.45-0.26
	l16.96-0.53l0.02,0.75l-0.43,36.51l15.26-0.5l-0.39-37.15l4.72-0.09l20.51-1.11l14.06-21.69L65.17,1.96z M60.13,32.33l-19.35-0.08
	l-25.74,1.62L14.19,15.5l13.65-0.22l9.65-0.43l13.67,0.06l8.18-0.04l6.94,8.02L60.13,32.33z"/>
</svg>
