<?xml version="1.0" encoding="utf-8"?>
<!-- Generator: Adobe Illustrator 23.0.3, SVG Export Plug-In . SVG Version: 6.00 Build 0)  -->
<svg version="1.1" id="Calque_1" xmlns="http://www.w3.org/2000/svg" xmlns:xlink="http://www.w3.org/1999/xlink" x="0px" y="0px"
	 viewBox="0 0 85.04 85.04" style="enable-background:new 0 0 85.04 85.04;" xml:space="preserve">
<style type="text/css">
	.st0{fill:#F18700;}
</style>
<path class="st0" d="M83.88,17.35L62.55,35.26L42.99,8.08L23.23,33.36L1.59,24.64L1.23,71.43l-0.07,4.73l0.41,0v0.01l1.29,0.01
	l9.36,0.1v-0.05l29.95,0.12l10.09,0.17l16.48,0.33l5.79,0.12l0-0.1l9.36,0.1l-0.01-5.59l-0.5-24.74L83.88,17.35z M71.15,44.07
	l-0.06,21.56l-25.37-1.01L13.93,65.5l-0.26-22.67l16.83,5.88l12.48-16.73l15.52,20.21L71.15,44.07z"/>
</svg>
