<?xml version="1.0" encoding="utf-8"?>
<!-- Generator: Adobe Illustrator 23.0.3, SVG Export Plug-In . SVG Version: 6.00 Build 0)  -->
<svg version="1.1" id="Calque_1" xmlns="http://www.w3.org/2000/svg" xmlns:xlink="http://www.w3.org/1999/xlink" x="0px" y="0px"
	 viewBox="0 0 85.04 85.04" style="enable-background:new 0 0 85.04 85.04;" xml:space="preserve">
<style type="text/css">
	.st0{fill:#003A5D;}
</style>
<g>
	<path class="st0" d="M47.93,18.45l-8.72-8.72L31.02,15V1.42l-12.69,0l0,14.65L9.88,8.78L0.2,17.69l18.27,14.08l-0.51,20.38
		l14.06,0.48l-0.18-2.22c-0.11-1.42,0.14-12.09,0.43-21.6L47.93,18.45z"/>
	<path class="st0" d="M84.84,49.32l-8.75-8.75l-8.22,5.28V32.23l-12.73,0l0,14.7l-8.48-7.31l-9.71,8.94l18.33,14.13l-0.51,20.45
		l14.11,0.49l-0.18-2.23c-0.11-1.43,0.14-12.13,0.43-21.67L84.84,49.32z"/>
</g>
</svg>
