<?xml version="1.0" encoding="utf-8"?>
<!-- Generator: Adobe Illustrator 25.2.1, SVG Export Plug-In . SVG Version: 6.00 Build 0)  -->
<svg version="1.1" id="Calque_1" xmlns="http://www.w3.org/2000/svg" xmlns:xlink="http://www.w3.org/1999/xlink" x="0px" y="0px"
	 viewBox="0 0 85 85" style="enable-background:new 0 0 85 85;" xml:space="preserve">
<style type="text/css">
	.st0{fill:#84BB99;}
	.st1{fill:#137156;}
	.st2{fill:#6F73A7;}
	.st3{fill:#D9861C;}
	.st4{fill:#0072A8;}
	.st5{fill:#B8361C;}
	.st6{fill:#FFFFFF;}
	.st7{fill:#0C3C5C;}
	.st8{fill:none;stroke:#D9861C;stroke-width:7;stroke-linecap:round;stroke-miterlimit:10;}
	.st9{fill:none;stroke:#0C3C5C;stroke-width:2;stroke-linecap:round;stroke-miterlimit:10;}
</style>
<g>
	<path class="st1" d="M30.8,11.1L9.6,10.8V3.4l-7,1.2v74.8h10.7l-1.1-7h60.1l1.4,7h8.4V14.2H73v7H30.6 M30.3,47.7H7.3V35.2h42.2
		v23.3H31.8 M68.1,49.2l-14-1.4v-3.2h14V49.2z M54.1,35.2h14v5.2l-14-1.6V35.2z M68.1,58.5h-14v-6.8l14,2.1V58.5z M25.9,21.2H7.3
		v-4.7l19.2-1 M77.4,58.5h-4.7V35.2h4.7V58.5z M25.9,58.5H7.3v-4.7l17.9-1"/>
</g>
</svg>
