<?xml version="1.0" encoding="utf-8"?>
<!-- Generator: Adobe Illustrator 24.3.0, SVG Export Plug-In . SVG Version: 6.00 Build 0)  -->
<!DOCTYPE svg PUBLIC "-//W3C//DTD SVG 1.1//EN" "http://www.w3.org/Graphics/SVG/1.1/DTD/svg11.dtd" [
	<!ENTITY ns_extend "http://ns.adobe.com/Extensibility/1.0/">
	<!ENTITY ns_ai "http://ns.adobe.com/AdobeIllustrator/10.0/">
	<!ENTITY ns_graphs "http://ns.adobe.com/Graphs/1.0/">
	<!ENTITY ns_vars "http://ns.adobe.com/Variables/1.0/">
	<!ENTITY ns_imrep "http://ns.adobe.com/ImageReplacement/1.0/">
	<!ENTITY ns_sfw "http://ns.adobe.com/SaveForWeb/1.0/">
	<!ENTITY ns_custom "http://ns.adobe.com/GenericCustomNamespace/1.0/">
	<!ENTITY ns_adobe_xpath "http://ns.adobe.com/XPath/1.0/">
]>
<svg version="1.1" id="Calque_1" xmlns:x="&ns_extend;" xmlns:i="&ns_ai;" xmlns:graph="&ns_graphs;"
	 xmlns="http://www.w3.org/2000/svg" xmlns:xlink="http://www.w3.org/1999/xlink" x="0px" y="0px" viewBox="0 0 85.04 85.04"
	 style="enable-background:new 0 0 85.04 85.04;" xml:space="preserve">
<style type="text/css">
	.st0{fill:none;stroke:#0C3C5C;stroke-width:7;stroke-miterlimit:10;}
	.st1{fill:none;stroke:#0C3C5C;stroke-width:5;stroke-miterlimit:10;}
	.st2{fill:#0C3C5C;}
	.st3{fill:none;stroke:#0C3C5C;stroke-width:3;stroke-miterlimit:10;}
	.st4{fill:none;stroke:#0C3C5C;stroke-width:6;stroke-miterlimit:10;}
	.st5{fill:none;stroke:#0C3C5C;stroke-width:4;stroke-miterlimit:10;}
	.st6{fill:#263D5B;}
	.st7{fill:none;stroke:#0C3C5C;stroke-width:9;stroke-miterlimit:10;}
	.st8{fill:none;stroke:#0C3C5C;stroke-width:2;stroke-miterlimit:10;}
	.st9{fill:#0C3C5C;stroke:#0C3C5C;stroke-width:2;stroke-miterlimit:10;}
	.st10{fill:none;stroke:#0C3C5C;stroke-miterlimit:10;}
	.st11{fill:none;stroke:#0C3C5C;stroke-width:1.5;stroke-miterlimit:10;}
	.st12{fill:none;stroke:#0C3C5C;stroke-width:0.75;stroke-miterlimit:10;}
	.st13{fill:none;stroke:#0C3C5C;stroke-width:3;stroke-miterlimit:10;stroke-dasharray:2,3;}
	.st14{fill:none;stroke:#0C3C5C;stroke-width:0.5;stroke-miterlimit:10;}
	.st15{fill:none;stroke:#0C3C5C;stroke-width:0.25;stroke-miterlimit:10;}
	.st16{fill:none;stroke:#0C3C5C;stroke-width:8;stroke-miterlimit:10;}
	.st17{fill:#FFFFFF;stroke:#0C3C5C;stroke-width:0;stroke-miterlimit:10;}
	.st18{fill:none;stroke:#0C3C5C;stroke-width:2.5;stroke-miterlimit:10;}
	.st19{fill:#253C59;}
</style>
<switch>
	<foreignObject requiredExtensions="&ns_ai;" x="0" y="0" width="1" height="1">
		<i:aipgfRef  xlink:href="#adobe_illustrator_pgf">
		</i:aipgfRef>
	</foreignObject>
	<g i:extraneous="self">
		<g>
			<path class="st5" d="M38.37,25.28c0,0-1.31-0.19-2.78-1.07c-1.6-0.97-3.4-2.76-3.93-6.04c-1.02-6.31,0.41-12.61,6.71-13.02
				s7.53,3.86,8.34,8.95C47.52,19.18,45.89,24.47,38.37,25.28z"/>
			<path class="st5" d="M35.72,23.84v5.29c0,0-7.73,0.2-9.97,3.86s-5.29,13.22-10.78,16.27c-5.49,3.05-8.95,5.9-8.14,7.93
				c0.81,2.03,2.03,2.64,7.53,0c5.49-2.64,7.93-3.05,9.97-6.71c2.03-3.66,2.03-3.66,2.03-3.66"/>
			<path class="st5" d="M43.05,24.13v5.29c0,0,7.53,0.2,9.71,3.86s5.15,13.22,10.51,16.27c5.35,3.05,8.72,5.9,7.93,7.93
				c-0.79,2.03-1.98,2.64-7.33,0c-5.35-2.64-7.73-3.05-9.71-6.71c-1.98-3.66-1.98-3.66-1.98-3.66"/>
			<line class="st5" x1="49.6" y1="41.29" x2="49.1" y2="58.95"/>
			<line class="st5" x1="29.66" y1="41.69" x2="29.99" y2="59.36"/>
			<path class="st5" d="M31.36,70.62c0,0-10.19-0.41-10.13,5.08c0.06,5.49,6.58,3.86,10.13,2.24c3.55-1.63,29.99-13.83,30.6-16.27
				c0.61-2.44-0.81-8.54-6.71-6.92C49.35,56.38,31.36,70.62,31.36,70.62z"/>
			<path class="st5" d="M36.94,64.52c0,0-12.06-9.84-14.24-10.03c-2.18-0.2-11.89,2.88-5.08,10.03c13.02,5.08,13.02,5.08,13.02,5.08
				"/>
			<path class="st5" d="M40.28,74.89c0,0,10.08,6.77,13.95,4.61s2.44-6.84,0-8.06c-2.44-1.22-4.88-0.81-4.88-0.81"/>
			<path class="st5" d="M43.05,26.48h2.03c0,0,1.42,1.02,1.08,3.3s-6.78,9.31-6.78,9.31s0,0-2.44-2.44
				c-2.44-2.44-4.47-9.15-4.47-9.15s-0.27-1.15,1.42-2.22"/>
			<line class="st5" x1="39.13" y1="40.06" x2="35.72" y2="45.51"/>
			<line class="st5" x1="42.05" y1="46.62" x2="39.38" y2="39.09"/>
		</g>
	</g>
</switch>
</svg>
