<?xml version="1.0" encoding="utf-8"?>
<!-- Generator: Adobe Illustrator 25.2.1, SVG Export Plug-In . SVG Version: 6.00 Build 0)  -->
<svg version="1.1" id="Calque_1" xmlns="http://www.w3.org/2000/svg" xmlns:xlink="http://www.w3.org/1999/xlink" x="0px" y="0px"
	 viewBox="0 0 85 85" style="enable-background:new 0 0 85 85;" xml:space="preserve">
<style type="text/css">
	.st0{fill:#84BB99;}
	.st1{fill:#137156;}
	.st2{fill:#6F73A7;}
	.st3{fill:#D9861C;}
	.st4{fill:#0072A8;}
	.st5{fill:#B8361C;}
	.st6{fill:#FFFFFF;}
	.st7{fill:#0C3C5C;}
	.st8{fill:none;stroke:#D9861C;stroke-width:7;stroke-linecap:round;stroke-miterlimit:10;}
	.st9{fill:none;stroke:#0C3C5C;stroke-width:2;stroke-linecap:round;stroke-miterlimit:10;}
</style>
<path class="st3" d="M49.2,13.9c1.3-1,2.5-2,3.9-2.8c7.3-4.1,16.8,0.7,17.9,9c0.2,1.6,0.2,3.1-0.3,4.7c-0.1,0.5-0.1,0.9,0.2,1.3
	c4.1,5.5,5.4,11.7,3.4,18.3c-1.9,6.4-6.1,10.9-12.3,13.2C54.4,60.4,47.5,59,41.3,54c-0.4-0.4-0.8-0.7-1.2-1.2
	c-0.3-0.3-0.6-0.4-1-0.2c-4.8,2.4-9.9,2.9-15,1.3c-6.4-2-10.9-6.1-13.2-12.4c-2.5-6.7-1.7-13.1,2.3-19c3.2-4.6,7.6-7.4,13.1-8.4
	c0.5-0.1,1-0.3,1.4-0.6c6.2-5.2,15-5.2,21.2,0C48.9,13.7,49.1,13.8,49.2,13.9z"/>
<g>
	<g>
		<path class="st6" d="M21.8,34.7c0,0.3,0.1,0.6,0.2,0.9c0.2,0.9,0.7,2.1,1.3,2.7c0.5,0.4,1.6,1.4,2.5,1.7c0.3,0.1,0.7,0.2,1.1,0.3
			c0.3,0.1,0.8,0,1.2,0c0.4,0,0.8-0.1,1.2-0.2c0.6-0.1,1.1-0.3,1.6-0.6c0.5-0.2,0.9-0.5,1.2-0.9c0.4-0.5,0.8-1.1,1-1.8
			c0.5-1.8,0.2-3.4,0.1-3.7c-0.2-0.9-0.4-1.6-1-2.3c-0.4-0.5-0.9-1-1.5-1.4c-0.4-0.2-0.8-0.6-1.2-0.7c-0.3-0.1-0.6-0.2-1-0.3
			c-0.4-0.1-0.8,0-1.2,0c-0.4,0-0.8,0.1-1.2,0.2c-0.6,0.1-1.1,0.3-1.6,0.6c-0.5,0.2-0.9,0.5-1.2,0.9c-0.4,0.5-0.8,1.1-1,1.8
			c-0.1,0.4-0.3,0.7-0.4,1.1C21.7,33.3,21.8,34.7,21.8,34.7z"/>
	</g>
</g>
<g>
	<g>
		<path class="st6" d="M38.2,34.7c0,0.3,0.1,0.6,0.2,0.9c0.2,0.9,0.7,2.1,1.3,2.7c0.5,0.4,1.6,1.4,2.5,1.7c0.3,0.1,0.7,0.2,1.1,0.3
			c0.3,0.1,0.8,0,1.2,0c0.4,0,0.8-0.1,1.2-0.2c0.6-0.1,1.1-0.3,1.6-0.6c0.5-0.2,0.9-0.5,1.2-0.9c0.4-0.5,0.8-1.1,1-1.8
			c0.5-1.8,0.2-3.4,0.1-3.7c-0.2-0.9-0.4-1.6-1-2.3c-0.4-0.5-0.9-1-1.5-1.4c-0.4-0.2-0.8-0.6-1.2-0.7c-0.3-0.1-0.6-0.2-1-0.3
			c-0.4-0.1-0.8,0-1.2,0c-0.4,0-0.8,0.1-1.2,0.2c-0.6,0.1-1.1,0.3-1.6,0.6c-0.5,0.2-0.9,0.5-1.2,0.9c-0.4,0.5-0.8,1.1-1,1.8
			c-0.1,0.4-0.3,0.7-0.4,1.1C38.1,33.3,38.2,34.7,38.2,34.7z"/>
	</g>
</g>
<g>
	<g>
		<path class="st6" d="M54.6,34.7c0,0.3,0.1,0.6,0.2,0.9c0.2,0.9,0.7,2.1,1.3,2.7c0.5,0.4,1.6,1.4,2.5,1.7c0.3,0.1,0.7,0.2,1.1,0.3
			c0.3,0.1,0.8,0,1.2,0c0.4,0,0.8-0.1,1.2-0.2c0.6-0.1,1.1-0.3,1.6-0.6c0.5-0.2,0.9-0.5,1.2-0.9c0.4-0.5,0.8-1.1,1-1.8
			c0.5-1.8,0.2-3.4,0.1-3.7c-0.2-0.9-0.4-1.6-1-2.3c-0.4-0.5-0.9-1-1.5-1.4c-0.4-0.2-0.8-0.6-1.2-0.7c-0.3-0.1-0.6-0.2-1-0.3
			c-0.4-0.1-0.8,0-1.2,0c-0.4,0-0.8,0.1-1.2,0.2c-0.6,0.1-1.1,0.3-1.6,0.6c-0.5,0.2-0.9,0.5-1.2,0.9c-0.4,0.5-0.8,1.1-1,1.8
			c-0.1,0.4-0.3,0.7-0.4,1.1C54.6,33.3,54.6,34.7,54.6,34.7z"/>
	</g>
</g>
<g>
	<g>
		<path class="st3" d="M26.8,65.5c0,0.3,0.1,0.6,0.2,0.9c0.2,0.9,0.7,2.1,1.3,2.7c0.5,0.4,1.6,1.4,2.5,1.7c0.3,0.1,0.7,0.2,1.1,0.3
			c0.3,0.1,0.8,0,1.2,0c0.4,0,0.8-0.1,1.2-0.2c0.6-0.1,1.1-0.3,1.6-0.6c0.5-0.2,0.9-0.5,1.2-0.9c0.4-0.5,0.8-1.1,1-1.8
			c0.5-1.8,0.2-3.4,0.1-3.7c-0.2-0.9-0.4-1.6-1-2.3c-0.4-0.5-0.9-1-1.5-1.4c-0.4-0.2-0.8-0.6-1.2-0.7c-0.3-0.1-0.6-0.2-1-0.3
			c-0.4-0.1-0.8,0-1.2,0c-0.4,0-0.8,0.1-1.2,0.2c-0.6,0.1-1.1,0.3-1.6,0.6c-0.5,0.2-0.9,0.5-1.2,0.9c-0.4,0.5-0.8,1.1-1,1.8
			c-0.1,0.4-0.3,0.7-0.4,1.1C26.7,64.1,26.8,65.5,26.8,65.5z"/>
	</g>
</g>
<g>
	<g>
		<path class="st3" d="M13.9,71.4c0,0.2,0.1,0.4,0.1,0.6c0.1,0.7,0.5,1.6,1,2c0.4,0.3,1.2,1,1.8,1.3c0.2,0.1,0.5,0.2,0.8,0.2
			c0.2,0,0.6,0,0.9,0c0.3,0,0.6-0.1,0.9-0.1c0.4-0.1,0.8-0.2,1.2-0.4c0.3-0.2,0.6-0.4,0.9-0.7c0.3-0.4,0.6-0.8,0.7-1.3
			c0.4-1.3,0.1-2.5,0.1-2.8c-0.1-0.7-0.3-1.2-0.7-1.7c-0.3-0.4-0.6-0.8-1.1-1.1c-0.3-0.2-0.6-0.4-0.9-0.5c-0.2-0.1-0.5-0.1-0.7-0.2
			c-0.3-0.1-0.6,0-0.9,0c-0.3,0-0.6,0.1-0.9,0.1c-0.4,0.1-0.8,0.2-1.2,0.4c-0.3,0.2-0.6,0.4-0.9,0.7c-0.3,0.4-0.6,0.8-0.7,1.3
			c-0.1,0.3-0.2,0.6-0.3,0.8C13.8,70.4,13.9,71.4,13.9,71.4z"/>
	</g>
</g>
</svg>
