<?xml version="1.0" encoding="utf-8"?>
<!-- Generator: Adobe Illustrator 23.0.3, SVG Export Plug-In . SVG Version: 6.00 Build 0)  -->
<svg version="1.1" id="Calque_1" xmlns="http://www.w3.org/2000/svg" xmlns:xlink="http://www.w3.org/1999/xlink" x="0px" y="0px"
	 viewBox="0 0 85.04 85.04" style="enable-background:new 0 0 85.04 85.04;" xml:space="preserve">
<style type="text/css">
	.st0{fill:#003A5D;}
</style>
<g>
	<g>
		<polygon class="st0" points="5.89,57.05 16.36,64.75 31.44,45.86 42.46,32.78 70.05,62.31 79.15,53.06 48.44,17.15 42.4,10.69 
			11.34,50.4 		"/>
	</g>
	<path class="st0" d="M42.56,74.35c-3.31-2.94-7.98-7.9-9.94-10.02c2.7-3.33,7.21-8.1,9.28-10.27l10.3,9.6L42.56,74.35z"/>
</g>
</svg>
