<?xml version="1.0" encoding="utf-8"?>
<!-- Generator: Adobe Illustrator 24.3.0, SVG Export Plug-In . SVG Version: 6.00 Build 0)  -->
<!DOCTYPE svg PUBLIC "-//W3C//DTD SVG 1.1//EN" "http://www.w3.org/Graphics/SVG/1.1/DTD/svg11.dtd" [
	<!ENTITY ns_extend "http://ns.adobe.com/Extensibility/1.0/">
	<!ENTITY ns_ai "http://ns.adobe.com/AdobeIllustrator/10.0/">
	<!ENTITY ns_graphs "http://ns.adobe.com/Graphs/1.0/">
	<!ENTITY ns_vars "http://ns.adobe.com/Variables/1.0/">
	<!ENTITY ns_imrep "http://ns.adobe.com/ImageReplacement/1.0/">
	<!ENTITY ns_sfw "http://ns.adobe.com/SaveForWeb/1.0/">
	<!ENTITY ns_custom "http://ns.adobe.com/GenericCustomNamespace/1.0/">
	<!ENTITY ns_adobe_xpath "http://ns.adobe.com/XPath/1.0/">
]>
<svg version="1.1" id="Calque_1" xmlns:x="&ns_extend;" xmlns:i="&ns_ai;" xmlns:graph="&ns_graphs;"
	 xmlns="http://www.w3.org/2000/svg" xmlns:xlink="http://www.w3.org/1999/xlink" x="0px" y="0px" viewBox="0 0 85.04 85.04"
	 style="enable-background:new 0 0 85.04 85.04;" xml:space="preserve">
<style type="text/css">
	.st0{fill:none;stroke:#0C3C5C;stroke-width:7;stroke-miterlimit:10;}
	.st1{fill:none;stroke:#0C3C5C;stroke-width:5;stroke-miterlimit:10;}
	.st2{fill:#0C3C5C;}
	.st3{fill:none;stroke:#0C3C5C;stroke-width:3;stroke-miterlimit:10;}
	.st4{fill:none;stroke:#0C3C5C;stroke-width:6;stroke-miterlimit:10;}
	.st5{fill:none;stroke:#0C3C5C;stroke-width:4;stroke-miterlimit:10;}
	.st6{fill:#263D5B;}
	.st7{fill:none;stroke:#0C3C5C;stroke-width:9;stroke-miterlimit:10;}
	.st8{fill:none;stroke:#0C3C5C;stroke-width:2;stroke-miterlimit:10;}
	.st9{fill:#0C3C5C;stroke:#0C3C5C;stroke-width:2;stroke-miterlimit:10;}
	.st10{fill:none;stroke:#0C3C5C;stroke-miterlimit:10;}
	.st11{fill:none;stroke:#0C3C5C;stroke-width:1.5;stroke-miterlimit:10;}
	.st12{fill:none;stroke:#0C3C5C;stroke-width:0.75;stroke-miterlimit:10;}
	.st13{fill:none;stroke:#0C3C5C;stroke-width:3;stroke-miterlimit:10;stroke-dasharray:2,3;}
	.st14{fill:none;stroke:#0C3C5C;stroke-width:0.5;stroke-miterlimit:10;}
	.st15{fill:none;stroke:#0C3C5C;stroke-width:0.25;stroke-miterlimit:10;}
	.st16{fill:none;stroke:#0C3C5C;stroke-width:8;stroke-miterlimit:10;}
	.st17{fill:#FFFFFF;stroke:#0C3C5C;stroke-width:0;stroke-miterlimit:10;}
	.st18{fill:none;stroke:#0C3C5C;stroke-width:2.5;stroke-miterlimit:10;}
	.st19{fill:#253C59;}
</style>
<switch>
	<foreignObject requiredExtensions="&ns_ai;" x="0" y="0" width="1" height="1">
		<i:aipgfRef  xlink:href="#adobe_illustrator_pgf">
		</i:aipgfRef>
	</foreignObject>
	<g i:extraneous="self">
		<path class="st5" d="M72.13,10.25c0,0-6.91-4.5-9.62,4.55c-0.21,0.79-0.21,0.79-0.21,0.79S68.47,18.04,72.13,10.25z"/>
		<path class="st5" d="M13.49,32.82c0,0,0.19-4.45,6.48-4.08c2.41-0.37,2.41-0.37,2.41-0.37s2.96-4.45,5.37-3.71
			c2.41,0.74,7.04,2.59,7.04,6.11s0,3.52,0,3.52"/>
		<path class="st5" d="M31.65,22.63c0,0,2.22-4.82,7.32-2.59s8.8,3.33,11.02,1.85"/>
		<path class="st5" d="M66.11,34.3l-2.87-3.15c0,0,2.22-5.37,1.44-7.97s-6.72-4.29-8.57-2.15C54.25,23.19,52.95,28,52.95,28
			s-5.19-2.59-8.15,5"/>
		<path class="st5" d="M20.35,24.59c0,0-0.93-8.2-9.63-4.52c-0.74,0.34-0.74,0.34-0.74,0.34S12.01,26.73,20.35,24.59z"/>
		<path class="st5" d="M43.06,17.54c0,0,4.71-6.77-4.26-9.75c-0.78-0.23-0.78-0.23-0.78-0.23S35.38,13.65,43.06,17.54z"/>
		<path class="st5" d="M57.03,9.13c0,0,4.72,3.69,4.21,9.98"/>
		<path class="st5" d="M49.99,13.37c0,0-4.63,2.28-6.85,6.7"/>
		<path class="st5" d="M24.06,15.96c0,0-4.54,4.65-3.71,8.63"/>
		<path class="st5" d="M44.33,63.98c-1.47-0.21-2.87,0.71-3.26,2.14c-0.97,3.52-1.51,9.48,5.78,9.87c4.08,0,4.08,0,4.08,0
			s9.2-1.9,4.41-11.15c-0.63-1.22-2.12-1.65-3.4-1.13C50.69,64.23,48.48,64.57,44.33,63.98z"/>
		<path class="st5" d="M52.95,55.83c0,0-4.02,3.34-4.6,7.1"/>
		<path class="st2" d="M10.71,44.26v-4.84c0-1.36,1.1-2.46,2.46-2.46h51.36c1.48,0,2.68,1.2,2.68,2.68v4.18
			c0,1.61-1.3,2.91-2.91,2.91H13.18C11.82,46.72,10.71,45.62,10.71,44.26z"/>
		<path class="st2" d="M51.03,48.36l-4.47,9H13.18c-1.36,0-2.46-1.1-2.46-2.46v-3.92c0-1.44,1.17-2.62,2.62-2.62H51.03z"/>
		<path class="st2" d="M39.89,59.07l-3.23,9H12.5c-0.98,0-1.78-1.1-1.78-2.46v-3.92c0-1.44,0.85-2.62,1.89-2.62H39.89z"/>
		<path class="st2" d="M59.16,58.99l0.92,9h6.89c0.28,0,0.51-1.1,0.51-2.46v-3.92c0-1.44-0.24-2.62-0.54-2.62H59.16z"/>
		<path class="st2" d="M55,48.36l1.35,9h10.12c0.41,0,0.75-1.1,0.75-2.46v-3.92c0-1.44-0.35-2.62-0.79-2.62H55z"/>
		<polygon class="st2" points="49.99,48.36 58.15,48.36 58.15,52.86 47.57,52.74 		"/>
	</g>
</switch>
</svg>
