<?xml version="1.0" encoding="utf-8"?>
<!-- Generator: Adobe Illustrator 23.0.3, SVG Export Plug-In . SVG Version: 6.00 Build 0)  -->
<svg version="1.1" id="Calque_1" xmlns="http://www.w3.org/2000/svg" xmlns:xlink="http://www.w3.org/1999/xlink" x="0px" y="0px"
	 viewBox="0 0 85.04 85.04" style="enable-background:new 0 0 85.04 85.04;" xml:space="preserve">
<style type="text/css">
	.st0{fill:#003A5D;}
</style>
<path class="st0" d="M63.13,68.19c-28.56-33.29,6.32-57.25,6.32-57.25S64.4,7.43,61.8,6.42c-0.02-0.01-0.03-0.02-0.05-0.02
	c-1.95-0.75-4.08-1.12-6.08-1.71c-2.42-0.71-5.32-0.19-7.83-0.03c-2.49,0.16-5,0.53-7.43,1.09c-3.53,0.82-6.96,2.01-10.22,3.62
	c-2.91,1.43-5.58,3.25-7.49,5.88c-2.54,3.5-4.81,7.19-6.19,11.33c-0.79,2.38-1.6,4.75-2.27,7.17c-0.67,2.42-0.19,11.37-0.19,11.37
	c0.3,1.83,0.64,3.65,1.04,5.45c1.25,5.62,4.21,13.58,8.42,17.51c3.05,2.85,10.18,8.98,15.84,10.76c1.99,0.62,4.69,1.38,6.75,1.71
	c2.03,0.33,4.93,0.12,7.43-0.04c2.49-0.16,5-0.53,7.43-1.09c0.78-0.18,1.56-0.39,2.33-0.61c2.71-0.77,7.9-3.02,7.9-3.02L63.13,68.19
	z M43.02,66c-22.93-7.02-18.59-41.05-3.07-47.49c1.34-0.56,3.67-1.38,5.71-1.96c-2.11,3.07-3.96,6.3-5.15,9.87
	c-0.8,2.39-1.61,4.78-2.28,7.21c-0.67,2.44-0.2,11.44-0.19,11.44c0.3,1.84,0.64,3.67,1.05,5.49c1.14,5.13,3.7,12.19,7.33,16.41
	C46.96,67.11,43.9,66.27,43.02,66z"/>
</svg>
