<?xml version="1.0" encoding="utf-8"?>
<!-- Generator: Adobe Illustrator 23.0.3, SVG Export Plug-In . SVG Version: 6.00 Build 0)  -->
<svg version="1.1" id="Calque_1" xmlns="http://www.w3.org/2000/svg" xmlns:xlink="http://www.w3.org/1999/xlink" x="0px" y="0px"
	 viewBox="0 0 85.04 85.04" style="enable-background:new 0 0 85.04 85.04;" xml:space="preserve">
<style type="text/css">
	.st0{fill:#007254;}
</style>
<g>
	<path class="st0" d="M28.5,0c-0.11,1.38,0.89,28.92,0.89,28.92l6.67-0.67l14.18-0.61l6.93,0.1c0,0,0.15-6.58,0.15-10.65
		c0.01-1.06,0-2.81,0-2.81v-0.75c0,0,0.33-9.64,0.15-11.72l14.45-0.5l-0.64,29.36l-0.05,9.7l-17.34,0.6v5.94l0.14,5.93l4.02,0.16
		c0,0,7.87,0.21,11.11,0.16c0.44,7.25,0.18,24.14,0.18,24.14v7.45l-13.2,0.3l0.42-17.81l-7.08-0.31c0,0-2.95,0.03-3.82,0
		c-4.15-0.12-20.09-0.13-20.09-0.13l-0.28,7.25l-0.14,10.88c0,0-3.52-0.3-5.17-0.3c-1.08,0-3.39-0.13-3.39-0.13l-3.44-0.58
		l-0.03-29.44l18.21-1.02l2.75-0.27l-0.43-10.12l-0.44-2.6c0,0-5.75,0.53-10.73,0.75c-1.07,0.03-7.2,0-7.2,0l-0.2-8.77l-0.33-7.54
		L13.79,0H28.5z"/>
</g>
<path class="st0" d="M36.61,21.57c-0.06-4.17,0.41-10.59,0.63-13.31c4.04-0.24,10.23-0.16,13.06-0.1L50.18,22.5L36.61,21.57z"/>
</svg>
