<?xml version="1.0" encoding="utf-8"?>
<!-- Generator: Adobe Illustrator 24.3.0, SVG Export Plug-In . SVG Version: 6.00 Build 0)  -->
<!DOCTYPE svg PUBLIC "-//W3C//DTD SVG 1.1//EN" "http://www.w3.org/Graphics/SVG/1.1/DTD/svg11.dtd" [
	<!ENTITY ns_extend "http://ns.adobe.com/Extensibility/1.0/">
	<!ENTITY ns_ai "http://ns.adobe.com/AdobeIllustrator/10.0/">
	<!ENTITY ns_graphs "http://ns.adobe.com/Graphs/1.0/">
	<!ENTITY ns_vars "http://ns.adobe.com/Variables/1.0/">
	<!ENTITY ns_imrep "http://ns.adobe.com/ImageReplacement/1.0/">
	<!ENTITY ns_sfw "http://ns.adobe.com/SaveForWeb/1.0/">
	<!ENTITY ns_custom "http://ns.adobe.com/GenericCustomNamespace/1.0/">
	<!ENTITY ns_adobe_xpath "http://ns.adobe.com/XPath/1.0/">
]>
<svg version="1.1" id="Calque_1" xmlns:x="&ns_extend;" xmlns:i="&ns_ai;" xmlns:graph="&ns_graphs;"
	 xmlns="http://www.w3.org/2000/svg" xmlns:xlink="http://www.w3.org/1999/xlink" x="0px" y="0px" viewBox="0 0 85.04 85.04"
	 style="enable-background:new 0 0 85.04 85.04;" xml:space="preserve">
<style type="text/css">
	.st0{fill:none;stroke:#0C3C5C;stroke-width:7;stroke-miterlimit:10;}
	.st1{fill:none;stroke:#0C3C5C;stroke-width:5;stroke-miterlimit:10;}
	.st2{fill:#0C3C5C;}
	.st3{fill:none;stroke:#0C3C5C;stroke-width:3;stroke-miterlimit:10;}
	.st4{fill:none;stroke:#0C3C5C;stroke-width:6;stroke-miterlimit:10;}
	.st5{fill:none;stroke:#0C3C5C;stroke-width:4;stroke-miterlimit:10;}
	.st6{fill:#263D5B;}
	.st7{fill:none;stroke:#0C3C5C;stroke-width:9;stroke-miterlimit:10;}
	.st8{fill:none;stroke:#0C3C5C;stroke-width:2;stroke-miterlimit:10;}
	.st9{fill:#0C3C5C;stroke:#0C3C5C;stroke-width:2;stroke-miterlimit:10;}
	.st10{fill:none;stroke:#0C3C5C;stroke-miterlimit:10;}
	.st11{fill:none;stroke:#0C3C5C;stroke-width:1.5;stroke-miterlimit:10;}
	.st12{fill:none;stroke:#0C3C5C;stroke-width:0.75;stroke-miterlimit:10;}
	.st13{fill:none;stroke:#0C3C5C;stroke-width:3;stroke-miterlimit:10;stroke-dasharray:2,3;}
	.st14{fill:none;stroke:#0C3C5C;stroke-width:0.5;stroke-miterlimit:10;}
	.st15{fill:none;stroke:#0C3C5C;stroke-width:0.25;stroke-miterlimit:10;}
	.st16{fill:none;stroke:#0C3C5C;stroke-width:8;stroke-miterlimit:10;}
	.st17{fill:#FFFFFF;stroke:#0C3C5C;stroke-width:0;stroke-miterlimit:10;}
	.st18{fill:none;stroke:#0C3C5C;stroke-width:2.5;stroke-miterlimit:10;}
	.st19{fill:#253C59;}
</style>
<switch>
	<foreignObject requiredExtensions="&ns_ai;" x="0" y="0" width="1" height="1">
		<i:aipgfRef  xlink:href="#adobe_illustrator_pgf">
		</i:aipgfRef>
	</foreignObject>
	<g i:extraneous="self">
		<path class="st1" d="M57.84,45.34c0,0,0,0.18,0,0.51c0,3.62,0,25.38,0,28.99c0,3.93-3.93,3.55-3.93,3.55s-13.37-0.01-20.85,0
			s-7.47-3.94-7.47-3.94V45.34H57.84z"/>
		<line class="st1" x1="33.74" y1="52.27" x2="33.74" y2="71.61"/>
		<line class="st1" x1="41.71" y1="52.27" x2="41.71" y2="71.61"/>
		<line class="st1" x1="49.39" y1="52.27" x2="49.39" y2="71.61"/>
		<line class="st1" x1="31.17" y1="32.36" x2="67.61" y2="42.76"/>
		<polyline class="st1" points="41.71,35.36 46.21,27.87 58.53,32.26 57.02,38.97 		"/>
		<path class="st2" d="M23.17,35.73c0,0-7.86,2-7.72,5.15s2.14,8.58,3.86,6.58c1.72-2,2.86-6.86,3.86-6.58s2.86,0.43,4.15,0.93
			C28.6,42.3,25.8,34.87,23.17,35.73z"/>
		<path class="st2" d="M24.77,33.42l4.01-1.07l3,9.41h-3.51c0,0-1.35-5.47-2.07-6.11C25.5,35.01,24.77,33.42,24.77,33.42z"/>
		<path class="st2" d="M32.86,37.06c0,0-1.5,0.53-0.57,2.26s0.57,2.36,0.57,2.36s6.15,0.15,6.52,0s0.6-0.64,0-1.72
			c-0.6-1.09-2.29-2.33-2.78-2.25C36.12,37.79,32.86,37.06,32.86,37.06z"/>
		<g>
			<path class="st2" d="M16.78,4.64c-0.3,1.7-0.36,3.35-0.2,4.91c0.11,0.78,0.25,1.54,0.5,2.26c0.25,0.75,0.56,1.31,0.95,2.26
				c0.65,1.77,0.73,3.64,0.48,5.38c-0.25,1.75-0.81,3.44-1.73,4.92c0.12-1.73,0.22-3.39,0.17-5.01c-0.04-1.62-0.28-3.18-0.79-4.59
				c-0.24-0.62-0.7-1.57-0.9-2.45c-0.19-0.91-0.3-1.83-0.24-2.74C15.15,7.78,15.71,6.03,16.78,4.64z"/>
		</g>
		<g>
			<path class="st2" d="M22.75,12.25c-0.26,1.27-0.38,2.45-0.34,3.58c0.03,0.56,0.1,1.1,0.21,1.63c0.13,0.55,0.29,0.93,0.51,1.7
				c0.34,1.39,0.22,2.8-0.15,4.06c-0.38,1.26-0.98,2.44-1.88,3.4c0.13-1.29,0.29-2.49,0.33-3.66c0.06-1.17,0-2.29-0.24-3.3
				c-0.11-0.42-0.38-1.21-0.44-1.88c-0.07-0.7-0.04-1.4,0.1-2.07C21.14,14.36,21.76,13.12,22.75,12.25z"/>
		</g>
		<g>
			<path class="st2" d="M26.16,19.18c-0.08,1.07-0.12,2.03-0.09,2.94c0.02,0.46,0.06,0.9,0.12,1.33c0.07,0.45,0.16,0.76,0.27,1.41
				c0.15,1.14-0.01,2.25-0.36,3.26c-0.35,1-0.86,1.95-1.63,2.71c-0.01-1.08,0.06-2.05,0.08-3.01c0.04-0.95,0.02-1.86-0.08-2.69
				c-0.05-0.34-0.18-1-0.18-1.55c0-0.57,0.07-1.12,0.21-1.66C24.82,20.88,25.33,19.89,26.16,19.18z"/>
		</g>
	</g>
</switch>
</svg>
