<?xml version="1.0" encoding="utf-8"?>
<!-- Generator: Adobe Illustrator 23.0.3, SVG Export Plug-In . SVG Version: 6.00 Build 0)  -->
<svg version="1.1" id="Calque_1" xmlns="http://www.w3.org/2000/svg" xmlns:xlink="http://www.w3.org/1999/xlink" x="0px" y="0px"
	 viewBox="0 0 85.04 85.04" style="enable-background:new 0 0 85.04 85.04;" xml:space="preserve">
<style type="text/css">
	.st0{fill:#003A5D;}
</style>
<path class="st0" d="M63.01,49.34c-1.31,1.31-5.69,5.15-9.26,7.48c0.35,0.44,0.84,0.99,1.39,1.61L47,63.83l-0.12-28.01l2.98,0.23
	l8.66,0.13l-0.2,7.15l8.33,0.45l-0.02-10.05l0.09-11.34l-0.13-2.42l-7.62-0.16l-0.21,7.5l-12.16-0.07l0.28-3.67L47,15.16l3.38,0.26
	l6.25,0.13l0.46-8.93L39.02,6.56l-0.91-0.05l-0.26,0.04L31.12,6.5l-2.35,0.08l-0.16,7.62l9.52,0.32l-0.08,12.67l-7.46-0.06
	l-4.82,0.15l0.19-6.97l-8.33-0.45l0.02,10.05l-0.09,11.35l0.13,2.4l7.62,0.16l0.25-8.86L27,34.93l10.48,0.22l0.24,28.39l-7.04-5.09
	c0.56-0.63,1.04-1.19,1.4-1.63c-3.57-2.33-7.95-6.17-9.26-7.48l-8.06,8.88l6.24,10.51c0.55-0.58,1.64-1.7,2.93-3.06l18.19,14.09
	l19.95-13.9c1.22,1.27,2.23,2.32,2.75,2.87l6.24-10.51L63.01,49.34z"/>
</svg>
