<?xml version="1.0" encoding="utf-8"?>
<!-- Generator: Adobe Illustrator 24.3.0, SVG Export Plug-In . SVG Version: 6.00 Build 0)  -->
<!DOCTYPE svg PUBLIC "-//W3C//DTD SVG 1.1//EN" "http://www.w3.org/Graphics/SVG/1.1/DTD/svg11.dtd" [
	<!ENTITY ns_extend "http://ns.adobe.com/Extensibility/1.0/">
	<!ENTITY ns_ai "http://ns.adobe.com/AdobeIllustrator/10.0/">
	<!ENTITY ns_graphs "http://ns.adobe.com/Graphs/1.0/">
	<!ENTITY ns_vars "http://ns.adobe.com/Variables/1.0/">
	<!ENTITY ns_imrep "http://ns.adobe.com/ImageReplacement/1.0/">
	<!ENTITY ns_sfw "http://ns.adobe.com/SaveForWeb/1.0/">
	<!ENTITY ns_custom "http://ns.adobe.com/GenericCustomNamespace/1.0/">
	<!ENTITY ns_adobe_xpath "http://ns.adobe.com/XPath/1.0/">
]>
<svg version="1.1" id="Calque_1" xmlns:x="&ns_extend;" xmlns:i="&ns_ai;" xmlns:graph="&ns_graphs;"
	 xmlns="http://www.w3.org/2000/svg" xmlns:xlink="http://www.w3.org/1999/xlink" x="0px" y="0px" viewBox="0 0 85.04 85.04"
	 style="enable-background:new 0 0 85.04 85.04;" xml:space="preserve">
<style type="text/css">
	.st0{fill:none;stroke:#0C3C5C;stroke-width:7;stroke-miterlimit:10;}
	.st1{fill:none;stroke:#0C3C5C;stroke-width:5;stroke-miterlimit:10;}
	.st2{fill:#0C3C5C;}
	.st3{fill:none;stroke:#0C3C5C;stroke-width:3;stroke-miterlimit:10;}
	.st4{fill:none;stroke:#0C3C5C;stroke-width:6;stroke-miterlimit:10;}
	.st5{fill:none;stroke:#0C3C5C;stroke-width:4;stroke-miterlimit:10;}
	.st6{fill:#263D5B;}
	.st7{fill:none;stroke:#0C3C5C;stroke-width:9;stroke-miterlimit:10;}
	.st8{fill:none;stroke:#0C3C5C;stroke-width:2;stroke-miterlimit:10;}
	.st9{fill:#0C3C5C;stroke:#0C3C5C;stroke-width:2;stroke-miterlimit:10;}
	.st10{fill:none;stroke:#0C3C5C;stroke-miterlimit:10;}
	.st11{fill:none;stroke:#0C3C5C;stroke-width:1.5;stroke-miterlimit:10;}
	.st12{fill:none;stroke:#0C3C5C;stroke-width:0.75;stroke-miterlimit:10;}
	.st13{fill:none;stroke:#0C3C5C;stroke-width:3;stroke-miterlimit:10;stroke-dasharray:2,3;}
	.st14{fill:none;stroke:#0C3C5C;stroke-width:0.5;stroke-miterlimit:10;}
	.st15{fill:none;stroke:#0C3C5C;stroke-width:0.25;stroke-miterlimit:10;}
	.st16{fill:none;stroke:#0C3C5C;stroke-width:8;stroke-miterlimit:10;}
	.st17{fill:#FFFFFF;stroke:#0C3C5C;stroke-width:0;stroke-miterlimit:10;}
	.st18{fill:none;stroke:#0C3C5C;stroke-width:2.5;stroke-miterlimit:10;}
	.st19{fill:#253C59;}
</style>
<switch>
	<foreignObject requiredExtensions="&ns_ai;" x="0" y="0" width="1" height="1">
		<i:aipgfRef  xlink:href="#adobe_illustrator_pgf">
		</i:aipgfRef>
	</foreignObject>
	<g i:extraneous="self">
		<g>
			<path class="st3" d="M56.93,47.32c0,0-2.98-4.85,0-8.39c0.23,0.13-3.13-14.78,11.47-10.65c0.23,0.23,3.21,2.06,3.44,7.57
				c0.23,0,4.36-0.72,4.13,3.08s5.27,5.87,3.21,11.37s-5.5,8.03-6.42,8.03s-12.38,0-12.38,0"/>
			<path class="st10" d="M38.13,22.28c0,0,2.92-6.14,5.39,0c0.29,0.15,2.92-1.05,3.21,2.69c-0.15,0.9-0.15,0.9-0.15,0.9h-4.92"/>
			<path class="st3" d="M31.09,56.97H14.8c0,0-9.01-3.12-4.68-11.52c1.47-1.99,1.47-1.99,1.47-1.99s-3.65-3.2-2.65-6.15
				s3.08-4.59,3.08-4.59s-2.51-4.5,0.26-8.66s5.46-5.8,10.22-4.68c4.76,1.13,6.15,5.67,6.15,5.67s1.56,3.83,1.3,4.84
				C29.7,30.9,29.7,30.9,29.7,30.9s5.42-0.95,5.44,4.85c-0.07,2.6-0.07,2.6-0.07,2.6S44.34,50.13,31.09,56.97z"/>
			<line class="st8" x1="21.65" y1="25.44" x2="22.08" y2="63.81"/>
			<polyline class="st3" points="13.42,64.5 44.86,63.29 72.49,63.9 			"/>
			<line class="st8" x1="65.04" y1="32.72" x2="65.04" y2="63.29"/>
			<line class="st8" x1="16.71" y1="38" x2="22.3" y2="43.76"/>
			<line class="st8" x1="25.2" y1="32.72" x2="21.79" y2="38"/>
			<line class="st8" x1="28.06" y1="45.28" x2="21.93" y2="50.91"/>
			<polyline class="st8" points="68.41,38 65.06,43.76 61.66,42.46 			"/>
			<line class="st8" x1="71.01" y1="48.09" x2="65.04" y2="52.73"/>
			<line class="st10" x1="44.66" y1="14.13" x2="45.36" y2="16.99"/>
			<line class="st10" x1="51.13" y1="15.38" x2="49.2" y2="18.08"/>
			<line class="st10" x1="53.54" y1="21.03" x2="50.16" y2="21.72"/>
			<line class="st10" x1="51.85" y1="26.19" x2="49.78" y2="24.29"/>
			<path class="st8" d="M39.14,41.91c0,0,5.56-1.21,7.02,1.53c1.45,2.74,1.45,2.74,1.45,2.74s3.79-1.77,4.68,0
				c0.89,1.77,0.89,1.77,0.89,1.77"/>
			<polyline class="st3" points="23.49,68.42 45.76,67.05 67.23,67.73 			"/>
			<line class="st10" x1="42.43" y1="17.62" x2="39.99" y2="15.56"/>
			<g>
				<path class="st2" d="M71.01,19.04c0.39-0.04,0.78,0.01,1.17,0.11c0.39,0.11,0.77,0.29,1.09,0.59c0.32,0.28,0.54,0.71,0.69,1.04
					c0.17,0.34,0.33,0.69,0.49,1.04l-0.08-0.12l0.28,0.26L74.2,21.9l0.34-0.2l-0.16,0.19c0.2-0.44,0.43-0.8,0.72-1.15
					c0.29-0.34,0.63-0.65,1.02-0.88c0.77-0.5,1.74-0.59,2.55-0.36c-0.42,0.06-0.83,0.08-1.21,0.25c-0.37,0.14-0.72,0.33-1.01,0.58
					c-0.3,0.25-0.57,0.53-0.8,0.85c-0.22,0.31-0.44,0.66-0.58,0.99l-0.05,0.12l-0.11,0.06l-0.34,0.19l-0.24,0.14l-0.2-0.19
					l-0.28-0.27l-0.06-0.05l-0.03-0.07c-0.15-0.35-0.29-0.71-0.43-1.06c-0.15-0.38-0.24-0.67-0.46-0.93
					C72.45,19.58,71.75,19.23,71.01,19.04z"/>
			</g>
			<g>
				<path class="st2" d="M2.67,20.48c0.35-0.18,0.74-0.26,1.14-0.31c0.4-0.04,0.83,0.01,1.22,0.17c0.4,0.15,0.75,0.48,1,0.73
					c0.28,0.26,0.55,0.53,0.82,0.8l-0.12-0.08l0.36,0.14l-0.43,0.11l0.25-0.3l-0.08,0.23c0.03-0.48,0.12-0.9,0.27-1.33
					c0.15-0.42,0.36-0.83,0.64-1.18c0.54-0.73,1.42-1.16,2.26-1.23c-0.38,0.2-0.75,0.37-1.04,0.66c-0.3,0.26-0.55,0.56-0.75,0.9
					c-0.19,0.34-0.35,0.69-0.45,1.07c-0.1,0.37-0.18,0.78-0.19,1.13l0,0.13l-0.08,0.1l-0.25,0.3l-0.18,0.22l-0.25-0.11l-0.35-0.15
					l-0.07-0.03l-0.05-0.05c-0.26-0.28-0.52-0.56-0.78-0.85C5.28,21.24,5.09,21,4.8,20.83C4.21,20.48,3.43,20.4,2.67,20.48z"/>
			</g>
			<g>
				<path class="st2" d="M4.47,26.64c0.17-0.13,0.38-0.19,0.6-0.24c0.22-0.04,0.46-0.03,0.7,0.05c0.24,0.08,0.46,0.27,0.59,0.39
					c0.15,0.13,0.3,0.27,0.44,0.41l-0.12-0.08l0.19,0.07l-0.43,0.11c0.04-0.05,0.08-0.11,0.13-0.16l-0.08,0.23
					c0.02-0.28,0.07-0.51,0.16-0.75c0.09-0.23,0.21-0.46,0.38-0.65c0.32-0.4,0.84-0.6,1.3-0.57c-0.19,0.14-0.37,0.25-0.5,0.42
					c-0.14,0.15-0.24,0.31-0.33,0.48c-0.08,0.17-0.15,0.35-0.19,0.53c-0.04,0.18-0.08,0.39-0.08,0.55l0,0.12l-0.08,0.11
					C7.09,27.72,7.04,27.77,7,27.82l-0.19,0.22l-0.24-0.11l-0.18-0.08l-0.07-0.03l-0.05-0.05c-0.14-0.15-0.27-0.3-0.4-0.45
					c-0.15-0.17-0.21-0.27-0.34-0.37C5.27,26.75,4.88,26.66,4.47,26.64z"/>
			</g>
			<g>
				<path class="st2" d="M75.81,33.43c0.34-0.05,0.69,0,1.04,0.08c0.34,0.09,0.69,0.25,0.97,0.51c0.29,0.25,0.49,0.64,0.62,0.92
					c0.15,0.3,0.3,0.6,0.43,0.91l-0.08-0.12l0.25,0.23l-0.44-0.05l0.3-0.17l-0.16,0.19c0.18-0.39,0.38-0.71,0.64-1.02
					c0.26-0.3,0.56-0.57,0.91-0.78c0.68-0.44,1.55-0.51,2.26-0.29c-0.37,0.06-0.73,0.09-1.05,0.24c-0.32,0.13-0.62,0.3-0.88,0.52
					c-0.25,0.22-0.49,0.46-0.68,0.74c-0.19,0.27-0.38,0.58-0.5,0.86l-0.05,0.12l-0.11,0.06l-0.3,0.17l-0.24,0.14l-0.2-0.19
					l-0.24-0.24l-0.06-0.05l-0.03-0.07c-0.13-0.31-0.26-0.62-0.37-0.94c-0.13-0.34-0.21-0.58-0.39-0.81
					C77.07,33.94,76.46,33.62,75.81,33.43z"/>
			</g>
			<g>
				<path class="st2" d="M65.81,21.99c0.3-0.05,0.62-0.01,0.93,0.05c0.31,0.07,0.62,0.22,0.88,0.45c0.26,0.22,0.44,0.57,0.56,0.82
					c0.14,0.27,0.27,0.53,0.39,0.81L68.47,24l0.22,0.2l-0.44-0.05L68.52,24l-0.16,0.19c0.16-0.35,0.34-0.64,0.58-0.92
					c0.23-0.27,0.5-0.51,0.82-0.69c0.62-0.39,1.39-0.44,2.02-0.23c-0.33,0.06-0.65,0.09-0.93,0.24c-0.28,0.12-0.54,0.27-0.76,0.47
					c-0.22,0.2-0.43,0.41-0.6,0.65c-0.17,0.24-0.34,0.51-0.43,0.76L69,24.58l-0.11,0.06l-0.26,0.15l-0.25,0.14l-0.2-0.19l-0.22-0.21
					l-0.06-0.06l-0.03-0.06c-0.12-0.27-0.23-0.55-0.33-0.83c-0.12-0.3-0.18-0.51-0.34-0.71C66.92,22.47,66.39,22.18,65.81,21.99z"/>
			</g>
			<g>
				<path class="st2" d="M71.77,26.27c0.23-0.06,0.46-0.04,0.7,0c0.24,0.04,0.48,0.15,0.68,0.32c0.21,0.17,0.36,0.44,0.44,0.62
					c0.11,0.19,0.2,0.39,0.29,0.59l-0.08-0.12l0.17,0.15l-0.44-0.05c0.06-0.04,0.13-0.08,0.19-0.11l-0.16,0.19
					c0.13-0.28,0.26-0.49,0.44-0.7c0.18-0.2,0.39-0.39,0.63-0.52c0.48-0.29,1.08-0.3,1.53-0.11c-0.25,0.07-0.48,0.1-0.67,0.22
					c-0.2,0.1-0.38,0.22-0.53,0.36c-0.15,0.15-0.29,0.3-0.41,0.48c-0.11,0.17-0.24,0.37-0.3,0.54l-0.04,0.11l-0.12,0.08
					c-0.06,0.04-0.13,0.08-0.19,0.11l-0.25,0.14l-0.19-0.19l-0.16-0.16l-0.06-0.06l-0.03-0.06c-0.09-0.2-0.17-0.41-0.24-0.62
					c-0.09-0.23-0.11-0.36-0.22-0.51C72.56,26.67,72.19,26.43,71.77,26.27z"/>
			</g>
			<path class="st10" d="M42.91,21.03c0,0,0.85-2.09,2.45-2.36c1.86-0.32,3.82,2.88,2.96,4.06s-2.03,0.52-2.03,0.52"/>
		</g>
	</g>
</switch>
</svg>
