<?xml version="1.0" encoding="UTF-8" standalone="no"?>
<svg
   xmlns:dc="http://purl.org/dc/elements/1.1/"
   xmlns:cc="http://creativecommons.org/ns#"
   xmlns:rdf="http://www.w3.org/1999/02/22-rdf-syntax-ns#"
   xmlns:svg="http://www.w3.org/2000/svg"
   xmlns="http://www.w3.org/2000/svg"
   xmlns:sodipodi="http://sodipodi.sourceforge.net/DTD/sodipodi-0.dtd"
   xmlns:inkscape="http://www.inkscape.org/namespaces/inkscape"
   viewBox="0 0 85.040003 85.039998"
   version="1.1"
   id="svg26"
   sodipodi:docname="signesFormation-Formation.svg"
   width="85.040001"
   height="85.040001"
   inkscape:version="1.0.2-2 (e86c870879, 2021-01-15)">
  <metadata
     id="metadata30">
    <rdf:RDF>
      <cc:Work
         rdf:about="">
        <dc:format>image/svg+xml</dc:format>
        <dc:type
           rdf:resource="http://purl.org/dc/dcmitype/StillImage" />
        <dc:title></dc:title>
      </cc:Work>
    </rdf:RDF>
  </metadata>
  <sodipodi:namedview
     pagecolor="#ffffff"
     bordercolor="#666666"
     borderopacity="1"
     objecttolerance="10"
     gridtolerance="10"
     guidetolerance="10"
     inkscape:pageopacity="0"
     inkscape:pageshadow="2"
     inkscape:window-width="1224"
     inkscape:window-height="785"
     id="namedview28"
     showgrid="false"
     inkscape:zoom="1.1102929"
     inkscape:cx="220.93165"
     inkscape:cy="210.97618"
     inkscape:window-x="955"
     inkscape:window-y="249"
     inkscape:window-maximized="0"
     inkscape:current-layer="svg26"
     inkscape:document-rotation="0" />
  <defs
     id="defs21">
    <style
       id="style19">.cls-1{fill:#003a5d;}</style>
  </defs>
  <g
     id="Calque_1"
     data-name="Calque 1"
     transform="matrix(0.70120176,0,0,0.70120176,-71.215143,-64.391261)">
    <path
       class="cls-1"
       d="m 207.33,152.85 -29.79,2.58 c 1.07,-1.31 1.93,-2.43 2.45,-3.14 l 4.45,-6 -7.05,-2.43 c -3.24,-1.12 -7.56,-6.45 -11.59,-12.79 l 44.2,-21.75 -4.15,-12 -46,23.39 c -1.1,-2.14 -2.1,-4.22 -2.94,-6.1 l -2.32,-5.23 -29.73,14.9 6.1,11.12 -8.32,4.23 6.55,9.52 7.32,-3.61 0.9,1.64 1.54,11.66 -25.2,2.16 -8.46,16 3.94,18.41 12.53,7.41 91.73,-11.92 5.09,-12.38 0.44,-10.67 z m -58,-28.67 c 0.23,0.46 0.47,0.95 0.73,1.45 l -9.38,4.77 -0.81,-1.48 z m -1.33,19.49 -1.65,-3 9.57,-4.7 c 3.33,5.34 7.33,10.74 11.6,14.39 -2.66,3 -5.25,5.46 -6.39,5.89 a 25.56,25.56 0 0 1 -4.07,1 l -7.19,0.63 z m -23.8,47.33 -4.82,-2.85 -2,-9.43 1.84,-3.48 4.12,3.31 1.45,12.38 z m 83,-14.92 -1.79,4.37 -69.28,9 -2,-16.9 -2.07,-1.66 70,-6.08 5.29,6.81 z"
       id="path23" />
  </g>
</svg>
