<?xml version="1.0" encoding="UTF-8" standalone="no"?>
<svg
   xmlns:i="&amp;ns_ai;"
   xmlns:dc="http://purl.org/dc/elements/1.1/"
   xmlns:cc="http://creativecommons.org/ns#"
   xmlns:rdf="http://www.w3.org/1999/02/22-rdf-syntax-ns#"
   xmlns:svg="http://www.w3.org/2000/svg"
   xmlns="http://www.w3.org/2000/svg"
   xmlns:sodipodi="http://sodipodi.sourceforge.net/DTD/sodipodi-0.dtd"
   xmlns:inkscape="http://www.inkscape.org/namespaces/inkscape"
   version="1.1"
   id="Calque_1"
   x="0px"
   y="0px"
   viewBox="0 0 85.04 85.04"
   style="enable-background:new 0 0 85.04 85.04;"
   xml:space="preserve"
   sodipodi:docname="SIGNES_JAMBVILLE_carotte.svg"
   inkscape:version="1.0.2-2 (e86c870879, 2021-01-15)"><metadata
   id="metadata460"><rdf:RDF><cc:Work
       rdf:about=""><dc:format>image/svg+xml</dc:format><dc:type
         rdf:resource="http://purl.org/dc/dcmitype/StillImage" /><dc:title></dc:title></cc:Work></rdf:RDF></metadata><defs
   id="defs458" /><sodipodi:namedview
   pagecolor="#ffffff"
   bordercolor="#666666"
   borderopacity="1"
   objecttolerance="10"
   gridtolerance="10"
   guidetolerance="10"
   inkscape:pageopacity="0"
   inkscape:pageshadow="2"
   inkscape:window-width="742"
   inkscape:window-height="480"
   id="namedview456"
   showgrid="false"
   inkscape:zoom="11.853245"
   inkscape:cx="42.52"
   inkscape:cy="42.52"
   inkscape:window-x="0"
   inkscape:window-y="0"
   inkscape:window-maximized="0"
   inkscape:current-layer="Calque_1" />
<style
   type="text/css"
   id="style443">
	.st0{fill:#D63313;}
	.st1{fill:#6F74AA;}
	.st2{fill:#003A5D;}
	.st3{fill:#F18800;}
	.st4{fill:#D63414;}
	.st5{fill:#D63817;}
	.st6{fill:#F18A01;}
	.st7{fill:#F28A02;}
	.st8{fill:#F28A03;}
	.st9{fill:#F28A05;}
	.st10{fill:#65BC98;}
	.st11{fill:#6E74AA;}
	.st12{fill:#F18700;}
</style>
<switch
   id="switch453">
	<foreignObject
   requiredExtensions="http://ns.adobe.com/AdobeIllustrator/10.0/"
   x="0"
   y="0"
   width="1"
   height="1">
		
	</foreignObject>
	<g
   i:extraneous="self"
   id="g451">
		<g
   id="g449">
			<path
   class="st12"
   d="M25.69,21.29L14.66,82.44c10.13-8.88,30.67-25.68,45.4-39.82l-0.55-4.21L29.29,20.06L25.69,21.29z"
   id="path445" />
			<path
   class="st12"
   d="M56.59,7.19c6.02-2.51,14.03-0.05,14.03-0.05l0.4,8.94l-8.48,2.19c0,0-3.83-1.12-6.16,0.53     s-4.26,4.3-5.65,5.37c-1.39,1.07-3.49,4-5.34,3.28C43.54,26.75,50.57,9.7,56.59,7.19z"
   id="path447" />
		</g>
	</g>
</switch>

</svg>
