<?xml version="1.0" encoding="utf-8"?>
<!-- Generator: Adobe Illustrator 23.0.3, SVG Export Plug-In . SVG Version: 6.00 Build 0)  -->
<svg version="1.1" id="Calque_1" xmlns="http://www.w3.org/2000/svg" xmlns:xlink="http://www.w3.org/1999/xlink" x="0px" y="0px"
	 viewBox="0 0 85.04 85.04" style="enable-background:new 0 0 85.04 85.04;" xml:space="preserve">
<style type="text/css">
	.st0{fill:#003A5D;}
</style>
<path class="st0" d="M78.28,68.1L48.65,18.16L42.11,7.87l-8.53,12.69L0.98,77.17h83.07L78.28,68.1z M24.82,64.01l6.51-10.61
	l5.38-9.59l5.97-8.75l9.04,13.33c0.6,0.92,3.05,8.47,7.8,15.33l-16.1,0.98L24.82,64.01z"/>
</svg>
