<svg xmlns="http://www.w3.org/2000/svg" id="Calque_1" viewBox="0 0 85.04 85.04">
  <style type="text/css">
    .st0{fill:#213B58;}
</style>
  <defs></defs>
  <path class="st0"
    d="M76.9,19.08l-26.28.62c.18-.19.34-.36.49-.5,2.76-.26,7.34-.51,7.39-.52l.36-11.21c-.24.01-6.96.91-9.81,1.24-2.16.25-4.19,1.49-6.49,4.04-.5-.51-1-.94-1.48-1.31-6.46-4.94-14.79-1.29-15.76-1.06l1.95,8.54h-.03c1.18-.25,4.88-.61,7.07.77l-25.87-.46-.29,11.46,1.51.57.23,25.45.46,20.59,10.88.23h15.98l10.7-.46,15.98.46,11.34-.69-.36-24.93.59-20.66.97.33.48-12.52ZM20.99,65.52l.69-34.48,15.52.23-.39,35.15-15.82-.9ZM63.88,65.99h-15.98l-1.01-35.72,17.65,1.01-.66,34.71Z"></path>
</svg>