<?xml version="1.0" encoding="utf-8"?>
<!-- Generator: Adobe Illustrator 24.3.0, SVG Export Plug-In . SVG Version: 6.00 Build 0)  -->
<!DOCTYPE svg PUBLIC "-//W3C//DTD SVG 1.1//EN" "http://www.w3.org/Graphics/SVG/1.1/DTD/svg11.dtd" [
	<!ENTITY ns_extend "http://ns.adobe.com/Extensibility/1.0/">
	<!ENTITY ns_ai "http://ns.adobe.com/AdobeIllustrator/10.0/">
	<!ENTITY ns_graphs "http://ns.adobe.com/Graphs/1.0/">
	<!ENTITY ns_vars "http://ns.adobe.com/Variables/1.0/">
	<!ENTITY ns_imrep "http://ns.adobe.com/ImageReplacement/1.0/">
	<!ENTITY ns_sfw "http://ns.adobe.com/SaveForWeb/1.0/">
	<!ENTITY ns_custom "http://ns.adobe.com/GenericCustomNamespace/1.0/">
	<!ENTITY ns_adobe_xpath "http://ns.adobe.com/XPath/1.0/">
]>
<svg version="1.1" id="Calque_1" xmlns:x="&ns_extend;" xmlns:i="&ns_ai;" xmlns:graph="&ns_graphs;"
	 xmlns="http://www.w3.org/2000/svg" xmlns:xlink="http://www.w3.org/1999/xlink" x="0px" y="0px" viewBox="0 0 85.04 85.04"
	 style="enable-background:new 0 0 85.04 85.04;" xml:space="preserve">
<style type="text/css">
	.st0{fill:none;stroke:#0C3C5C;stroke-width:7;stroke-miterlimit:10;}
	.st1{fill:none;stroke:#0C3C5C;stroke-width:5;stroke-miterlimit:10;}
	.st2{fill:#0C3C5C;}
	.st3{fill:none;stroke:#0C3C5C;stroke-width:3;stroke-miterlimit:10;}
	.st4{fill:none;stroke:#0C3C5C;stroke-width:6;stroke-miterlimit:10;}
	.st5{fill:none;stroke:#0C3C5C;stroke-width:4;stroke-miterlimit:10;}
	.st6{fill:#263D5B;}
	.st7{fill:none;stroke:#0C3C5C;stroke-width:9;stroke-miterlimit:10;}
	.st8{fill:none;stroke:#0C3C5C;stroke-width:2;stroke-miterlimit:10;}
	.st9{fill:#0C3C5C;stroke:#0C3C5C;stroke-width:2;stroke-miterlimit:10;}
	.st10{fill:none;stroke:#0C3C5C;stroke-miterlimit:10;}
	.st11{fill:none;stroke:#0C3C5C;stroke-width:1.5;stroke-miterlimit:10;}
	.st12{fill:none;stroke:#0C3C5C;stroke-width:0.75;stroke-miterlimit:10;}
	.st13{fill:none;stroke:#0C3C5C;stroke-width:3;stroke-miterlimit:10;stroke-dasharray:2,3;}
	.st14{fill:none;stroke:#0C3C5C;stroke-width:0.5;stroke-miterlimit:10;}
	.st15{fill:none;stroke:#0C3C5C;stroke-width:0.25;stroke-miterlimit:10;}
	.st16{fill:none;stroke:#0C3C5C;stroke-width:8;stroke-miterlimit:10;}
	.st17{fill:#FFFFFF;stroke:#0C3C5C;stroke-width:0;stroke-miterlimit:10;}
	.st18{fill:none;stroke:#0C3C5C;stroke-width:2.5;stroke-miterlimit:10;}
	.st19{fill:#253C59;}
</style>
<switch>
	<foreignObject requiredExtensions="&ns_ai;" x="0" y="0" width="1" height="1">
		<i:aipgfRef  xlink:href="#adobe_illustrator_pgf">
		</i:aipgfRef>
	</foreignObject>
	<g i:extraneous="self">
		<g>
			<path class="st1" d="M32.35,14.42c0,0-1.18,6.44-6.81,13.24s-7.57,21.08,6.81,22.81c15.71,1.89,15.94-14.03,8.44-23.56
				C39.6,25.62,35.31,20.86,32.35,14.42z"/>
			<path class="st3" d="M27.69,34.56c0,0-2.89,10.17,5.77,10.58"/>
			<path class="st1" d="M12.83,58.65c0,0,5.19,6.1,16.17,0c2.44,0.61,8.66,7.02,19.58,0c5.74,1.67,8.79,7.02,19.77,0"/>
			<path class="st1" d="M12.83,67.51c0,0,5.19,6.1,16.17,0c2.44,0.61,8.66,7.02,19.58,0c5.74,1.67,8.79,7.02,19.77,0"/>
			<path class="st1" d="M12.83,75.66c0,0,5.19,6.1,16.17,0c2.44,0.61,8.66,7.02,19.58,0c5.74,1.67,8.79,7.02,19.77,0"/>
			<path class="st1" d="M40.3,18.38c0,0,4.68-6.41,5.01-8.97c0.33-2.56,0.33-2.56,0.33-2.56l0.43-0.67l0.2-0.29l0.23,0.26
				c0,0,0.43,0.2,0.51,0.6s1.8,8.91,5.32,11.08s11.54,15.84-2.45,21.12"/>
		</g>
	</g>
</switch>
</svg>
