<?xml version="1.0" encoding="UTF-8" standalone="no"?>
<svg
   xmlns:i="&amp;ns_ai;"
   xmlns:dc="http://purl.org/dc/elements/1.1/"
   xmlns:cc="http://creativecommons.org/ns#"
   xmlns:rdf="http://www.w3.org/1999/02/22-rdf-syntax-ns#"
   xmlns:svg="http://www.w3.org/2000/svg"
   xmlns="http://www.w3.org/2000/svg"
   xmlns:sodipodi="http://sodipodi.sourceforge.net/DTD/sodipodi-0.dtd"
   xmlns:inkscape="http://www.inkscape.org/namespaces/inkscape"
   version="1.1"
   id="Calque_1"
   x="0px"
   y="0px"
   viewBox="0 0 85.04 85.04"
   style="enable-background:new 0 0 85.04 85.04;"
   xml:space="preserve"
   sodipodi:docname="SIGNES_JAMBVILLE_toilette.svg"
   inkscape:version="1.0.2-2 (e86c870879, 2021-01-15)"><metadata
   id="metadata1166"><rdf:RDF><cc:Work
       rdf:about=""><dc:format>image/svg+xml</dc:format><dc:type
         rdf:resource="http://purl.org/dc/dcmitype/StillImage" /><dc:title></dc:title></cc:Work></rdf:RDF></metadata><defs
   id="defs1164" /><sodipodi:namedview
   pagecolor="#ffffff"
   bordercolor="#666666"
   borderopacity="1"
   objecttolerance="10"
   gridtolerance="10"
   guidetolerance="10"
   inkscape:pageopacity="0"
   inkscape:pageshadow="2"
   inkscape:window-width="742"
   inkscape:window-height="480"
   id="namedview1162"
   showgrid="false"
   inkscape:zoom="11.853245"
   inkscape:cx="42.52"
   inkscape:cy="42.52"
   inkscape:window-x="174"
   inkscape:window-y="179"
   inkscape:window-maximized="0"
   inkscape:current-layer="Calque_1" />
<style
   type="text/css"
   id="style1137">
	.st0{fill:#D63313;}
	.st1{fill:#6F74AA;}
	.st2{fill:#003A5D;}
	.st3{fill:#F18800;}
	.st4{fill:#D63414;}
	.st5{fill:#D63817;}
	.st6{fill:#F18A01;}
	.st7{fill:#F28A02;}
	.st8{fill:#F28A03;}
	.st9{fill:#F28A05;}
	.st10{fill:#65BC98;}
	.st11{fill:#6E74AA;}
	.st12{fill:#F18700;}
</style>
<switch
   id="switch1159">
	<foreignObject
   requiredExtensions="http://ns.adobe.com/AdobeIllustrator/10.0/"
   x="0"
   y="0"
   width="1"
   height="1">
		
	</foreignObject>
	<g
   i:extraneous="self"
   id="g1157">
		<g
   id="g1155">
			<path
   class="st2"
   d="M38.92,72.55L25.35,36.74l-2.99-7.38l-3.91,9.1L3.52,79.05h38.05L38.92,72.55z"
   id="path1139" />
			<g
   id="g1145">
				<g
   id="g1143">
					<path
   class="st2"
   d="M13.6,17.56c0.07,0.45,0.16,0.9,0.26,1.35c0.31,1.39,1.04,3.36,2.08,4.33c0.75,0.71,2.51,2.22,3.91,2.66       c0.49,0.15,1.16,0.34,1.67,0.42c0.5,0.08,1.22,0.03,1.83-0.01c0.62-0.04,1.23-0.13,1.83-0.27c0.87-0.2,1.72-0.5,2.52-0.9       c0.72-0.35,1.38-0.8,1.85-1.45c0.63-0.87,1.22-1.77,1.53-2.8c0.84-2.79,0.25-5.41,0.15-5.86c-0.31-1.39-0.69-2.46-1.54-3.66       c-0.6-0.84-1.37-1.64-2.41-2.26c-0.6-0.36-1.26-0.88-1.9-1.13c-0.48-0.19-1.01-0.28-1.5-0.42c-0.6-0.18-1.31-0.05-1.93-0.01       c-0.62,0.04-1.23,0.13-1.83,0.27c-0.87,0.2-1.72,0.5-2.52,0.9c-0.72,0.35-1.38,0.8-1.85,1.45c-0.63,0.87-1.19,1.78-1.53,2.8       c-0.2,0.59-0.4,1.17-0.56,1.77C13.48,15.35,13.6,17.56,13.6,17.56z"
   id="path1141" />
				</g>
			</g>
			<path
   class="st2"
   d="M46.12,35.87l13.57,35.81l2.99,7.38l3.91-9.1l14.93-40.59H43.47L46.12,35.87z"
   id="path1147" />
			<g
   id="g1153">
				<g
   id="g1151">
					<path
   class="st2"
   d="M53.55,17.56c0.07,0.45,0.16,0.9,0.26,1.35c0.31,1.39,1.04,3.36,2.08,4.33c0.75,0.71,2.51,2.22,3.91,2.66       c0.49,0.15,1.16,0.34,1.67,0.42c0.5,0.08,1.22,0.03,1.83-0.01c0.62-0.04,1.23-0.13,1.83-0.27c0.87-0.2,1.72-0.5,2.52-0.9       c0.72-0.35,1.38-0.8,1.85-1.45c0.63-0.87,1.22-1.77,1.53-2.8c0.84-2.79,0.25-5.41,0.15-5.86c-0.31-1.39-0.69-2.46-1.54-3.66       c-0.6-0.84-1.37-1.64-2.41-2.26c-0.6-0.36-1.26-0.88-1.9-1.13c-0.48-0.19-1.01-0.28-1.5-0.42c-0.6-0.18-1.31-0.05-1.93-0.01       c-0.62,0.04-1.23,0.13-1.83,0.27c-0.87,0.2-1.72,0.5-2.52,0.9c-0.72,0.35-1.38,0.8-1.85,1.45c-0.63,0.87-1.19,1.78-1.53,2.8       c-0.2,0.59-0.4,1.17-0.56,1.77C53.44,15.35,53.55,17.56,53.55,17.56z"
   id="path1149" />
				</g>
			</g>
		</g>
	</g>
</switch>

</svg>
