<svg xmlns="http://www.w3.org/2000/svg" id="Calque_1" data-name="Calque 1" viewBox="0 0 85.04 85.04">
  <style type="text/css">
    .st0{fill:#003A5B;}
</style>
  <defs></defs>
  <title>SIGNES_AG_interrogation</title>
  <polygon class="st0"
    points="38.19 85.04 37 77.65 37.18 70.69 44.38 69.51 52.41 69.59 53.17 81.43 53.03 84.42 38.19 85.04"></polygon>
  <path class="st0"
    d="M52.78,64.32l-15.45-.63c0-9.42.52-15.15,1.92-19.25,1.32-3.84,3.41-6.26,6.59-9,1.88-1.61,4.12-2.89,7-7.5a59.5,59.5,0,0,0,3.5-5c1.35-2.59.12-5.91-.08-6.18-.77-1-1.94-1.74-4.58-2.46A36.59,36.59,0,0,0,41.78,13c-2.08.06-5.15-.41-7.92.71a10,10,0,0,0-4.19,3.57A5.09,5.09,0,0,0,29,18.63c-1,1.77-.95,4.34-.63,6.7a18.2,18.2,0,0,0,1.67,4.38l-13.2,6a24.86,24.86,0,0,1-1.74-4.22c-.57-2.26-1.76-6-1.74-9.37,0-3.65,1.34-7,3.39-10.7A19.82,19.82,0,0,1,25.56,3.2,26.54,26.54,0,0,1,32.43,1,55.24,55.24,0,0,1,49.16.37a37.35,37.35,0,0,1,9.46,2.39,22,22,0,0,1,9.61,7.07A16.51,16.51,0,0,1,71.06,16a16.49,16.49,0,0,1-1.53,12.55,83.12,83.12,0,0,1-5.79,9.24,37.68,37.68,0,0,1-7.66,8.36c-1.87,1.59-2.58,2.35-2.87,3.26C52.27,52.36,52.78,59.6,52.78,64.32Z"></path>
</svg>