<?xml version="1.0" encoding="utf-8"?>
<!-- Generator: Adobe Illustrator 25.4.1, SVG Export Plug-In . SVG Version: 6.00 Build 0)  -->
<!DOCTYPE svg PUBLIC "-//W3C//DTD SVG 1.1//EN" "http://www.w3.org/Graphics/SVG/1.1/DTD/svg11.dtd" [
	<!ENTITY ns_extend "http://ns.adobe.com/Extensibility/1.0/">
	<!ENTITY ns_ai "http://ns.adobe.com/AdobeIllustrator/10.0/">
	<!ENTITY ns_graphs "http://ns.adobe.com/Graphs/1.0/">
	<!ENTITY ns_vars "http://ns.adobe.com/Variables/1.0/">
	<!ENTITY ns_imrep "http://ns.adobe.com/ImageReplacement/1.0/">
	<!ENTITY ns_sfw "http://ns.adobe.com/SaveForWeb/1.0/">
	<!ENTITY ns_custom "http://ns.adobe.com/GenericCustomNamespace/1.0/">
	<!ENTITY ns_adobe_xpath "http://ns.adobe.com/XPath/1.0/">
]>
<svg version="1.1" id="Calque_1" xmlns:x="&ns_extend;" xmlns:i="&ns_ai;" xmlns:graph="&ns_graphs;"
	 xmlns="http://www.w3.org/2000/svg" xmlns:xlink="http://www.w3.org/1999/xlink" x="0px" y="0px" viewBox="0 0 85.04 85.04"
	 style="enable-background:new 0 0 85.04 85.04;" xml:space="preserve">
<style type="text/css">
	.st0{fill:#223A59;}
	.st1{fill:#223B5A;}
</style>
<switch>
	<foreignObject requiredExtensions="&ns_ai;" x="0" y="0" width="1" height="1">
		<i:aipgfRef  xlink:href="#adobe_illustrator_pgf">
		</i:aipgfRef>
	</foreignObject>
	<g i:extraneous="self">
		<g>
			<g>
				<path class="st0" d="M13.56,71.84c-0.06-0.82,0.12-1.53,0.2-2.26c0.1-0.89,0.23-1.78,0.58-2.61c0.19-0.45,0.41-0.89,0.66-1.31
					c0.29-0.51,0.62-0.99,0.94-1.48c0.27-0.4,0.57-0.78,0.86-1.16c0.2-0.26,0.41-0.53,0.63-0.77c0.2-0.22,0.42-0.42,0.65-0.61
					c0.43-0.36,0.87-0.71,1.31-1.05c0.24-0.18,0.48-0.35,0.74-0.49c0.47-0.27,0.94-0.53,1.42-0.78c0.6-0.3,1.24-0.4,1.9-0.36
					c0.63,0.03,1.24,0.15,1.82,0.4c0.31,0.14,0.58,0.34,0.88,0.49c0.63,0.32,0.82,0.93,1.05,1.52c0.15,0.36,0.11,0.75,0.13,1.13
					c0.02,0.39,0.05,0.79,0.01,1.18c-0.05,0.51-0.13,1.01-0.24,1.51c-0.15,0.64-0.38,1.25-0.68,1.84c-0.27,0.52-0.54,1.04-0.85,1.53
					c-0.36,0.58-0.75,1.15-1.16,1.7c-0.32,0.43-0.68,0.84-1.04,1.24c-0.36,0.4-0.73,0.79-1.12,1.16c-0.48,0.46-0.98,0.89-1.56,1.23
					c-0.53,0.31-1.05,0.62-1.6,0.9c-0.27,0.14-0.59,0.19-0.89,0.26c-0.24,0.06-0.49,0.11-0.74,0.11c-0.12,0-0.26-0.1-0.37-0.18
					c-0.63-0.42-1.25-0.85-1.88-1.28c-0.49-0.34-0.98-0.68-1.47-1.02c-0.05-0.04-0.1-0.11-0.11-0.17
					C13.61,72.25,13.58,72,13.56,71.84z M18.5,70.56c0.11-0.12,0.2-0.24,0.3-0.35c0.38-0.43,0.75-0.85,1.13-1.27
					c0.31-0.35,0.6-0.71,0.91-1.06c0.34-0.4,0.71-0.78,1.03-1.19c0.33-0.43,0.66-0.88,0.93-1.36c0.19-0.34,0.29-0.74,0.42-1.12
					c0.01-0.04,0-0.09-0.02-0.13c-0.11-0.24-0.31-0.36-0.57-0.3c-0.31,0.08-0.62,0.16-0.9,0.3c-0.54,0.27-0.92,0.73-1.27,1.2
					c-0.28,0.37-0.52,0.77-0.76,1.16c-0.34,0.54-0.67,1.08-1,1.62c-0.36,0.58-0.72,1.15-1.09,1.73c-0.05,0.08-0.04,0.11,0.04,0.16
					C17.92,70.13,18.2,70.34,18.5,70.56z"/>
				<path class="st0" d="M12.66,73.48c1.76,1.11,3.52,2.22,5.25,3.43c-0.26,0.38-0.5,0.74-0.76,1.09c-0.35,0.47-0.72,0.93-1.08,1.39
					c-0.22,0.27-0.44,0.54-0.66,0.81c-0.13,0.16-0.25,0.34-0.38,0.52c-1.67-1.15-3.34-2.3-5.02-3.46
					C10.9,76,11.78,74.75,12.66,73.48z"/>
			</g>
			<g>
				<path class="st0" d="M39.35,81.89c-0.55-0.05-1.11-0.09-1.66-0.16c-0.36-0.04-0.73-0.1-1.08-0.2c-0.32-0.09-0.63-0.24-0.93-0.38
					c-0.18-0.08-0.35-0.19-0.52-0.3c-0.04-0.03-0.09-0.08-0.1-0.13c-0.18-0.56-0.36-1.12-0.54-1.68c-0.23-0.71-0.46-1.43-0.7-2.14
					c-0.04-0.11-0.09-0.21-0.11-0.33c-0.01-0.08,0.01-0.18,0.05-0.25c0.2-0.32,0.39-0.65,0.62-0.94c0.24-0.29,0.52-0.54,0.79-0.81
					c0.39-0.39,0.79-0.78,1.19-1.16c0.38-0.36,0.8-0.67,1.24-0.93c0.48-0.29,0.98-0.53,1.5-0.74c0.41-0.16,0.84-0.3,1.27-0.43
					c0.48-0.16,0.97-0.31,1.46-0.45c0.46-0.12,0.93-0.24,1.4-0.32c0.3-0.05,0.61-0.03,0.91-0.05c0.38-0.01,0.77-0.04,1.15-0.03
					c0.41,0.01,0.82,0.04,1.23,0.08c0.37,0.04,0.74,0.09,1.1,0.14c0.79,0.11,1.49,0.42,2.1,0.93c0.44,0.36,0.81,0.78,1.12,1.26
					c0.23,0.35,0.36,0.73,0.5,1.12c0.09,0.25,0.2,0.5,0.16,0.76c-0.09,0.59-0.17,1.18-0.56,1.67c-0.18,0.22-0.35,0.45-0.49,0.7
					c-0.31,0.49-0.69,0.92-1.13,1.29c-0.37,0.31-0.77,0.6-1.17,0.87c-0.34,0.23-0.71,0.44-1.08,0.62c-0.43,0.21-0.88,0.39-1.33,0.57
					c-0.31,0.13-0.61,0.25-0.93,0.35c-0.53,0.16-1.06,0.32-1.59,0.46c-0.5,0.13-1.01,0.24-1.52,0.32c-0.59,0.09-1.18,0.15-1.77,0.21
					c-0.2,0.02-0.4,0-0.6,0C39.35,81.86,39.35,81.87,39.35,81.89z M38.75,77.84c0.43-0.08,0.84-0.16,1.25-0.24
					c0.63-0.13,1.26-0.26,1.9-0.39c0.87-0.17,1.75-0.29,2.59-0.58c0.36-0.13,0.73-0.24,1.07-0.42c0.29-0.15,0.54-0.37,0.81-0.56
					c0.03-0.02,0.05-0.06,0.06-0.09c0.06-0.24-0.03-0.47-0.25-0.58c-0.36-0.19-0.74-0.32-1.15-0.35c-0.6-0.03-1.19,0.09-1.76,0.27
					c-0.32,0.1-0.62,0.23-0.94,0.35c-0.52,0.19-1.05,0.38-1.58,0.57c-0.42,0.15-0.83,0.32-1.25,0.47c-0.34,0.13-0.67,0.25-1.01,0.37
					c-0.07,0.03-0.09,0.05-0.07,0.13C38.55,77.14,38.65,77.48,38.75,77.84z"/>
				<path class="st0" d="M32.34,76.6c0.08,0.22,0.17,0.44,0.25,0.66c0.22,0.6,0.43,1.2,0.64,1.8c0.26,0.75,0.52,1.5,0.78,2.25
					c0.12,0.36,0.23,0.72,0.35,1.07c0.03,0.1,0.01,0.15-0.08,0.18c-0.45,0.15-0.9,0.31-1.36,0.43c-0.83,0.22-1.66,0.41-2.49,0.61
					c-0.21,0.05-0.41,0.12-0.63,0.19c-0.05-0.16-0.11-0.33-0.16-0.5c-0.16-0.49-0.31-0.98-0.47-1.47c-0.16-0.5-0.32-1.01-0.49-1.51
					c-0.2-0.61-0.4-1.23-0.59-1.84c-0.04-0.14-0.09-0.28-0.12-0.42c-0.01-0.03,0.02-0.09,0.05-0.1c0.56-0.18,1.13-0.36,1.7-0.53
					c0.55-0.17,1.1-0.35,1.65-0.52C31.69,76.8,32.01,76.7,32.34,76.6z"/>
			</g>
			<g>
				<path class="st0" d="M44.21,62.24c-0.35-0.03-0.7-0.04-1.04-0.09c-0.41-0.05-0.79-0.23-1.18-0.35c-0.27-0.08-0.34-0.3-0.45-0.51
					c-0.22-0.43-0.43-0.86-0.64-1.28c-0.17-0.34-0.34-0.68-0.5-1.01c-0.2-0.41-0.39-0.82-0.61-1.21c-0.08-0.16-0.01-0.28,0.04-0.39
					c0.15-0.36,0.3-0.72,0.49-1.06c0.12-0.22,0.3-0.41,0.46-0.62c0.4-0.53,0.8-1.05,1.21-1.58c0.32-0.42,0.71-0.79,1.12-1.11
					c0.52-0.41,1.08-0.78,1.67-1.08c0.57-0.29,1.13-0.6,1.71-0.87c0.47-0.23,0.95-0.45,1.45-0.62c0.42-0.14,0.87-0.22,1.31-0.3
					c0.48-0.09,0.96-0.17,1.45-0.23c0.39-0.05,0.79-0.07,1.19-0.09c0.38-0.01,0.77,0,1.15,0.01c0.48,0.02,0.94,0.14,1.37,0.34
					c0.82,0.39,1.53,0.93,2.04,1.68c0.26,0.39,0.52,0.79,0.65,1.24c0.05,0.18,0.01,0.38,0.02,0.57c0.02,0.51-0.1,0.99-0.33,1.44
					c-0.23,0.45-0.45,0.9-0.7,1.33c-0.21,0.36-0.48,0.69-0.77,1c-0.42,0.46-0.86,0.88-1.35,1.25c-0.42,0.32-0.86,0.61-1.31,0.89
					c-0.4,0.24-0.81,0.46-1.22,0.67c-0.48,0.24-0.96,0.46-1.45,0.67c-0.47,0.2-0.95,0.38-1.43,0.54c-0.52,0.17-1.05,0.31-1.58,0.44
					c-0.37,0.09-0.74,0.17-1.12,0.22c-0.37,0.05-0.74,0.05-1.11,0.07c-0.17,0.01-0.35,0-0.52,0C44.21,62.22,44.21,62.23,44.21,62.24
					z M44.94,58.19c0.03,0,0.06,0,0.09-0.01c0.49-0.17,0.98-0.35,1.47-0.53c0.85-0.31,1.7-0.61,2.54-0.92
					c0.38-0.14,0.76-0.28,1.12-0.44c0.3-0.14,0.59-0.31,0.88-0.47c0.12-0.07,0.25-0.12,0.35-0.21c0.23-0.19,0.44-0.39,0.66-0.58
					c0.12-0.11,0.18-0.23,0.15-0.41c-0.01-0.08-0.03-0.14-0.1-0.19c-0.16-0.11-0.32-0.19-0.51-0.25c-0.42-0.12-0.83-0.14-1.25-0.04
					c-0.58,0.13-1.14,0.34-1.66,0.64c-0.46,0.27-0.94,0.51-1.41,0.77c-0.45,0.25-0.9,0.5-1.35,0.75c-0.5,0.28-1,0.55-1.5,0.82
					C44.61,57.49,44.78,57.84,44.94,58.19z"/>
				<path class="st0" d="M36.97,65.4c-0.89-1.8-1.79-3.62-2.7-5.46c1.38-0.67,2.76-1.34,4.15-2.01c0.18,0.33,0.36,0.65,0.54,0.98
					c0.2,0.37,0.4,0.74,0.6,1.12c0.21,0.38,0.41,0.77,0.61,1.16c0.18,0.35,0.37,0.7,0.54,1.05c0.2,0.39,0.38,0.78,0.57,1.17
					c0.02,0.05,0.04,0.08-0.03,0.11c-0.64,0.38-1.32,0.68-2.02,0.95c-0.46,0.18-0.91,0.37-1.37,0.56
					C37.58,65.13,37.28,65.26,36.97,65.4z"/>
			</g>
			<g>
				<path class="st0" d="M71.68,24.95c0.76,0.08,1.45,0.35,2.11,0.72c0.11,0.06,0.21,0.18,0.29,0.29c0.2,0.29,0.41,0.59,0.58,0.9
					c0.1,0.18,0.14,0.39,0.18,0.59c0.09,0.41,0.2,0.83,0.25,1.24c0.06,0.45,0.09,0.9,0.08,1.35c-0.01,0.4-0.07,0.8-0.13,1.19
					c-0.11,0.74-0.3,1.46-0.57,2.15c-0.27,0.68-0.53,1.37-0.86,2.02c-0.78,1.58-1.7,3.08-2.93,4.36c-0.63,0.66-1.32,1.26-2.12,1.71
					c-0.31,0.18-0.67,0.28-1,0.41c-0.05,0.02-0.11,0.04-0.17,0.05c-0.14,0.03-0.27,0.01-0.41-0.05c-0.6-0.29-1.21-0.56-1.81-0.85
					c-0.65-0.3-1.3-0.61-1.95-0.92c-0.05-0.02-0.11-0.07-0.13-0.12c-0.18-0.54-0.35-1.09-0.35-1.67c-0.01-0.62-0.02-1.25-0.05-1.87
					c-0.05-1.01,0.09-1.99,0.41-2.94c0.42-1.23,1-2.38,1.58-3.54c0.41-0.81,1-1.47,1.6-2.13c0.29-0.33,0.58-0.66,0.91-0.96
					c0.4-0.37,0.85-0.69,1.27-1.05c0.37-0.31,0.78-0.53,1.24-0.67c0.43-0.14,0.87-0.21,1.32-0.22
					C71.22,24.95,71.45,24.95,71.68,24.95z M67.52,37.26c0.29-0.46,0.56-0.91,0.84-1.36c0.62-1.01,1.26-2,1.84-3.02
					c0.3-0.53,0.53-1.11,0.75-1.69c0.1-0.28,0.09-0.6,0.14-0.91c0.04-0.22-0.14-0.45-0.37-0.43c-0.45,0.03-0.84,0.24-1.17,0.53
					c-0.41,0.36-0.74,0.81-0.97,1.3c-0.35,0.75-0.66,1.51-0.98,2.27c-0.28,0.66-0.54,1.34-0.82,2c-0.11,0.26-0.22,0.53-0.33,0.79
					C66.82,36.92,67.17,37.09,67.52,37.26z"/>
				<path class="st0" d="M67.99,43.59c-0.58,1.54-1.51,2.83-2.2,4.27c-1.84-0.86-3.67-1.72-5.51-2.58c0.66-1.39,1.32-2.78,1.99-4.18
					C64.17,41.93,66.07,42.76,67.99,43.59z"/>
			</g>
			<g>
				<path class="st0" d="M61.57,63.55c0.03-0.55,0.06-1.09,0.1-1.64c0.04-0.49,0.07-0.97,0.14-1.46c0.08-0.59,0.28-1.16,0.51-1.71
					c0.38-0.91,0.87-1.76,1.39-2.59c0.37-0.59,0.75-1.18,1.18-1.74c0.26-0.34,0.6-0.62,0.91-0.9c0.47-0.42,0.93-0.86,1.44-1.24
					c0.5-0.38,1.04-0.71,1.58-1.03c0.47-0.27,1-0.37,1.53-0.4c0.59-0.04,1.18,0,1.74,0.18c0.34,0.11,0.67,0.26,1,0.42
					c0.23,0.11,0.48,0.21,0.65,0.38c0.22,0.22,0.36,0.52,0.53,0.78c0.33,0.49,0.33,1.05,0.4,1.6c0.05,0.47,0.11,0.94,0.1,1.41
					c0,0.4-0.07,0.8-0.14,1.19c-0.19,1.03-0.54,2.02-1.02,2.95c-0.35,0.69-0.71,1.38-1.12,2.03c-0.43,0.68-0.91,1.34-1.41,1.98
					c-0.52,0.67-1.1,1.3-1.75,1.84c-0.43,0.35-0.89,0.67-1.35,0.98c-0.3,0.2-0.61,0.4-0.95,0.53c-0.41,0.15-0.85,0.23-1.29,0.34
					c-0.04,0.01-0.09-0.01-0.13-0.03c-0.71-0.41-1.42-0.82-2.13-1.23c-0.52-0.3-1.04-0.59-1.55-0.9c-0.08-0.05-0.16-0.14-0.17-0.23
					c-0.08-0.42-0.14-0.83-0.2-1.25C61.54,63.72,61.56,63.63,61.57,63.55C61.56,63.55,61.57,63.55,61.57,63.55z M66.44,62.79
					c0.03-0.04,0.06-0.08,0.09-0.12c0.45-0.6,0.91-1.2,1.36-1.81c0.37-0.5,0.72-1,1.11-1.49c0.53-0.66,0.97-1.38,1.33-2.14
					c0.15-0.31,0.2-0.67,0.29-1.01c0.02-0.08,0.05-0.18,0.02-0.24c-0.13-0.28-0.25-0.33-0.56-0.28c-0.43,0.07-0.81,0.25-1.14,0.53
					c-0.55,0.47-0.95,1.06-1.29,1.71c-0.35,0.68-0.71,1.36-1.06,2.04c-0.36,0.69-0.73,1.38-1.09,2.07
					c-0.04,0.07-0.05,0.13,0.04,0.18C65.84,62.42,66.14,62.61,66.44,62.79z"/>
				<path class="st0" d="M60.85,66.16c1.84,0.99,3.69,1.95,5.48,3.02c-0.7,1.46-1.75,2.67-2.56,4.02c-1.75-1.02-3.5-2.04-5.26-3.07
					C59.28,68.8,60.06,67.48,60.85,66.16z"/>
			</g>
			<g>
				<path class="st1" d="M41.32,20.7l-2.79,0.38l-6.09,0.77l-8.01,1.14l-7.77,0.94l2.47,15.1l0.25,1.65l0.14-0.02l0.45-0.07
					l3.26-0.53l6.54-1.06l0.05,0.29l1.68,14.15l5.88-0.97l-2.03-14.36l1.82-0.27l7.88-1.47l4.34-9.11L41.32,20.7z M40.91,32.22
					l-7.49,0.95l-9.88,1.93l-1.26-6.58l5.27-0.78l3.71-0.65l5.29-0.67l3.16-0.43l3.09,2.26L40.91,32.22z"/>
				<path class="st1" d="M7.91,14.91l6.68,7.56l10.9-1.21l1.78-0.21l0.4,4.04l5.92-1.18l-0.64-3.29l-0.03-0.29l6.58-0.78l3.28-0.39
					l0.45-0.05l0.14-0.02l-0.21-1.65L41.24,1.77L33.5,3.01l-8.01,1.11l-8.98,1.39l-2.79,0.4L7.91,14.91z M14.51,14.05l2.21-3.5
					l6.08-0.91l5.27-0.82l3.75-0.39l5.28-0.71l0.74,7.14l-10.03,0.87l-10.38,1.6L14.51,14.05z"/>
			</g>
		</g>
	</g>
</switch>
</svg>
