<svg xmlns="http://www.w3.org/2000/svg" id="Calque_2" viewBox="0 0 300 300">
  <style type="text/css">
    .st0{fill:#213B58;}
</style>
  <defs></defs>
  <path class="st0"
    d="M108.48,55.49l9.45,10.61,30.23,34.59,12.52-11.67,30.23-31.83-13.94-15.28-25.98-29.92-10.39,9.97-28.34,29.71-3.78,3.82ZM137.53,55.91l11.34-11.04,5.43,5.94,5.67,6.37-10.39,10.82-5.43-5.94-6.61-6.15Z"></path>
  <path class="st0"
    d="M98.73,287.22c8.44.27,16.81.53,25.08.8,20.7-.18,41.55-.36,62.54-.53,3.59.09,7.17.18,10.73.27,5.79-7.82,11.11-16,15.82-24.43,18.17-44.26,13.82-95.35-12.67-136.53-9.91-.36-19.7-.71-29.35-1.07-23.05.18-46.26.36-69.63.53-6.74,10.23-12.31,21.08-16.62,32.28-14.84,42.39-10.61,89.95,14.09,128.68ZM134.67,177.81c3.03-2.62-.85-8.28,1.82-10.68.43-1.79-.43,1.91,0,.13,9.94.09,21.32.99,31.28,1.09-.08,1.95.12-1.97,0,0,1.73,2.07,2.89,3.81,4.29,6.03.08.09.16.19.23.28,10.18,11.67,7.54,25.49,4.93,38.79-1.64,11.27-.58,22.16-9.57,31.39-.11,2.1.25-2.18.12-.1-10.62-.29-22.03,1.39-32.74,1.09-.09-1.46.08,1.45,0-.02-9.56-9.55-10.69-21.62-12.73-33.45-2.92-13.16,1.87-23.02,12.37-34.56Z"></path>
</svg>