<?xml version="1.0" encoding="utf-8"?>
<!-- Generator: Adobe Illustrator 23.0.3, SVG Export Plug-In . SVG Version: 6.00 Build 0)  -->
<svg version="1.1" id="Calque_1" xmlns="http://www.w3.org/2000/svg" xmlns:xlink="http://www.w3.org/1999/xlink" x="0px" y="0px"
	 viewBox="0 0 85.04 85.04" style="enable-background:new 0 0 85.04 85.04;" xml:space="preserve">
<style type="text/css">
	.st0{fill:#003A5D;}
</style>
<g>
	<path class="st0" d="M64.82,23.51c2.77-3.12,7.46-7.53,9.46-9.38c3.14,2.55,7.65,6.8,9.69,8.75l-9.78,10.49L64.82,23.51z"/>
	<path class="st0" d="M42.55,12.05c3.12,2.77,7.53,7.46,9.38,9.46c-2.55,3.14-6.8,7.65-8.75,9.69l-9.72-9.06L42.55,12.05z"/>
	<path class="st0" d="M10.93,10.9c3.12,2.77,8.39,8.03,10.25,10.04c-2.55,3.14-8.87,7.41-10.82,9.45L1.07,20.27L10.93,10.9z"/>
	<path class="st0" d="M59.68,36.11c2.9,2.52,7.38,7.91,9.62,10.35c-2.55,3.14-6.8,7.65-8.99,9.47l-10.49-9.78L59.68,36.11z"/>
	<path class="st0" d="M43.19,55.34c3.12,2.77,9.33,7.8,11.19,9.8c-2.55,3.14-7.59,6.96-9.55,9l-10.49-9.78L43.19,55.34z"/>
	<path class="st0" d="M27.91,35.25c3.12,2.77,7.53,7.46,9.38,9.46c-2.55,3.14-7.86,8.83-11.28,11.16L17.44,44.1L27.91,35.25z"/>
</g>
</svg>
