<?xml version="1.0" encoding="utf-8"?>
<!-- Generator: Adobe Illustrator 23.0.3, SVG Export Plug-In . SVG Version: 6.00 Build 0)  -->
<svg version="1.1" id="Calque_1" xmlns="http://www.w3.org/2000/svg" xmlns:xlink="http://www.w3.org/1999/xlink" x="0px" y="0px"
	 viewBox="0 0 85.04 85.04" style="enable-background:new 0 0 85.04 85.04;" xml:space="preserve">
<style type="text/css">
	.st0{fill:#65BC99;}
	.st1{fill:#67BD9A;}
</style>
<g>
	<g>
		<g>
			<path class="st0" d="M6.56,45.1c0.3,1.82,0.64,3.62,1.04,5.42c1.24,5.58,4.18,13.49,8.35,17.4c3.03,2.84,10.1,8.93,15.72,10.69
				c1.98,0.62,4.66,1.37,6.7,1.7c2.02,0.32,4.89,0.12,7.38-0.04c2.47-0.16,4.96-0.52,7.38-1.08c3.5-0.81,6.91-2,10.15-3.6
				c2.88-1.42,5.54-3.23,7.44-5.85c2.52-3.48,4.89-7.1,6.15-11.26c3.38-11.22,1.01-21.77,0.61-23.57
				c-1.24-5.58-2.77-9.87-6.21-14.71c-2.41-3.38-5.53-6.58-9.69-9.07c-2.4-1.44-5.05-3.52-7.65-4.52c-1.93-0.75-4.05-1.12-6.04-1.7
				c-2.4-0.7-5.28-0.19-7.77-0.03c-2.47,0.16-4.96,0.52-7.38,1.08c-3.5,0.81-6.91,2-10.15,3.6c-2.88,1.42-5.54,3.23-7.44,5.85
				c-2.52,3.48-4.78,7.14-6.15,11.26c-0.79,2.36-1.59,4.72-2.25,7.12C6.09,36.2,6.56,45.1,6.56,45.1z M31.14,16.34
				c2.19-0.91,6.76-2.47,9.14-2.81c8.51-1.21,16.04,3.71,18.24,5.24c0.36,0.25,0.7,0.52,0.98,0.84c2.51,2.78,4.77,4.06,5.78,7.87
				c0.78,2.91,2.33,5.83,2.85,8.8c1.69,9.85-0.23,18.35-1.86,22.57c-0.41,1.06-8.81,9.07-12.73,10.94
				c-5.87,2.8-15.13-0.38-19.05-1.59C9.48,60.53,14.22,23.37,31.14,16.34z"/>
		</g>
	</g>
	<path class="st0" d="M61.71,52.47c-0.97,1.27-2.06,2.47-3.25,3.54c-1.19,1.08-2.42,2.51-3.96,3.07c-1.28,0.46-2.53,1.09-3.86,1.44
		c-1.79,0.47-4.1,0.35-5.99,0.49c-3.27,0.25-6.34-0.31-9.13-1.25c-4-1.35-9.06-4.56-11.06-6.73c1.6-2.14,3.38-5.15,5.3-7.05
		c0.43,0.59,4.27,2.96,5.85,4.17c2.02,1.54,3.57,1.42,5.82,1.89c0.26,0.06,0.69,0.11,0.95,0.11c1.64-0.01,8.41-0.78,11.81-4.47
		L61.71,52.47z"/>
	<path class="st0" d="M28.78,31.2c-0.09,1.81,0.81,5.96,0.89,8.55c1.74,0.19,5.11-0.17,7.79-0.13l0.5-8.08L28.78,31.2z"/>
	<path class="st0" d="M45.84,32.08c0.25,1.79,1.91,5.71,2.47,8.23c1.74-0.13,4.99-1.12,7.63-1.58l-1.02-8.03L45.84,32.08z"/>
</g>
</svg>
