<?xml version="1.0" encoding="utf-8"?>
<!-- Generator: Adobe Illustrator 24.3.0, SVG Export Plug-In . SVG Version: 6.00 Build 0)  -->
<!DOCTYPE svg PUBLIC "-//W3C//DTD SVG 1.1//EN" "http://www.w3.org/Graphics/SVG/1.1/DTD/svg11.dtd" [
	<!ENTITY ns_extend "http://ns.adobe.com/Extensibility/1.0/">
	<!ENTITY ns_ai "http://ns.adobe.com/AdobeIllustrator/10.0/">
	<!ENTITY ns_graphs "http://ns.adobe.com/Graphs/1.0/">
	<!ENTITY ns_vars "http://ns.adobe.com/Variables/1.0/">
	<!ENTITY ns_imrep "http://ns.adobe.com/ImageReplacement/1.0/">
	<!ENTITY ns_sfw "http://ns.adobe.com/SaveForWeb/1.0/">
	<!ENTITY ns_custom "http://ns.adobe.com/GenericCustomNamespace/1.0/">
	<!ENTITY ns_adobe_xpath "http://ns.adobe.com/XPath/1.0/">
]>
<svg version="1.1" id="Calque_1" xmlns:x="&ns_extend;" xmlns:i="&ns_ai;" xmlns:graph="&ns_graphs;"
	 xmlns="http://www.w3.org/2000/svg" xmlns:xlink="http://www.w3.org/1999/xlink" x="0px" y="0px" viewBox="0 0 85.04 85.04"
	 style="enable-background:new 0 0 85.04 85.04;" xml:space="preserve">
<style type="text/css">
	.st0{fill:none;stroke:#0C3C5C;stroke-width:7;stroke-miterlimit:10;}
	.st1{fill:none;stroke:#0C3C5C;stroke-width:5;stroke-miterlimit:10;}
	.st2{fill:#0C3C5C;}
	.st3{fill:none;stroke:#0C3C5C;stroke-width:3;stroke-miterlimit:10;}
	.st4{fill:none;stroke:#0C3C5C;stroke-width:6;stroke-miterlimit:10;}
	.st5{fill:none;stroke:#0C3C5C;stroke-width:4;stroke-miterlimit:10;}
	.st6{fill:#263D5B;}
	.st7{fill:none;stroke:#0C3C5C;stroke-width:9;stroke-miterlimit:10;}
	.st8{fill:none;stroke:#0C3C5C;stroke-width:2;stroke-miterlimit:10;}
	.st9{fill:#0C3C5C;stroke:#0C3C5C;stroke-width:2;stroke-miterlimit:10;}
	.st10{fill:none;stroke:#0C3C5C;stroke-miterlimit:10;}
	.st11{fill:none;stroke:#0C3C5C;stroke-width:1.5;stroke-miterlimit:10;}
	.st12{fill:none;stroke:#0C3C5C;stroke-width:0.75;stroke-miterlimit:10;}
	.st13{fill:none;stroke:#0C3C5C;stroke-width:3;stroke-miterlimit:10;stroke-dasharray:2,3;}
	.st14{fill:none;stroke:#0C3C5C;stroke-width:0.5;stroke-miterlimit:10;}
	.st15{fill:none;stroke:#0C3C5C;stroke-width:0.25;stroke-miterlimit:10;}
	.st16{fill:none;stroke:#0C3C5C;stroke-width:8;stroke-miterlimit:10;}
	.st17{fill:#FFFFFF;stroke:#0C3C5C;stroke-width:0;stroke-miterlimit:10;}
	.st18{fill:none;stroke:#0C3C5C;stroke-width:2.5;stroke-miterlimit:10;}
	.st19{fill:#253C59;}
</style>
<switch>
	<foreignObject requiredExtensions="&ns_ai;" x="0" y="0" width="1" height="1">
		<i:aipgfRef  xlink:href="#adobe_illustrator_pgf">
		</i:aipgfRef>
	</foreignObject>
	<g i:extraneous="self">
		<polyline class="st1" points="16.56,43.65 26.4,32.61 37.73,43.65 		"/>
		<polyline class="st1" points="31.25,24.19 41.09,13.16 52.42,24.19 		"/>
		<polyline class="st1" points="46.46,43.65 56.3,32.61 67.63,43.65 		"/>
		<line class="st18" x1="39.31" y1="50.56" x2="39.31" y2="53.72"/>
		<line class="st18" x1="44.24" y1="50.56" x2="44.24" y2="53.72"/>
		<line class="st18" x1="39.31" y1="54.92" x2="39.31" y2="58.08"/>
		<line class="st18" x1="44.24" y1="54.92" x2="44.24" y2="58.08"/>
		<polygon class="st2" points="40.98,27.94 37.73,31.05 40.98,34.41 44.34,31.18 		"/>
		<path class="st1" d="M59.46,43.65v24.63c0,1.77-1.44,3.21-3.21,3.21H27.32c-1.62,0-2.93-1.31-2.93-2.93V44.32"/>
		<rect x="36.68" y="49.83" class="st2" width="2.59" height="2.42"/>
		<rect x="44.41" y="49.83" class="st2" width="2.59" height="2.42"/>
		<rect x="36.68" y="56.33" class="st2" width="2.59" height="2.42"/>
		<rect x="44.41" y="56.33" class="st2" width="2.59" height="2.42"/>
		<rect x="36.31" y="49.29" class="st15" width="11.23" height="9.92"/>
	</g>
</switch>
</svg>
