<?xml version="1.0" encoding="utf-8"?>
<!-- Generator: Adobe Illustrator 23.0.3, SVG Export Plug-In . SVG Version: 6.00 Build 0)  -->
<svg version="1.1" id="Calque_1" xmlns="http://www.w3.org/2000/svg" xmlns:xlink="http://www.w3.org/1999/xlink" x="0px" y="0px"
	 viewBox="0 0 85.04 85.04" style="enable-background:new 0 0 85.04 85.04;" xml:space="preserve">
<style type="text/css">
	.st0{fill:#D63313;}
</style>
<path class="st0" d="M76.93,43.21c-0.95-1.77-2.05-3.55-2.62-4.45v0c-3.54-5.54-12.39-11.29-15.02-12.92
	c-1.76-1.09-4.08-1.97-6.88-2.6c3.3-3.89,7.63-6.34,12.88-7.28l1.01-0.18l2.18-14.82l-0.31,0.03c-2,0.21-4.04,0.57-5.09,0.76
	c-6.45,1.2-15.08,7.26-17.58,9.09c-1.29,0.94-2.59,2.25-3.87,3.89c-0.22-0.36-0.43-0.7-0.62-1C37.81,8.68,30.31,4.14,24.86,1.79
	l-0.27-0.12l-2.81,13.7l0.17,0.08c3.57,1.75,6.47,4.13,8.63,7.09c-0.06,0.01-0.13,0.03-0.19,0.04c-3.01,0.71-13.21,3.35-18.31,7.49
	c-0.83,0.67-2.43,2-3.89,3.39l-0.23,0.22l12.61,7.99l0.8-0.65c4.23-3.47,9.03-5.19,14.24-5.08c4.46,7.9,4.36,38.34,2.72,46.6
	l-0.22,1.12l15.2,0.42l0.01-0.24c0.01-0.19,0.66-19.29,0.66-22.24c0-6.52-1.04-13.89-2.06-17.79c-0.31-1.16-0.63-2.62-0.97-4.16
	c-0.2-0.88-0.4-1.81-0.62-2.75c4.9,1.58,8.84,4.7,11.72,9.29l0.55,0.87l14.48-3.58L76.93,43.21z"/>
</svg>
