<?xml version="1.0" encoding="UTF-8" standalone="no"?>
<svg
   xmlns:i="&amp;ns_ai;"
   xmlns:dc="http://purl.org/dc/elements/1.1/"
   xmlns:cc="http://creativecommons.org/ns#"
   xmlns:rdf="http://www.w3.org/1999/02/22-rdf-syntax-ns#"
   xmlns:svg="http://www.w3.org/2000/svg"
   xmlns="http://www.w3.org/2000/svg"
   xmlns:sodipodi="http://sodipodi.sourceforge.net/DTD/sodipodi-0.dtd"
   xmlns:inkscape="http://www.inkscape.org/namespaces/inkscape"
   version="1.1"
   id="Calque_1"
   x="0px"
   y="0px"
   viewBox="0 0 85.04 85.04"
   style="enable-background:new 0 0 85.04 85.04;"
   xml:space="preserve"
   sodipodi:docname="SIGNES_JAMBVILLE_alveole.svg"
   inkscape:version="1.0.2-2 (e86c870879, 2021-01-15)"><metadata
   id="metadata308"><rdf:RDF><cc:Work
       rdf:about=""><dc:format>image/svg+xml</dc:format><dc:type
         rdf:resource="http://purl.org/dc/dcmitype/StillImage" /><dc:title></dc:title></cc:Work></rdf:RDF></metadata><defs
   id="defs306" /><sodipodi:namedview
   pagecolor="#ffffff"
   bordercolor="#666666"
   borderopacity="1"
   objecttolerance="10"
   gridtolerance="10"
   guidetolerance="10"
   inkscape:pageopacity="0"
   inkscape:pageshadow="2"
   inkscape:window-width="741"
   inkscape:window-height="480"
   id="namedview304"
   showgrid="false"
   inkscape:zoom="11.853245"
   inkscape:cx="42.52"
   inkscape:cy="42.52"
   inkscape:window-x="0"
   inkscape:window-y="0"
   inkscape:window-maximized="0"
   inkscape:current-layer="Calque_1" />
<style
   type="text/css"
   id="style283">
	.st0{fill:#D63313;}
	.st1{fill:#6F74AA;}
	.st2{fill:#003A5D;}
	.st3{fill:#F18800;}
	.st4{fill:#D63414;}
	.st5{fill:#D63817;}
	.st6{fill:#F18A01;}
	.st7{fill:#F28A02;}
	.st8{fill:#F28A03;}
	.st9{fill:#F28A05;}
	.st10{fill:#65BC98;}
	.st11{fill:#6E74AA;}
	.st12{fill:#F18700;}
</style>
<switch
   id="switch301">
	<foreignObject
   requiredExtensions="http://ns.adobe.com/AdobeIllustrator/10.0/"
   x="0"
   y="0"
   width="1"
   height="1">
		
	</foreignObject>
	<g
   i:extraneous="self"
   id="g299">
		<g
   id="g297">
			<g
   id="g287">
				<path
   class="st2"
   d="M26.46,19.47l6.77,5.55l-1.42,8.64l-8.19,3.09l-6.77-5.55l1.42-8.64L26.46,19.47 M28.15,9.21l-17.92,6.75      L7.12,34.86L21.92,47l17.92-6.75l3.11-18.89L28.15,9.21L28.15,9.21z"
   id="path285" />
			</g>
			<g
   id="g291">
				<path
   class="st2"
   d="M39.94,52.95l6.77,5.55l-1.42,8.64l-8.19,3.09l-6.77-5.55l1.42-8.64L39.94,52.95 M41.63,42.7l-17.92,6.75      l-3.11,18.89L35.4,80.49l17.92-6.75l3.11-18.89L41.63,42.7L41.63,42.7z"
   id="path289" />
			</g>
			<g
   id="g295">
				<path
   class="st2"
   d="M62.4,25.39l6.77,5.55l-1.42,8.64l-8.19,3.09l-6.77-5.55l1.42-8.64L62.4,25.39 M64.09,15.13l-17.92,6.75      l-3.11,18.89l14.81,12.14l17.92-6.75l3.11-18.89L64.09,15.13L64.09,15.13z"
   id="path293" />
			</g>
		</g>
	</g>
</switch>

</svg>
